{
  "actions":{
     "Login":"Log masuk",
     "Register":"Daftar",
     "Email":"Email",
     "Your email":"your@email.com",
     "Reset Password":"Reset Sandi",
     "password":"sandi",
     "Forgot Password":"Lupa Sandi",
     "Submit":"Kirim",
     "First Name":"Nama Depan",
     "Last Name":"Nama Belakang",
     "Mobile":"Perangkat Bergerak",
     "Password requirement":"Sandi min 8 karakter",
     "Password match":"Sandi harus sesuai",
     "Passwords not matching":"Kata sandi tidak cocok",
     "Confirm Password":"Konfirmasi Sandi",
     "Change Details":"Ubah Detail",
     "Change Password":"Ubah Sandi",
     "Change batteries":"Ganti baterai",
     "Current Password":"Kata sandi saat ini",
     "New Password":"Kata sandi baru",
     "Edit Account Details":"Edit Detail Akun",
     "Filter":"Filter",
     "Check Validity":"Periksa Validitas",
     "New Key":"Kunci baru",
     "Update Logs":"Perbarui Catatan Aktivitas",
     "Change language":"Ganti Bahasa",
     "Select Listing":"Pilih Rumah",
     "Select City":"Pilih Kota",
     "Select One":"Pilih Satu",
     "Test Welcome Email":"Kirim Percobaan Email Selamat Datang",
     "Test Access Email":"Kirim Percobaan PIN Email",
     "Contact Support":"Kirim Percobaan Akses Email",
     "Add":"Tambahkan",
     "Delete":"Hapus",
     "Delete Lock":"Hapus Kunci",
     "Delete Home":"Hapus Rumah",
     "Create PIN":"Buat PIN",
     "Create Bluetooth Key":"Buat Kunci",
     "Edit PIN":"Sunting PIN",
     "Edit Key Card":"Sunting Kartu Kunci",
     "Confirm":"Konfirmasi",
     "Edit Master PIN":"Sunting PIN Master",
     "Disconnect Airbnb":"Putuskan Sambungan Airbnb",
     "Connect Airbnb":"Sambungkan dengan Airbnb",
     "Connect Airbnb Message":"Tolong sambungkan igloohome ke akun host utama Airbnb bukan akun co-host",
     "Back":"Kembali",
     "Ok":"Ok",
     "Cancel":"Batal",
     "Cancel Sync":"Batalkan Sinkronisasi",
     "Retry":"Mencoba kembali",
     "Done":"Selesai",
     "Load More":"Muat Lebih Banyak",
     "OR":"ATAU",
     "Send Key":"Kirim Kunci",
     "Close":"Tutup",
     "Set Up Now":"Siapkan sekarang",
     "Set Up Later":"Siapkan nanti",
     "FingerPrint Message":"Log masuk cepat dengan sidik jari. Sebagai alternatif, Anda dapat mengaturnya pada 'Pengaturan Akun'.",
     "Touch Id Message":"Log masuk cepat dengan Touch ID. Sebagai alternatif, Anda dapat mengaturnya pada 'Pengaturan Akun'.",
     "Face Id Message":"Login cepat dengan Face ID. Atau, Anda dapat mengatur nanti di bawah 'Pengaturan Akun'.",
     "Press back again to exit App.":"Tekan sekali lagi untuk keluar.",
     "Accept":"Setuju",
     "Reject":"Tolak",
     "Yes":"Ya",
     "No":"Tidak"
  },
  "pairing":{
     "Pairing":"Memasangkan",
     "Start pairing":"Mulai memasangkan",
     "Step 1":"Letakkan telapak tangan pada keypad untuk mengaktifkan kunci",
     "Step 1 padlock":"Tekan nomor bebas untuk mengaktifkan kunci.",
     "Step 1 euroRetrofit":"Harap biarkan kunci tidak terkunci dan tahan tombol multifungsi hingga kunci berkedip biru.",
     "Step 1 keybox":"Harap buka kunci dan letakkan telapak tangan di atas keypad untuk mengaktifkan kunci",
     "Keybox warning":"Jangan Menutup Keybox sampai proses memasangkan telah selesai.",
     "Scan":"Pilih kuci bluetooth untuk disambungkan.",
     "Next":"Lanjut",
     "Try Again":"Coba Lagi",
     "Pairing in progress":"Sedang berpasangan...",
     "Please wait":"Please wait...",
     "Almost done":"Almost done...",
     "Step 1: Select Property":"Langkah 1: Pilih Properti",
     "Step 2: Select Lock Model":"Langkah 2: Pilih Model Kuncian",
     "Step 3: Pair your device":"Langkah 3: Pasangkan perangkat anda",
     "Step 3: Select Product ID":"Langkah 3: Pilih ID Produk",
     "PAIRING_STEP_1":"Lepas panel belakang kunci",
     "PAIRING_STEP_2":"Letakkan telapak tangan pada keypad untuk mengaktifkan kunci",
     "PAIRING_STEP_2_KEYBOX":"Harap buka kunci dan letakkan telapak tangan di atas keypad untuk mengaktifkan kunci",
     "PAIRING_STEP_3":"Lepas dan masukkan satu baterai",
     "PAIRING_STEP_4_L":"Tekan dan tahan tombol buka kunci selama 2 detik",
     "PAIRING_STEP_4_B":"tekan dan tahan tombol # selama 2 detik",
     "PAIRING_STEP_5_L":"Dengarkan suara 4 bip, diikuti 2 bip",
     "PAIRING_STEP_5_B":"Dengarkan suara 2 bip",
     "I hear the beeps":"Saya mendengar suara bip",
     "PAIRING_LOCKBOX_STEP_1":"Putar penutup baterai searah jarum jam untuk membukanya.",
     "PAIRING_LOCKBOX_STEP_2":"Gunakan benda runcing untuk menekan tombol reset yang ada di antara slot baterai ke-3 dan ke-4. Tahan selama 2 detik.",
     "PAIRING_LOCKBOX_STEP_3":"Tekan Lanjut jika sudah selesai.",
     "PAIRING_BOLT2_NON_FACTORY_STEP_1":"Cari Tombol Reset yang dapat di temukan di lubang Atas Kanan dari bagian belakang sisi Rakitan Depan Kunci.",
     "PAIRING_BOLT2_NON_FACTORY_STEP_2":"Tekan tombol reset menggunakan barang tajam dan tekan Selama 20 detik",
     "PAIRING_BOLT2_NON_FACTORY_STEP_3":"Apabila memerlukan dukungan lebih lanjut, kunjungi igloohome Help Center pada Halaman Dukungan.",
     "PAIRING_MORTISE_NON_FACTORY_STEP_1":"Cari tombol reset yang terletak di kanan bawah kompartemen baterai.",
     "PAIRING_MORTISE_NON_FACTORY_STEP_2":"Tekan tombol reset bersamaan dengan tombol hash pada keypad sampai terdengar suara bip.",
     "PAIRING_KEYBOX_2_STEP_1":"Buka Keybox 2 dan lepaskan penutup baterai.",
     "PAIRING_KEYBOX_2_STEP_2":"Gunakan benda tajam untuk menekan tombol reset di antara slot baterai ke-2 dan ke-3. Tahan selama 2 detik.",
     "PAIRING_PADLOCK_RESET_STEP_1":"Temukan tombol reset pada lubang di bagian belakang setelah melepas penutup baterai.",
     "PAIRING_PADLOCK_RESET_STEP_2":"Picu tombol reset menggunakan benda tipis dan tahan selama 3 detik sehingga Anda akan mendengar nada konfirmasi.",
     "PAIRING_BOLT2S_IGB4_RESET_STEP_1":"Tahan tombol [CLEAR] and tombol bagian belakang body yang berada di bawah jempol dan tahan selama 3 detik sehingga Anda akan mendengar nada konfirmasi.",
     "PAIRING_MORTISE_IGM2_RESET_STEP_1":"Tahan tombol [CLEAR] dan tombol [R] setelah melepaskan penutup baterai selama 3 detik dan tahan selama 3 detik sehingga Anda akan mendengar nada konfirmasi.",
     "errors":{
        "There are no bluetooth devices detected in your network.":"Tidak ada perangkat bluetooth terdeteksi pada jaringan Anda.",
        "Try to turn bluetooth off and then on again.":"Coba matikan dan nyalakan lagi bluetooth.",
        "We are unable to connect to the device selected.":"Kami tidak bisa menghubungkan ke perangkat yang dipilih.",
        "The lock that you are trying to add has already been claimed by another user.":"Kunci yang Anda coba tambahkan telah diklaim oleh pengguna lain.",
        "Please get the previous owner to delete the lock. The delete lock option can be found under the 'Set Up Home' menu.":"Harap minta pemilik sebelumnya untuk menghapus kunci. Pilihan menghapus kunci dapat ditemukan di bawah menu ‘Atur Beranda’.",
        "If you believe this to be in error, please contact Igloohome at support@igloohome.co":"Jika Anda yakin ini karena suatu kesalahan, silakan kunjungi igloohome Help Center pada Halaman Dukungan.",
        "NOT_IGLOOHOME":"Perangkat igloohome tidak ditemukan.",
        "Please try again.":"Silakan coba lagi.",
        "Lock deactivated during pairing":"Kunci non-aktif selama pemasangan",
        "Place palm over keypad to reactivate it":"Letakkan telapak tangan pada keypad untuk mengaktifkan lagi",
        "NETWORK_ERROR_MSG":"Kami mengalami masalah. Silakan periksa pengaturan jaringan Anda dan coba lagi.",
        "ENSURE_LOCK_ON":"Silakan coba lagi dan pastikan lampu pada kunci menyala.",
        "OWN_LOCK_ALREADY_PAIRED":"Kunci ini telah terpasang dengan akun anda.",
        "UNABLE_TO_COMPLETE_PAIRING_ERROR":"Kami mengalami kesalahan dalam proses pemasangan.",
        "The lock that you are trying to add has already been blocked.":"Kunci yang Anda coba tambahkan sudah diblokir."
     }
  },
  "tabs":{
     "Active":"AKTIF",
     "Valid Keys":"Semua kunci yang valid",
     "Valid Keys New":"Semua akses yang valid",
     "Inactive":"TIDAK AKTIF",
     "Invalid Keys":"Semua kode PIN yang kadaluarsa dan terpakai",
     "Invalid Keys New":"Semua Akses yang kadaluarsa dan terpakai",
     "Pending":"TERTUNDA",
     "Pending Keys":"Semua PIN masa depan, kunci bluetooth yang tertunda dan kode PIN yang tidak diperbarui. Silahkan klik 'Periksa Validitas' untuk memperbarui status kode PIN",
     "Pending Keys New":"Semua Akses di masa depan dan yang belum diklaim"
  },
  "settings":{
     "My Account":"Akun Saya",
     "My Preferences":"Preferensi Saya",
     "Notification Settings":"Pengaturan notifikasi",
     "Bluetooth Key Claimed":"Kunci Bluetooth diklaim",
     "Bluetooth Key Used":"BKunci Bluetooth yang digunakan",
     "Vibration Feedback":"Umpan Balik Getar",
     "Fingerprint Login":"Login Sidik Jari",
     "Face Id Login":"Log masuk Face ID",
     "Touch Id Login":"Log masuk Touch ID",
     "Language":"Bahasa",
     "Connect External Providers":"Sambungkan Penyedia",
     "Reservation Welcome Email":"Email selamat datang untuk Tamu",
     "Reservation Access Email":"Email Pin Airbnb untuk tamu",
     "Airbnb Connect Email Notifications":"Airbnb Connect Email Notifications",
     "hi":"Hai,",
     "My Details":"Rincian Saya",
     "Name, Contact":"Nama, Kontak",
     "Battery Sync Reminder":"Pengingat Sinkronisasi Baterai",
     "Every X month":"Setiap X bulan"
  },
  "checkbox":{
     "Unlock":"Buka Kunci",
     "Pairing":"Memasangkan",
     "Reset":"Reset",
     "Description: A - Z":"Deskripsi PIN: A - Z",
     "Description: Z - A":"Deskripsi PIN: Z - A",
     "Created: Earliest First":"Created: Earliest First",
     "Created: Latest First":"Created: Latest First",
     "Bluetooth Key":"Kunci Bluetooth",
     "Key Card":"Kartu Kunci"
  },
  "menu":{
     "Home":"Beranda",
     "Reservations":"Pemesanan",
     "Visits":"Kunjungan",
     "Configuration":"Konfigurasi",
     "Account Settings":"Pengaturan Akun",
     "Support":"Dukungan",
     "FAQ":"FAQ",
     "Logout":"Log keluar"
  },
  "reserveDetail":{
     "Check In Time":"Waktu Check In",
     "Check Out Time":"Waktu Check Out",
     "Send Access Email":"Kirim email akses"
  },
  "firmware":{
     "The update can take up to 10 minutes.":"The update can take up to 10 minutes.",
     "Please keep your internet connected with the app open and place your phone near your lock":"Please keep your internet connected with the app open and place your phone near your lock",
     "Please keep your internet connected with the app open and place your phone near your fob":"Please keep your internet connected with the app open and place your phone near your {{ecosystemType}}",
     "Please keep your internet connected with the app open and place your phone near your bridge":"Please keep your internet connected with the app open and place your phone near your {{ecosystemType}}",
     "Do not remove the batteries.":"Do not remove the batteries.",
     "Do not close your app.":"Do not close your app.",
     "If there is an error during update, please remove the batteries and put them back into the fob":"If there is an error during update, please remove the batteries and put them back into the {{ecosystemType}}.",
     "Unlock your lock and keep it open":"Unlock your lock and keep it open",
     "Please place your phone near your lock":"Please place your phone near your lock.",
     "Please place your phone near your fob":"Please place your phone near your {{ecosystemType}}.",
     "Please place your phone near your bridge":"Please place your phone near your {{ecosystemType}}.",
     "Updating Firmware":"Updating Firmware",
     "Firmware is up to date!":"Firmware is up to date!",
     "Current Firmware Version":"Current Firmware Version",
     "Update available!":"Update available!",
     "Firmware downloaded!":"Firmware downloaded!",
     "New Firmware Version":"New Firmware Version",
     "New Firmware available. Update Now.":"New Firmware available. Update Now.",
     "Please ensure that the lock is unlocked before you proceed.":"Please ensure that the lock is unlocked before you proceed.",
     "Step 1: Download Firmware":"Step 1: Download Firmware",
     "Step 2: Prepare your lock":"Step 2: Prepare your lock",
     "Step 3: Updating Firmware":"Step 3: Updating Firmware",
     "Step 2: Updating Firmware":"Step 2: Updating Firmware",
     "Step 1: Firmware Downloaded":"Step 1: Firmware Downloaded",
     "Step 3: Firmware Updated":"Step 3 : Firmware Updated",
     "IMPORTANT":"IMPORTANT",
     "update now":"Update Now",
     "Firmware update is not available yet":"Firmware update is not available yet.",
     "Do check again later":"Do check again later.",
     "firmware update":"firmware update",
     "Make sure the blue light on your Fob is flashing":"Make sure the blue light on your Key Fob is flashing.",
     "Please hold onto the settings button":"Please hold onto the settings button if the blue light on your Key Fob stops flashing."
  },
  "access":{
     "Access":"Akses",
     "Access Summary":"Ringkasan Akses",
     "keycard issued":"Kartu Kunci diberikan",
     "ekey issued":"Kunci Bluetooth diberikan",
     "exclude unclaimed ekey":"Kecualikan kunci yang belum di klaim",
     "pincode created":"Kode PIN Code dibuat",
     "exclude deleted pincode":"Kecualikan kode PIN yang sudah dihapus",
     "End time should be after start time":"Waktu akhir harus setelah waktu awal",
     "Start should be before end":"Tanggal mulai harus sebelum tanggal berakhir.",
     "The end date should not exceed one year from the start date":"Tanggal berakhir tidak boleh melebihi satu tahun sejak tanggal mulai.",
     "End date time should be current":"Waktu tanggal berakhir harus terkini.",
     "Start date time should be current":"Waktu tanggal mulai harus terkini",
     "Start date time should be before end date time":"Waktu tanggal mulai harus sebelum waktu tanggal berakhir",
     "End day must be within same week":"Waktu akhir harus dalam pekan yang sama",
     "End date\/time must be after start date\/time":"Tanggal\/waktu akhir harus setelah tanggal\/waktu awal",
     "The PIN code should be between 4 and 7 digits":"Kode PIN harus di antara 4 sampai 7 digit",
     "The PIN code should be between 7 and 9 digits":"Kode PIN harus antara 7 hingga 9 digit.",
     "The PIN codes do not match":"Kode PIN tidak sesuai.",
     "Please fill in both PIN codes":"Harap isi kedua kode PIN.",
     "Who is this key card for":"Untuk siapa Kartu Kunci ini",
     "Card ID":"Kartu ID",
     "Card added":"Kartu ditambahkan",
     "Ekey Details":"Detail Kunci Bluetooth",
     "Pending start time":"Menunda waktu mulai",
     "View all durations":"Lihat semua durasi",
     "All durations":"Semua durasi",
     "Duration":"Durasi",
     "received pin code for certain duration":"Anda telah menerima kode PIN {{code}}. Kode ini berlaku selama {{duration}}.",
     "received permanent or otp":"Anda telat menerima {{pinType}} dengan kode {{code}}",
     "Enter a new name for this PIN":"Masukkan nama baru untuk PIN ini:",
     "LIMITED_ACCESS_VIEW":"Karena koneksi internet yang buruk, kami tidak dapat mengambil daftar akses. Silahkan refresh halaman jika koneksi internet tersedia.",
     "Select an access type":"Pilih jenis akses",
     "Works forever":"Berfungsi selamanya",
     "Works for a period":"Berfungsi dalam satu periode",
     "Repeats forever":"Ulangi selamanya",
     "Repeat Every":"Repeat Every",
     "Works only once":"Hanya berfungsi sekali",
     "Unlocks with phone":"Buka kunci dengan ponsel",
     "Unlocks with keycard":"Buka kunci dengan kunci kartu",
     "Action Required":"Diperlukan Tindakan",
     "Please update activity log before registering key card.":"Harap perbarui catatan aktivitas sebelum mendaftarkan kartu kunci",
     "no access":"Tidak ada {{statusAccess}} akses untuk kunci ini.",
     "Sync to update status":"Sinkronisasi untuk memperbarui status",
     "Revoke":"Batalkan",
     "Clear":"Hapus",
     "Revoke bluetooth key":"Cabut Kunci Bluetooth?",
     "Delete Bluetooth Key Access":"Hapus Akses Kunci Bluetooth",
     "Clear Pin Access":"Hapus Akses PIN",
     "Delete Pin Access":"Hapus Akses PIN",
     "Delete Keycard Access":"Delete Keycard Access",
     "Delete Access Message":"Anda yakin ingin menghapus {{name}} {{accessType}}?",
     "Clear Access Message":"Anda yakin ingin menghapus {{name}} {{accessType}}?",
     "Revoke Access Message":"Anda yakin ingin membatalkan {{name}} {{accessType}}?",
     "PIN not synced":"PIN tidak disinkronkan",
     "Please Sync Status to update":"PIN tidak disinkronkan. Harap Sinkronkan Status untuk memperbarui.",
     "Share Bluetooth Key":"Bagi Kunci Bluetooth",
     "Share Key":"Bagi Kunci",
     "Scan key":"Pindai menggunakan pemindai QR penerima untuk menerima kunci",
     "pincodes":"Kodepin",
     "out of 285 PINs created":"{{number}} dari 285 PIN telah digunakan",
     "Bluetooth keys and PIN codes issued":"Kunci Bluetooth dan kode PIN yang diberikan",
     "Delete key card":"Hapus kartu kunci",
     "Share ekey message":"Saya sudah mengirim Anda kunci bluetooth igloohome. Untuk mengklaim kunci bluetooth klik pada URL berikut. ",
     "permanent pin generated":"PIN permanen berhasil dibuat",
     "duration pin generated":"PIN durasi berhasil dibuat",
     "otp pin generated":"PIN sekali pakai",
     "duration ekey generated":"Kunci Bluetooth berhasil dibuat",
     "weekly pin generated":"PIN mingguan telah dibuat",
     "weekend pin generated":"PIN akhir pekan telah dibuat",
     "weekday pin generated":"PIN hari kerja telah dibuat",
     "monthly pin generated":"PIN bulanan telah dibuat",
     "permanent nfc generated message":"Key card(s) added",
     "permanent pin generated message":"Silakan gunakan PIN dalam waktu 24 jam untuk mengaktifkannya.",
     "weekly pin generated message":"Silakan gunakan PIN dalam waktu 24 jam sejak waktu mulai untuk mengaktifkannya.",
     "weekday pin generated message":"Silakan gunakan PIN dalam waktu 24 jam sejak waktu mulai untuk mengaktifkannya.",
     "weekend pin generated message":"Silakan gunakan PIN dalam waktu 24 jam sejak waktu mulai untuk mengaktifkannya.",
     "monthly pin generated message":"Silakan gunakan PIN dalam waktu 24 jam sejak waktu mulai untuk mengaktifkannya.",
     "duration pin generated message":"Silakan gunakan PIN dalam waktu 24 jam sejak waktu mulai untuk mengaktifkannya.",
     "otp pin generated message":"Silakan gunakan PIN dalam waktu {{number}} jam sebelum kedaluwarsa.",
     "duration ekey generated message":"Harap pastikan bahwa Kunci Bluetooth diklaim dalam waktu {{number}} jam.",
     "Don't remind me again":"Jangan ingatkan saya lagi",
     "Every Week":"Setiap Minggu",
     "Every Month":"Setiap Bulan",
     "Every Monday to Friday":"Setiap Senin hingga Jumat",
     "Every Saturday and Sunday":"Setiap Sabtu dan Minggu",
     "Default":"Default",
     "Custom":"Kustom",
     "Generate PIN remotely":"Buat PIN jarak jauh",
     "Customize PIN via Bluetooth":"Kustomisasi PIN melalui Bluetooth",
     "Set your own PIN via bluetooth":"Atur PIN Anda melalui bluetooth",
     "Protips":"Protips",
     "All key cards look the same":"All key cards look the same so don't forget to label them!",
     "Step 1: Get your key card(s) ready":"Step 1: Get your key card(s) ready",
     "Step 2: Tap key card(s) on lock":"Step 2: Tap key card(s) on lock",
     "Step 3: Hold on to unlock until close sign appears":"Step 3: Hold on to 🔓 until 'CLOSE' sign appears.",
     "Step 4: Press and hold the lock icon until you hear a beep":"Step 4: Press and hold the 'lock' icon until you hear a beep",
     "key card(s) added":"Key card(s) added:",
     "You can add multiple cards at once":"You can add multiple cards at once.",
     "Start":"Mulai",
     "Ready":"Saya siap",
     "Enter name":"Masukkan nama",
     "Name X cards":"Nama {{number}} kartu",
     "SMS Pin Code":"{{pintype}} code anda: {{pincode}}.",
     "SMS Pin Validity":"Berlaku \nDARI {{from}} \nSAMPAI {{to}}.",
     "SMS Pin Validity Effective":"Berlaku \nEFEKTIF {{effective}} \nSETIAP {{every}} \nDARI {{from}} \nSAMPAI {{to}}.",
     "SMS Pin Activate":"Untuk Aktifasi, gunakan satu kali sebelum: {{date}}",
     "SMS Pin Use":"Gunakan sebelum: {{date}}"
  },
  "lock":{
     "Locks":"Kunci",
     "Pair a new lock":"Pasangkan kunci baru",
     "Other igloohome locks":"Kunci igloohome lainnya",
     "Lock paired":"Kunci telah dipasangkan!",
     "Edit lock name":"Edit Nama Kunci",
     "Enter lock name":"Masukkan nama kunci Anda",
     "Add Key Card":"Tambahkan Kartu Kunci",
     "Ensure that your bluetooth is turned on":"Pastikan bluetooth Anda dihidupkan",
     "On the lock keypad, enter":"Pada keypad, masukkan",
     "Tap your key card (s) on the key card reader":"Sentuh kartu kunci pada pembaca kartu kunci.",
     "Enter # on the keypad":"Masukkan # pada keypad",
     "Press [Sync] below to update":"Tekan [Sync] di bawah ini untuk memperbarui",
     "Sync":"Sync",
     "Unable to Sync":"Tidak dapat disinkronkan",
     "Create permanent PIN":"Buat PIN permanen",
     "Create duration PIN":"Buat durasi PIN",
     "Create one time PIN":"Buat PIN sekali pakai",
     "Create Bluetooth key":"Buat kunci Bluetooth",
     "Create recurring PIN":"Buat recurring PIN",
     "Type of recurring PIN":"Jenis recurring PIN",
     "other(s)":"lainnya",
     "Are you sure you want to delete":"Anda yakin ingin menghapus {{name}}",
     "Enter a new name for this lock":"Masukkan nama baru untuk kunci ini",
     "Status":"Status",
     "Go near lock":"Silakan letakkan ponsel Anda di dekat kunci.",
     "Last updated":"Terakhir diperbaharui",
     "Lock updated":"Kunci diperbaharui",
     "Last synced":"Terakhir disinkronkan",
     "Unable to check":"Tidak dapat memperbarui kunci. Silahkan coba lagi.",
     "Battery Status Unavailable":"Status Baterai tidak tersedia",
     "Lock Name":"Nama Kunci",
     "Associated Property(s)":"Properti Terkait",
     "Unpair lock from phone":"Lepas pasangan Kunci dari ponsel",
     "Delete All PINs":"Hapus Semua PIN",
     "Delete all PINs except for Master PIN":"Hapus semua PIN kecuali untuk PIN Master",
     "RESET_LOCK_CONFIRM_TITLE":"Hapus semua Kode PIN?",
     "RESET_LOCK_CONFIRM_MSG":"Ini harus dilakukan dalam jangkauan bluetooth kunci. Semua kode PIN yang dibuat akan dihapus dari kunci. Kode PIN master tidak akan dihapus.",
     "LOCK_RESET_SUCCESS_MSG":"Kunci telah direset untuk menerima kode PIN baru.  Kode PIN sebelumnya tidak lagi berlaku.",
     "General":"Umum",
     "Bluetooth Settings":"Pengaturan Bluetooth",
     "Quick Unlock":"Buka Kunci Cepat",
     "Auto Relock":"Auto Relock",
     "Sensor Relock Timer":"Auto Relock Timer",
     "Custom Relock Timer":"Custom Relock Timer",
     "Security lockout":"Penguncian keamanan",
     "Volume":"Volume",
     "Set Volume":"Atur Volume",
     "Battery Sync Reminder":"Pengingat Sinkronisasi Baterai",
     "Sync to delete":"Sinkronkan untuk menghapus",
     "Delete Lock Message":"Place your phone near the lock to complete the deletion process.",
     "CONFIRM_DELETE_TEMPLATE":"Apakah Anda yakin ingin menghapus kunci ini?  Harap dicatat bahwa kode kunci yang dihasilkan sebelumnya masih tetap tertinggal pada kunci.",
     "Delete Lock Fail Message":"{{lockName}} terhubung ke daftar {{providerName}} dan tidak dapat dihapus. Harap putuskan sambungan {{providerName}} sebelum menghapus {{lockName}}.",
     "Never relock":"Jangan pernah mengunci kembali",
     "Always relock":"Selalu mengunci kembali",
     "seconds":"detik",
     "second(s)":"detik",
     "second":"detik",
     "Set number of seconds":"Atur jumlah detik",
     "Enter number of seconds":"Masukkan jumlah detik",
     "Apply":"Terapkan",
     "sec":"det",
     "Sensor relock can be customised from 1 to 180 seconds.":"Auto relock dapat dikustomisasi dari 1 sampai 180 detik.",
     "Not enabled":"Tidak dinyalakan",
     "Level":"Tingkat",
     "Attempt":"Percobaan",
     "Attempts":"Percobaan",
     "attempt(s)":"percobaan",
     "Deactivate lockout":"Nonaktifkan penguncian",
     "On":"Hidup",
     "Off":"Mati",
     "No Reminder":"No Reminder",
     "Relock Reminder Alert":"Relock Reminder Alert",
     "Firmware Version":"Versi Firmware",
     "Calibrate Lock":"Kalibrasi Kunci",
     "Lock Rotation":"Rotasi Kunci",
     "Step 1: Manually calibrate lock rotation":"Langkah 1: Kalibrasi rotasi kunci secara manual",
     "Step 2: Keep your door closed":"Langkah 2: Pertahankan agar pintu Anda tertutup",
     "We will attempt the lock rotation you selected to see if it works for your door":"Kami akan mencoba posisi rotasi yang Anda pilih untuk melihat apakah berfungsi untuk pintu Anda",
     "Step 3: Lock calibrated":"Langkah 3: Kunci dikalibrasi",
     "Calibration in progress...":"Kalibrasi sedang berlangsung ...",
     "Prepare your lock":"Siapkan kunci Anda",
     "Calibrating":"Mengkalibrasi",
     "Calibration":"Kalibrasi",
     "This lock rotation doesn’t work for your door.":"Rotasi kunci ini tidak berfungsi untuk pintu anda."
  },
  "configuration":{
     "List Of Homes":"Daftar Properti",
     "Which property(s) would you like to pair the lock with?":"Properti mana yang ingin Anda pasangkan kuncinya?",
     "You do not have any properties yet.":"Anda belum memiliki properti apa pun.",
     "Add property":"Tambahkan properti",
     "Home(s)":"Properti",
     "All Properties":" Semua Properti",
     "Pinned Locks":"Kunci yang Disematkan"
  },
  "alert":{
     "Invalid Selection":"Pemilihan Tidak Valid",
     "Please select listings that belongs to the same region.":"Silakan pilih properti yang termasuk dalam wilayah yang sama.",
     "Unable to re-associate to a property of different region":"Do note that you are unable to re-associate to a property of different region. Please re-pair to do that.",
     "Unable to Remove Home":"Tidak Dapat Menghapus Rumah",
     "Unable to Remove Home message":"{{listingName}} terhubung ke {{provider}} dan tidak bisa dihapus. Silakan pergi ke reservasi dan pisahkan {{listingName}} sebelum menghapus.",
     "Unable to Remove Home message with lock":"{{listingName}} memiliki perangkat yang terhubung dan tidak dapat dihapus. Silakan pisahkan perangkat Anda dari {{listingName}} sebelum menghapus {{listingName}}."
  },
  "provider":{
     "Disconnect Listing":"Memutuskan Rumah",
     "Disconnect Airbnb Listing Message":"Yakin ingin mencabut daftar yang tertaut ke Airbnb? Ini akan menghapus semua pemesanan yang terkait dengan rumah Airbnb. Pemesanan masa depan tidak akan diproses.",
     "guest(s)":"tamu",
     "Access Methods":"Metode Akses",
     "listings":"daftar",
     "All Connected":"Semua Terhubung",
     "All":"Semua",
     "Generate PIN(s) now":"Generate PIN(s) now"
  },
  "support":{
     "Help & Support":"Bantuan & Dukungan",
     "Youtube Channel":"Channel Youtube"
  },
  "Managing access on the go":"Mengelola akses saat bepergian.",
  "Reservation Details":"Rincian Pemesanan",
  "Edit Reservation":"Edit Reservasi",
  "Connect":"Sambung",
  "Disconnect":"Memutuskan",
  "Select Listing":"Pilih Rumah",
  "Select a home to connect":"Pilih rumah yang akan dihubungkan",
  "Guest":"Tamu",
  "Timezone":"Zona Waktu",
  "Profile":"Profil",
  "External Reservation":"Provider",
  "Update PIN Send Time Message":"Akses email untuk {{guestName}} akan dikirim {{sendAccessEmail}} jam sebelum waktu check-in.",
  "Share":"Bagi",
  "Skip":"Skip",
  "Send PIN Email Now":"Kirim Email sekarang",
  "No Reservation Found":"Pemesanan ini tidak dapat ditemukan atau mungkin telah dihapus.",
  "PIN Email Sent With Time":"Email akses terkirim {{time_ago}}",
  "PIN Email Send Time Now":"Mengirim email akses sekarang",
  "PIN Email Send Time Future":"Akses email akan dikirim {{time_future}}",
  "Reservation Share Msg":"Yth. {{guestName}}, ini adalah akses Anda untuk {{listingName}} mulai {{startDate}} sampai {{endDate}}.\n{{access_pin_list}}",
  "Reservation Share Msg Access Pin Partial":"Kode PIN untuk {{lockName}}: {{pinCode}}",
  "Name":"Nama",
  "Region":"Kawasan",
  "Connect External Providers":"Sambungkan Penyedia",
  "Listing Details":"Rincian Rumah",
  "Select Your Product":"Pilih Produk Anda",
  "Other igloohome locks":"Kunci igloohome lainnya",
  "Select Others":"Pilih Lainya",
  "Issue new key for":"Berikan kunci baru untuk",
  "Family":"Keluarga",
  "Friends":"Teman",
  "Visitors":"Pengunjung",
  "Tenants":"Penyewa",
  "Services":"Service",
  "Staff":"Staf",
  "Guests":"Tamu",
  "Others":"Lainnya",
  "Key Card Holder":"Pemegang kartu kunci",
  "Access Type":"Tipe akses",
  "Repeat this PIN":"Ulangi PIN ini",
  "Start Time":"Waktu Mulai",
  "End Time":"Wakti Berakhir",
  "Start Date":"Tanggal Mulai",
  "End Date":"Tanggal Berakhir",
  "Now":"Sekarang",
  "Start Day":"Awal Hari",
  "Start Day of Month":"Awal Hari pada Bulan",
  "End Day of Month":"Akhir Hari pada Bulan",
  "End Day":"Akhir Hari",
  "Effective Start Date":"Awal Hari Efektif",
  "PIN":"PIN",
  "One Time PIN":"PIN Satu Kali",
  "Permanent PIN":"PIN Permanen",
  "Duration PIN":"PIN Durasi",
  "Weekly PIN":"PIN mingguan",
  "Weekday PIN":"PIN hari kerja",
  "Weekend PIN":"PIN akhir pekan",
  "Monthly PIN":"PIN bulanan",
  "Repeats Sat and Sun":"Repeats Sat and Sun",
  "Repeats Mon to Fri":"Repeats Mon to Fri",
  "Repeats every Week":"Repeats every Week",
  "Repeats every Month":"Repeats every Month",
  "Recurring PIN":"Recurring PIN",
  "Bluetooth Key":"Kunci Bluetooth",
  "Guest Bluetooth Keys":"Kunci Bluetooth Tamu",
  "Keycard":"Kartu Kunci",
  "Add duration placeholder":"Contoh. Kode ini untuk siapa",
  "Lock Owner":"Pemilik kunci",
  "Master PIN":"PIN Master",
  "Master pin never expires":"PIN Master tidak pernah kadaluwarsa",
  "Remove from List":"Hapus dari Daftar",
  "Add New Home":"Tambahkan Rumah Baru",
  "Name your home":"Namai Rumah Anda",
  "Edit your home":"Ubah Rumah Anda",
  "Edit":"Sunting",
  "Refreshing":"Menyegarkan...",
  "Pull to refresh":"Tarik untuk menyegarkan...",
  "Loading more data":"Memuat data...",
  "Enter 7-9 digit PIN":"Masukkan PIN 7-9 digit",
  "Repeat PIN":"Ulangi PIN",
  "PIN code placeholder":"Masukkan kode PIN",
  "Re-enter PIN code":"Masukkan lagi kode PIN",
  "Connect Airbnb Listing":"Hubungkan Daftar Airbnb",
  "Connect Your AirBnb Listing":"Hubungkan Daftar AirBnb Anda'",
  "Select Airbnb Listing":"Pilih Daftar Airbnb",
  "Day":"Hari",
  "Days":"Hari",
  "Month":"Bulan",
  "Months":"Bulan",
  "Hours":"Jam",
  "Hour":"Jam",
  "Minutes":"Menit",
  "Before":"id-sebelum",
  "Select send PIN time":"Silakan pilih jumlah jam sebelum waktu check-in untuk tamu Anda untuk menerima email akses mereka. Standarnya adalah 1 jam.",
  "Select send PIN time2":"Please select the number of hour(s) before check in time for your guests to receive their access message. The default is 1 hour.",
  "hour(s) before check in time":"jam sebelum check in",
  "No data found":"Tidak ada data ditemukan",
  "Lock Info":"Info Kunci",
  "Basic Unlock":"Buka Kunci Bluetooth",
  "Basic":"Buka Kunci",
  "Logs":"Catatan",
  "Settings":"Pengaturan",
  "Lock Settings":"Pengaturan Kunci",
  "Issue Access":"Berikan akses",
  "Activity Log":"Catatan aktivitas",
  "Igloohome Help Center":"igloohome Pusat Bantuan",
  "Welcome to igloohome":"Selamat datang di igloohome",
  "Receive bluetooth key":"Terima kunci bluetooth",
  "Pair new lock":"Sandingkan kunci baru",
  "Request Instant Access":"Request Instant Access",
  "Go to visit page":"Pergi ke halaman kunjungan",
  "Add lock":"Tambah Kunci",
  "Manage Homes":"Mengelola Rumah",
  "Claim Bluetooth Key":"Klaim Kunci Bluetooth",
  "Manage Locks":"Kelola Kunci",
  "Scan QR code to add key":"Pindai kode QR untuk menambah kunci",
  "Customise email message":"Jika Anda ingin menerima email selamat datang yang akan dikirim ke tamu Anda, silakan klik tombol 'Kirim Percobaan Email Selamat Datang'. Email percobaan akan dikirim ke alamat email anda. Jika Anda ingin menerima akses email yang akan dikirim ke tamu Anda, tekan tombol 'Kirim Percobaan Akses Email'. Email percobaan akan dikirim ke alamat email anda. Untuk menyesuaikan email akses sesuai dengan spesifikasi Anda, ketuklah tombol 'Hubungi Dukungan'. Anda akan ditunjukkan prosedur untuk menyesuaikan email yang ada.",
  "BTKEY_UNLOCK":"{{firstName}} {{lastName}} {{ekeyName}} membuka kunci lewat Kunci Bluetooth.",
  "EASY_UNLOCK":"Anda telah membuka kunci lewat Buka Kunci Mudah.",
  "BASIC_UNLOCK":"Anda telah membuka kunci.",
  "CREATE_PINCODE":"Anda telah membuat kode PIN untuk {{durationCode}}.",
  "CREATE_PINCODE_WITH_PINTYPE":"Anda telah membuat {{pinType}}.",
  "CREATE_PINCODE_WITH_PINTYPE_VIA_BLUETOOTH":"Anda telah membuat sebuah {{pinType}} melalui Bluetooth.",
  "CREATE_PINCODE_DURATION":"Anda telah membuat kode PIN yang berlaku mulai {{start}} sampai {{end}}.",
  "CREATE_PINCODE_DURATION_VIA_BLUETOOTH":"Anda telah membuat sebuah PIN valid dari {{start}} sampai {{end}} melalui Bluetooth.",
  "PAIR":"Anda telah memasangkan kunci.",
  "RESET":"Anda telah mereset kunci dan mengosongkan PIN.",
  "TODAY":"Hari ini",
  "YESTERDAY":"Kemarin",
  "LOG_CHANGE_MASTER_PIN":"Anda telah mengedit Master PIN.",
  "LOG_ENABLE_AUTO_RELOCK_VIA_BLUETOOTH_SIMPLE":"Auto Relock telah diaktifkan.",
  "LOG_ENABLE_AUTO_RELOCK_VIA_BLUETOOTH_EXTENDED":"Auto Relock telah diaktifkan dan diatur dengan nilai {{newValue}}.",
  "LOG_DISABLE_AUTO_RELOCK_VIA_BLUETOOTH":"Auto Relock telah dinonaktifkan.",
  "LOG_CHANGE_INCORRECT_PIN_LOCKOUT_COUNT_VIA_BLUETOOTH":"Security Lockout Attempts telah diatur dengan nilai {{newValue}}",
  "LOG_DISABLE_INCORRECT_PIN_LOCKOUT_COUNT_VIA_BLUETOOTH":"Security Lockout Attempts telah dinonaktifkan",
  "LOG_CHANGE_VOL_VIA_BLUETOOTH":"Volume kunci telah diatur pada Tingkat {{newValue}}",
  "LOG_PIN_DELETE":"Kode PIN \"{{pinDescription}}\" telah dihapus dari kunci.",
  "LOG_PIN_UNLOCK_MASTER":"Kode PIN master telah digunakan untuk membuka kunci.",
  "LOG_PIN_UNLOCK_GUEST":"Kode PIN yang digunakan oleh {{guestName}} digunakan untuk membuka kunci.",
  "LOG_PIN_CHANGE_GUEST_FROM_KEYPAD":"Kode PIN yang digunakan oleh {{guestName}} diubah dari keypad kunci.",
  "LOG_PIN_DELETE_GUEST_FROM_KEYPAD":"Kode PIN yang digunakan oleh {{guestName}} dihapus dari keypad kunci.",
  "LOG_PIN_UNLOCK_NO_PINTYPE":"Kode PIN \"{{pinDescription}}\" digunakan untuk membuka kunci.",
  "LOG_PIN_UNLOCK":"Kode {{pinType}} \"{{pinDescription}}\" digunakan untuk membuka kunci.",
  "LOG_PIN_CHANGE_FROM_KEYPAD":"Kode PIN \"{{pinDescription}}\" diubah dari keypad kunci.",
  "LOG_PIN_DELETE_FROM_KEYPAD":"Kode PIN \"{{pinDescription}}\" dihapus dari keypad kunci.",
  "LOG_PIN_UNLOCK_FAILED":"Kode PIN yang tidak berlaku \"{{pinCodeNumber}}\" dicoba digunakan.",
  "LOG_DELETE_ALL_PINS_FROM_KEYPAD":"Semua kode PIN telah dihapus dari keypad kunci.",
  "LOG_PIN_LOCK_BATTERIES_CHANGED":"Penggantian baterai dilakukan pada kunci.  Level baterai yang baru: {{level}}%",
  "LOG_ENABLE_TIME_AUTOLOCK":"Timer Re-lock telah diaktifkan untuk {{relockTime}} detik.",
  "LOG_DISABLE_TIME_AUTOLOCK":"Timer Re-lock telah dinon-aktifkan.",
  "LOG_ENABLE_SENSOR_AUTOLOCK":"Auto Re-lock telah diaktifkan.",
  "LOG_DISABLE_SENSOR_AUTOLOCK":"Auto Re-lock telah dinonaktifkan.",
  "LOG_LOCK_VOLUME":"Volume kunci telah diatur ke {{volume}}.",
  "LOG_NFC_PIN_SET":"4 Digit Security Pin telah diset ke {{nfcPin}}.",
  "LOG_NFC_REGISTERED":"Kartu kunci {{nfcCardId}} telah ditambahkan.",
  "LOG_NFC_REGISTERED_NAME":"Key Card \"{{name}}\" has been added.",
  "LOG_NFC_DEREGISTERED":"Kartu kunci {{nfcCardId}} telah dihapus.",
  "LOG_NFC_DEREGISTERED_NAME":"Kartu kunci \"{{name}}\" telah ditambahkan.",
  "LOG_NFC_UNLOCK":"Kartu kunci {{nfcCardId}} digunakan untuk membuka kunci.",
  "LOG_NFC_UNLOCK_NAME":"Kartu kunci \"{{name}}\" digunakan untuk membuka kunci.",
  "AUTO_RELOCK_AFTER_OPENING_AND_CLOSING_LOCK":"Lock has auto-relocked after closing.",
  "AUTO_RELOCK_WITHOUT_FIRST_OPENING_LOCK":"Lock has auto-relocked without opening.",
  "LOCK_VIA_KEYPAD_OR_BUTTON":"You have locked the lock via keypad or function button.",
  "RELOCK_ALARM_DISABLED":"Relock Reminder Alert has been disabled.",
  "RELOCK_ALARM_ENABLED":"Relock Reminder Alert has been set to {{seconds}} seconds.",
  "Attempted_BREAK_IN":"Intrusion detected on the lock. Please check immediately.",
  "DELETE_FINGERPRINT":"Fingerprint \"{{description}}\" has been deleted.",
  "ADD_FINGERPRINT":"Fingerprint \"{{description}}\" has been added.",
  "UNLOCK_VIA_FINGERPRINT":"Fingerprint \"{{description}}\" was used to unlock the lock.",
  "INVALID_FINGERPRINT":"An invalid Fingerprint was attemped.",
  "UNLOCK_VIA_BUTTON":"You have unlocked the lock via the function button.",
  "LINK_FOB":"Key Fob \"{{name}}\" has been added to the lock.",
  "UNLINK_FOB":"Lock has been unlinked from the Key Fob \"{{name}}\"",
  "BLOCK_FOB":"Key Fob \"{{name}}\" has been blocked from the lock.",
  "DELETE_FOB_FROM_LOCK":"Key Fob \"{{name}}\" has been deleted from the lock.",
  "UNLOCK_FOB":"Key Fob \"{{name}}\" was used to unlock the lock.",
  "LOCK_WITH_FOB":"Key Fob \"{{name}}\" was used to lock the lock.",
  "LOCK_VIA_KEY_OR_THUMBTURN":"You have Locked via physical key or thumb turn.",
  "UNLOCK_VIA_KEY_OR_THUMBTURN":"You have Unlocked via physical key or thumb turn.",
  "You have successfully changed your account details":"Anda berhasil mengubah detail akun Anda",
  "You have successfully changed your password":"Anda berhasil mengubah kata sandi anda",
  "You have successfully changed your settings":"Anda berhasil mengubah pengaturan Anda",
  "You have successfully claimed your bluetooth key":"Anda berhasil mengklaim kunci bluetooth Anda",
  "This lock has been added to favourite list":"Kunci telah ditambahkan ke daftar kunci",
  "This lock has been removed from favourite list":"Kunci telah dihapus ke daftar kunci",
  "You have successfully sync the lock":"Anda berhasil menyinkronkan kunci",
  "You have successfully disconnected from Airbnb account":"Anda berhasil terputus dari akun Airbnb",
  "Your action was successful":"Tindakan Anda berhasil",
  "UNLOCK_BY_EKEY_TITLE":"Akses Kunci",
  "UNLOCK_BY_EKEY_MSG":"%1$@ telah dibuka %2$@ dengan kunci Bluetooth.",
  "EKEY_CLAIMED_TITLE":"Kunci Bluetooth Diterima",
  "EKEY_CLAIMED_MSG":"%1$@ telah menerima kunci Bluetooth Anda selama %2$@",
  "WELCOME_EMAIL_PUSH_TITLE":"Email Selamat Datang",
  "WELCOME_EMAIL_PUSH_MSG":"%1$@ telah menerima email selamat datang untuk rumah Anda %2$@.",
  "PIN_EMAIL_PUSH_TITLE":"Pin Email",
  "PIN_EMAIL_PUSH_MSG":"%1$@ telah menerima email pin untuk rumah Anda %2$@.",
  "UNLOCK_BY_EKEY_TOAST":"{{val1}} telah dibuka {{val2}} dengan kunci Bluetooth.",
  "EKEY_CLAIMED_TOAST":"{{val1}} telah menerima kunci Bluetooth Anda selama {{val2}}",
  "WELCOME_EMAIL_PUSH_TOAST":"{{val1}} telah menerima email selamat datang untuk rumah Anda {{val2}}.",
  "PIN_EMAIL_PUSH_TOAST":"{{val1}} telah menerima email pin untuk rumah Anda {{val2}}.",
  "Forgot Password Success Title":"Reset Kata Sandi Email Terkirim",
  "Forgot Password Success Message":"Email pengaturan ulang kata sandi telah dikirim ke alamat email Anda. Klik tautan untuk mengatur ulang kata sandi Anda.",
  "Register Success Title":"Verifikasi email",
  "Register Success Message":"Pesan dengan tautan konfirmasi telah dikirim ke {{email}}. Harap buka tautan untuk mengaktifkan akun Anda.",
  "I have agreed to":"I have agreed to ",
  "terms of Service":"Terms of Service",
  "and":"and ",
  "Privacy Policy":"Privacy Policy",
  "By clicking Sign In, you acknowledge you have agreed to":"By clicking Sign In, you acknowledge you have agreed to ",
  "Pin Copied":"PIN disalin",
  "fingerprint":{
     "Fingerprint":"Sidik jari",
     "Unlocks with fingerprint":"Buka kunci dengan sidik jari",
     "Step 1: Get ready to scan":"Langkah 1: Bersiap untuk memindai",
     "Ensure that your finger is clean and dry.":"Pastikan jari anda bersih dan kering",
     "Step 3: Scan your fingerprint":"Langkah 2: Beri nama sidik jari Anda",
     "Scan required":"Diperlukan pemindaian",
     "Ensure that you press your finger on the scanner firmly":"Pastikan Anda menekan jari pada pemindai dengan kuat",
     "I'm Done":"Saya Selesai",
     "Step 2: Name your fingerprint":"Langkah 3: Pindai sidik jari Anda",
     "There will be 3 scans required to register your fingerprint.":"Akan diperlukan 3 pemindaian untuk mendaftarkan sidik jari Anda.",
     "Always place your finger at the center of the scanner for optimal perfomance.":"Selalu letakkan jari Anda di tengah pemindai untuk kinerja optimal.",
     "Please try again. Do place your finger at the center firmly.":"Silakan coba lagi. Letakkan jari Anda di tengah dengan kuat.",
     "Delete Fingerprint Access":"Hapus Akses Sidik Jari",
     "Edit Fingerprint":"Ubah Sidik Jari",
     "Add Fingerprint":"Add Fingerprint",
     "Fingerprint ID":"ID Sidik Jari",
     "Fingerprint added":"Sidik jari ditambahkan"
  },
  "fob":{
     "You do not have any paired fobs.":"You do not have any paired {{ecosystemType}}.",
     "Manage fobs":"Manage {{ecosystemType}}",
     "Add Fob":"Add {{ecosystemType}}",
     "step1":"Step 1 : Prepare your {{ecosystemType}} for pairing",
     "step2":"Step 2 : Select Key Fob ID",
     "Enter Fob name":"Enter {{ecosystemType}} name",
     "Fob paired":"Key Fob paired!",
     "Link Fob":"Link {{ecosystemType}}",
     "Would you like to link your Fob to a lock now":"Would you like to link your {{ecosystemType}} to a lock now?",
     "Link lock from Fob":"Link lock from {{ecosystemType}}",
     "step1 link fob":"Step 1 : Get your {{ecosystemType}} ready",
     "step2 link fob":"Step 2 : Select a lock to link",
     "step3 link fob":"Step 3 : Linking your {{ecosystemType}} to {{lockname}}",
     "Linking Fob":"Linking {{ecosystemType}}",
     "Fob Linked":"{{ecosystemType}} Linked",
     "Fob successfully linked with":"{{ecosystemType}} successfully linked with \"{{lockname}}\"",
     "Fob Settings":"{{ecosystemType}} Settings",
     "Are you sure you want to unlink from":"Are you sure you want to unlink {{lock}} from {{fobname}}?",
     "Get your Fob ready":"Get your {{ecosystemType}} ready",
     "Successfully Deleted":"\"{{fobname}}\" Successfully Deleted",
     "Delete Fob":"Delete {{ecosystemType}}",
     "Unpair Fob from phone":"Unpair Key Fob from your phone",
     "Edit Fob Name":"Edit {{ecosystemType}} Name",
     "Fob name":"{{ecosystemType}} name",
     "Are you sure you want to delete Fob_name for all your locks":"Are you sure you want to delete {{fobname}} access for all your locks?",
     "Pair your Fob":"Pair your {{ecosystemType}}",
     "I lost my fob":"I lost my {{ecosystemType}}",
     "Lost your Fob":"Lost your {{ecosystemType}}?",
     "What to do when you have lost your Fob":"What to do when you have lost your {{ecosystemType}}",
     "When you lost your fob, you can revoke access to immediately to secure your place.":"When you lost your Key Fob, you can revoke access to immediately to secure your place.",
     "Revoke Fob access":"Revoke {{ecosystemType}} access",
     "lostFobRevoke":"You will no longer be able to unlock your linked lock(s) using the revoked {{ecosystemType}}.",
     "Step 1: Revoke Fob access":"Step 1: Revoke {{ecosystemType}} access",
     "Step 2: Delete Fob permanently":"Step 2: Delete {{ecosystemType}} permanently",
     "Permanently delete Fob from your account.":"Permanently delete your {{ecosystemType}} from your account.",
     "Are you sure you want revoke fob access for Lock_Name?":"Are you sure you want revoke {{ecosystemType}} access for {{Lock_Name}}?",
     "Remove Lock_Name from your Fob":"Remove {{Lock_Name}} from your Key Fob",
     "Lock successfully removed from your Fob.":"Lock successfully removed from your {{ecosystemType}} .",
     "Delete your Fob":"Delete your {{ecosystemType}}",
     "Your linked access will be removed automatically after you sync these access":"Your linked access will be removed automatically after you sync these access :",
     "Please wait while we remove all your Fob data":"Please wait while we remove all your {{ecosystemType}}’s data.",
     "Fob sucessfully removed":"Key Fob sucessfully removed.",
     "Please wait while we removing your lock from fob":"Please wait while we removing your lock from Key Fob.",
     "fob not found":"Device not found.",
     "fob aleready paired":"This Key Fob has already been paired.",
     "Delete fob alert":"Please unlink your linked lock(s) before deleting your device.",
     "This lock(s) has been deleted":"This lock has been deleted, please unlink it from the {{ecosystemType}}",
     "Fob has been blacklisted from the lock.":"Key Fob \"{{fobs_name}}\" has been blacklisted from the lock.",
     "Make sure your Fob is discoverable":"Make sure your {{ecosystemType}} is discoverable",
     "To start using your Fob, ensure the blue light is no longer flashing by holding onto the settings button":"To start using your Key Fob, ensure the blue light is no longer flashing by holding onto the settings button."
  },
  "bridge":{
     "Manage Bridge":"Manage {{ecosystemType}}",
     "You do not have any paired Bridge":"You do not have any paired {{ecosystemType}}.",
     "Add Bridge":"Add {{ecosystemType}}",
     "Pair your Bridge":"Pair your {{ecosystemType}}",
     "Pairing Bridge":"Pairing Bridge",
     "Step 1 Bridge pairing":"Step 1: Prepare your {{ecosystemType}} for pairing",
     "Bridge pairing message":"Connect your Bridge to power using the provided USB-C cable. \n \nPress the multi-function button once to wake the Bridge up.",
     "Step 2 Bridge pairing":"Step 2: Select Bridge ID",
     "You are connected to wifi":"You are connected to \"{{wifi_ssid}}\"",
     "Your phone is not connected to Wi-Fi":"Your phone is not connected to Wi-Fi",
     "Connected to wifi message":"Please enter your Wi-Fi password. Make sure you use a 2.4Ghz network.",
     "Step 3 Bridge pairing":"Bridge Paired!",
     "Not connected to wifi message":"Please connect your phone to your Wi-Fi to continue pairing.",
     "Incorrect wifi password message":"Incorrect password for \"{{wifi_ssid}}\"",
     "Set-up manually":"Set-up manually",
     "Skip this step":"Skip this step",
     "Skip wifi configuration":"Skip Wi-Fi configuration?",
     "Skip wifi configuration message":"This is an essential step in the Bridge setup process.",
     "Go to settings":"Go to settings",
     "Security":"Security",
     "Private Address":"Private Address",
     "Security types":"Security types",
     "None":"None",
     "WPA Enterprise":"WPA Enterprise",
     "WPA2 Enterprise":"WPA2 Enterprise",
     "WPA3 Enterprise":"WPA3 Enterprise",
     "Enter Bridge name":"Enter {{ecosystemType}} name",
     "Bridge name placeholder":"e.g. Home Bridge",
     "Link bridge to lock message":"Would you like to link your {{ecosystemType}} to a lock now?",
     "Current linked lock":"You currently have \"{{linkedLock}}\" locks linked",
     "Join network":"Join network",
     "Diagnostic":"Diagnostic",
     "wifi connected":"You are connected to \"{{ssid}}\"",
     "configuring wifi":"Configuring WiFi",
     "Step 1 link lock bridge":"Step 1 : Select a lock to link",
     "Step 2 link lock bridge":"Step 2 : Linking your {{ecosystemType}} to {{LockName}}",
     "Bridge successfully linked":"{{ecosystemType}} successfully linked with \"{{lockname}}\"",
     "You now have locks linked":"You now have  {{numberlock}}\/10 locks linked",
     "Diagnostics":"Diagnostics",
     "Check network status":"Check network status",
     "Remove Bridge name":"Remove {{bridgeName}}",
     "What to do when you have lost your Bridge":"What to do when you have lost your {{ecosystemType}}",
     "Remove Bridge from account":"Remove Bridge from account",
     "Allow Bridge to be paired to another account":"Allow Bridge to be paired to another account",
     "Bridge name":"{{ecosystemType}} name",
     "Delete Bridge":"Delete {{ecosystemType}}",
     "Bridge Settings":"{{ecosystemType}} Settings",
     "Delete bridge alert":"Are you sure you want to delete {{acc_name}} access for all your locks?",
     "I lost my bridge":"I lost my {{ecosystemType}}",
     "Unpair bridge from phone":"Unpair Bridge from your phone",
     "Edit Bridge Name":"Edit {{ecosystemType}} Name",
     "Bridge Wi-Fi Configuration":"Bridge Wi-Fi Configuration",
     "Configure Bridge Wi-Fi so you can start using your lock remotely":"Configure Bridge Wi-Fi so you can start using your lock remotely.",
     "Wifi Configuration message":"For some devices, we might ask you to enable location services to identify the SSID of the Wi-Fi that your phone’s connected to.",
     "Start Wi-Fi configuration":"Start Wi-Fi configuration"
  },
  "keypad":{
     "You do not have any paired Keypad.":"You do not have any paired {{ecosystemType}}.",
     "Manage Keypad":"Manage {{ecosystemType}}",
     "Add Keypad":"Add {{ecosystemType}}",
     "pairing step2":"Step 2 : Prepare your {{ecosystemType}} for pairing",
     "pairing step3":"Step 3 : Select Keypad ID",
     "Enter Keypad name":"Enter {{ecosystemType}} name",
     "Keypad paired":"Keypad paired!",
     "Link Keypad":"Link {{ecosystemType}}",
     "Would you like to link your Keypad to a lock now":"Would you like to link your {{ecosystemType}} to a lock now?",
     "Link lock from Keypad":"Link lock from {{ecosystemType}}",
     "step1 link keypad":"Step 1 : Get your {{ecosystemType}} ready",
     "step2 link keypad":"Step 2 : Select a lock to link",
     "step3 link keypad":"Step 3 : Linking your {{ecosystemType}} to {{lockname}}",
     "Linking Keypad":"Linking {{ecosystemType}}",
     "Keypad Linked":"{{ecosystemType}} Linked",
     "Keypad successfully linked with":"{{ecosystemType}} successfully linked with \"{{lockname}}\"",
     "Keypad Settings":"{{ecosystemType}} Settings",
     "Are you sure you want to unlink from":"Are you sure you want to unlink {{lock}} from {{keypadname}}?",
     "Get your Keypad ready":"Get your {{ecosystemType}} ready",
     "Successfully Deleted":"\"{{keypadname}}\" Successfully Deleted",
     "Delete Keypad":"Delete {{ecosystemType}}",
     "Unpair Keypad from phone":"Unpair Keypad from your phone",
     "Edit Keypad Name":"Edit {{ecosystemType}} Name",
     "Keypad name":"{{ecosystemType}} name",
     "Are you sure you want to delete Keypad_name for all your locks":"Are you sure you want to delete {{keypadname}} access for all your locks?",
     "Pair your Keypad":"Pair your {{ecosystemType}}",
     "I lost my keypad":"I lost my {{ecosystemType}}",
     "Lost your Keypad":"Lost your {{ecosystemType}}?",
     "What to do when you have lost your Keypad":"What to do when you have lost your {{ecosystemType}}",
     "When you lost your keypad, you can revoke access to immediately to secure your place.":"When you lost your Keypad, you can revoke access to immediately to secure your place.",
     "Revoke Keypad access":"Revoke {{ecosystemType}} access",
     "lostKeypadRevoke":"You will no longer be able to unlock your linked lock(s) using the revoked {{ecosystemType}}.",
     "Step 1: Revoke Keypad access":"Step 1: Revoke {{ecosystemType}} access",
     "Step 2: Delete Keypad permanently":"Step 2: Delete {{ecosystemType}} permanently",
     "Permanently delete Keypad from your account.":"Permanently delete your {{ecosystemType}} from your account.",
     "Are you sure you want revoke keypad access for Lock_Name?":"Are you sure you want revoke {{ecosystemType}} access for {{Lock_Name}}?",
     "Remove Lock_Name from your Keypad":"Remove {{Lock_Name}} from your Keypad",
     "Lock successfully removed from your Keypad.":"Lock successfully removed from your {{ecosystemType}}.",
     "Delete your Keypad":"Delete your {{ecosystemType}}",
     "Your linked access will be removed automatically after you sync these access":"Your linked access will be removed automatically after you sync these access :",
     "Please wait while we remove all your Keypad data":"Please wait while we remove all your {{ecosystemType}}’s data.",
     "Keypad sucessfully removed":"Keypad sucessfully removed.",
     "Please wait while we removing your lock from keypad":"Please wait while we removing your lock from Keypad.",
     "keypad not found":"Device not found.",
     "keypad aleready paired":"This Keypad has already been paired.",
     "Delete keypad alert":"Please unlink your linked lock(s) before deleting your device.",
     "This lock(s) has been deleted":"This lock has been deleted, please unlink it from the {{ecosystemType}}",
     "Keypad has been blacklisted from the lock.":"Keypad \"{{Keypad_name}}\" has been blacklisted from the lock.",
     "Make sure your Keypad is discoverable":"Make sure your {{ecosystemType}} is discoverable",
     "To start using your Keypad, ensure the blue light is no longer flashing by holding onto the settings button":"To start using your Keypad, ensure the blue light is no longer flashing by holding onto the settings button."
  },
  "accecories":{
     "Link now":"Link now",
     "Link later":"Link later",
     "Select lock":"Select lock",
     "Link more locks":"Link more locks",
     "Linked Lock(s)":"Linked Lock(s)",
     "Linked Locks":"Linked Locks",
     "Unlink Lock":"Unlink Lock?",
     "Unlink":"Unlink",
     "Unlink lock":"Unlink lock",
     "Unlinking":"unlinking \"{{name}}\"",
     "Successfully Unlinked":"\"{{lockname}}\" Successfully Unlinked",
     "Deleting":"Deleting \"{{name}}\"",
     "Linked to multiple locks":"Linked to multiple locks",
     "Linked to lockname":"Linked to \"{{lockname}}\"",
     "Not linked":"Not linked",
     "Open the back cover and hold setting button until blue light flashes":"Open the back cover and hold onto the settings button until the blue light flashes",
     "You have linked number locks":"You have linked ({{number}}\/5) locks",
     "You can link up to 5 locks":"You can link up to 5 locks",
     "Please make sure your lock(s) are nearby to revoke access.":"Please make sure your lock(s) are nearby to revoke access.",
     "Revoke access":"Revoke access",
     "I no longer have this lock":"I no longer have this lock",
     "Please confirm that you no longer have this lock.":"Please confirm that you no longer have this lock.",
     "Remove lock":"Remove lock",
     "Remove Lock_Name":"Remove {{Lock_Name}}",
     "This will permanently remove it from your account":"This will permanently remove it from your account",
     "Delete Permanently":"Delete Permanently",
     "Do you want to unlink lock":"Do you want to unlink lock?",
     "Do you want to unlink your lock":"Do you want to unlink your lock?",
     "Any access granted to linked devices will still persist. Would you like to unlink them now":"Any access granted to linked devices will still persist. Would you like to unlink them now?",
     "Later":"Later",
     "Linked Devices":"Linked Devices",
     "Unlink device":"Unlink device?",
     "lock aleready linked":"This lock already linked to this device."
  },
  "retrofit":{
     "Auto-relock calibration":"Auto-relock calibration",
     "Calibrating auto-relock":"Calibrating auto-relock",
     "Lock position":"Lock position",
     "Calibrate the lock’s magnet sensor to optimize auto-relock performance":"Calibrate the lock’s magnet sensor to optimize auto-relock performance.",
     "Ensure that the door is closed":"Ensure that the door is closed.",
     "Tap next and you should hear a chime":"Tap next and you should hear a chime.",
     "Choose your door lock position":"Choose your door lock position",
     "Calibration in progress":"Calibration in progress...",
     "Calibration complete":"Calibration complete",
     "Start calibration":"Start calibration",
     "Open your door slightly so it’s ajar":"Open your door slightly so it’s ajar.",
     "1 of 2":"1 of 2",
     "2 of 2":"2 of 2",
     "Left":"Left",
     "Right":"Right",
     "Lock rotation":"Lock rotation",
     "Single Lock":"Single Lock",
     "Double Lock":"Double Lock",
     "Auto Unlock":"Auto-Unlock",
     "Location radius":"Location radius",
     "Automatically unlock your lock when you return to your property":"Automatically unlock your lock when you return to your property.",
     "Auto-Unlock is already active for lock_name":"Auto-Unlock is already active for {{lock_name}}. Please disable Auto-Unlock for {{lock_name}} to proceed.",
     "Modify location radius depending on your property scale":"Modify location radius depending on your property scale.",
     "Adjust lock location":"Adjust lock location"
  },
  "Search lock...":"Cari kunci...",
  "Couldnt find lock":"Tidak dapat menemukan \"{{lockname}}\"",
  "Try searching again using a different keyword.":"Coba cari lagi menggunakan kata kunci yang berbeda.",
  "1.1.403":"Kami tidak dapat masuk dengan nama pengguna\/kata sandi tersebut. Silakan coba kembali.",
  "1.1.409":"Kami tidak dapat masuk. Silakan verifikasi akun Anda dengan mengklik tautan di email Anda dan coba kembali.",
  "1.1.410":"Akun Anda telah diblokir",
  "2.1.403":"Email {{email}} sudah terdaftar.",
  "2.1.409":"Email {{email}} sudah terdaftar.",
  "3.1.403":"Kami tidak dapat mengubah detail pengguna Anda karena terdapat kesalahan. Silakan coba kembali.",
  "4.1.403":"Kami tidak dapat mengubah kata sandi Anda karena terdapat kesalahan. Silakan coba kembali.",
  "5.1.403":"Kami menemukan kesalahan dalam memutus akun Airbnb Anda, harap putuskan semua daftar yang dipasangkan ke akun Airbnb Anda di tab reservasi dan coba kembali.",
  "6.3.803":"Tidak dapat mengklaim kunci bluetooth. Silakan coba kembali.",
  "6.3.804":"Invalid QR code",
  "7.1.400":"Kami tidak dapat menambahkan rumah baru. Silakan coba lagi.",
  "8.1.403":"{{listingName}} memiliki perangkat yang terhubung dan tidak dapat dihapus. Silakan pisahkan perangkat Anda dari{{listingName}} sebelum menghapus {{listingName}}.",
  "8.1.409":"{{listingName}} terhubung ke {{provider}} dan tidak dapat dihapus. Silakan pergi ke reservasi dan lepaskan {{listingName}} sebelum menghapus.",
  "9.1.404":"Kami tidak dapat menemukan lokasi Anda saat ini. Silakan aktifkan Layanan Lokasi untuk mengotomatiskan konfigurasi rumah dan zona waktu Anda. Atau, Anda dapat memilih kota Anda secara manual.",
  "10.1.400":"Kami tidak dapat membuat akses untuk kunci Anda. Silakan coba kembali.",
  "13.2.880":"PIN baru sudah diambil. Silakan coba pin lain",
  "18.1.404":"Kami tidak dapat menghapus akses ini. Silakan coba kembali.",
  "19.1.404":"Kami tidak dapat mencabut akses ini. Silakan coba kembali.",
  "20.1.404":"Kami tidak dapat memutus properti igloohome dari daftar Airbnb. Silakan coba kembali.",
  "21.1.404":"Kami tidak dapat mengirim email akses ke tamu Anda. Silakan coba kembali.",
  "22.1.404":"Kunci bluetooth yang Anda coba klaim sudah diklaim atau sudah kadaluarsa. Silakan hubungi host Anda untuk mendapatkan kunci baru.",
  "22.1.409":"Anda tidak diizinkan untuk mengklaim kunci bluetooth Anda.",
  "22.5.1":"Silakan masuk ke akun Anda sebelum mengklaim kunci bluetooth.",
  "22.5.800":"Silakan masuk ke akun Anda sebelum mengklaim kunci bluetooth.",
  "47.5.800":"Please login to your account before requesting for instant access.",
  "47.1.409":"You are not allowed to request instant access for your lock.",
  "23.1.404":"Kunci bluetooth telah kedaluwarsa atau dicabut. Silakan hubungi pemilik kunci.",
  "23.5.703":"Kesalahan pada kunci bluetooth",
  "24.1.403":"Anda telah mencapai batas maksimal dari 5 daftar kunci. Mohon kurangi daftar kunci dan coba lagi.",
  "31.1.404":"Kunci tidak ditemukan.",
  "delete_card_error":"Kartu kunci yang dihapus mungkin masih ditampilkan dalam aplikasi. Silahkan coba lagi.",
  "add_card_error":"Kartu kunci yang ditambahkan mungkin tidak ditampilkan di aplikasi. Silahkan coba lagi.",
  "unlock_error":"Tidak dapat terhubung ke kunci. Hidupkan Bluetooth dan coba buka kunci kembali dengan menekan keypad",
  "update mastercode error":"Kami tidak dapat menetapkan PIN master untuk kunci Anda. Silakan coba lagi.",
  "delete lock error":"Terjadi kesalahan saat mencoba menghapus kunci. Harap pastikan bahwa Anda berada dalam jangkauan kunci Bluetooth dan silahkan coba lagi.",
  "sync lock error":"Terjadi kesalahan dan Tidak dapat menyinkronkan waktu kunci saat ini. Harap pastikan bahwa Anda berada dalam jangkauan kunci bluetooth dan coba lagi nanti.",
  "sync lock bt in progress error":"Unable to sync the lock. Please try again.",
  "location_permission error":"Lokasi \/ Bluetooth, termasuk Bluetooth privacy, harus diaktifkan untuk memungkinkan pemindaian Bluetooth Low Energy untuk kunci. Harap berikan izin untuk melanjutkan.",
  "use pin before":"Silakan gunakan kode PIN satu kali sebelum melanjutkan.",
  "update your application":"Harap perbarui aplikasi Anda.",
  "edit pincode error":"Tidak dapat terhubung ke kunci bluetooth. Pastikan kunci terkunci: Tekan tombol apa saja untuk memeriksa numpad kunci. Pastikan lampu pada numpad tetap menyala. Jika masalah berlanjut, periksa apakah bluetooth diatur ke 'On', menjalankan ulang bluetooth di perangkat Anda.",
  "download":"Unduh",
  "network_error":"Kesalahan jaringan. Silakan periksa pengaturan jaringan Anda dan coba lagi.",
  "0.1.12":"Network Error",
  "invalid email":"Alamat Email Salah",
  "invalid password":"Kata Sandi Salah",
  "pin creation limit reached error":"PIN generation limit reached for this hour. Please wait till the next hour to generate more remotely. Alternatively, you may create PIN codes via Bluetooth.",
  "key card creation limit reached error":"Keycard creation limit reached. No further keycards can be added.",
  "legacy pin creation limit reached error":"PIN creation limit reached. Please delete all PINs to create more.",
  "Instant Access Request invalid. Lock is not paired to any account.":"Instant Access Request invalid. Lock is not paired to any account.",
  "0.0.0":"Error",
  "Note":"Note",
  "Full":"Full",
  "Okay":"Moderate",
  "Low":"Low",
  "Change your battery soon":"Change your battery soon",
  "You haven't add any listing yet.":"You haven't add any listing yet.",
  "You can send a test access message to your email.":"You can send a test access message to your email",
  "The actual access message will be sent to your guest via Airbnb platform before check-in time.":"The actual access message will be sent to your guest via Airbnb platform before check-in time.",
  "To customize the access message, please contact our support.":"To customize the access message, please contact our support.",
  "Add Listing":"Add Listing",
  "Test Access Message":"Test Access Message",
  "Send Access Message Now":"Send Access Message Now",
  "Send Access Message":"Send Access Message",
  "PIN Message Sent With Time":"message sent {{time_ago}}",
  "PIN Message Send Time Future":"message will be sent {{time_future}}",
  "Update PIN Send Time Message2":"Access message for {{guestName}} (containing access methods such as PIN codes and\/or bluetooth keys) will be sent {{sendAccessEmail}} hour(s) before check in time.",
  "Reservation Platform":"Reservation Platform",
  "Property Name":"Property Name",
  "Attention":"Attention",
  "You are making changes to the default listing settings.":"You are making changes to the default listing settings.",
  "Please note that this will not take effect on modified reservations.":"Please note that this will not take effect on modified reservations.",
  "Proceed":"Proceed",
  "The modifications will only affect this reservation. Default settings are unchanged.":"The modifications will only affect this reservation. Default settings are unchanged.",
  "Default Listing Settings":"Default Listing Settings",
  "Reservation Share Msg2":"Hi {{guestName}}, \n\nHere is your igloohome self check-in details at {{listingName}} from {{startDate}} to {{endDate}}.\n\n{{access_pin_list}}\n\n Your PIN is valid only from check-in to check-out time. Please use within 24 hours from your check-in time to activate the PIN.\n\nIf you experience any issues, please contact your host.\n\nEnjoy your stay!\nThe igloohome Team",
  "Reservation Share Msg Access detail":"{{lockName}}:\n{{pinCode}} \n",
  "All Airbnb listing has already been connected.":"All Airbnb listing has already been connected.",
  "PIN Message Send Time Now":"Sending access message now",
  "Are you sure you want to disconnect your Airbnb account? Please make sure all Airbnb listing(s) has already been disconnected.":"Are you sure you want to disconnect your Airbnb account? Please make sure all Airbnb listing(s) has already been disconnected.",
  "Access Message is being sent. Please check back for more details.":"Access Message is being sent. Please check back for more details.",
  "Message Sent":"Message Sent",
  "Template_content_required_error_message":"Please ensure you include these in your message:\n- Access detail\n- Start date\n- End date",
  "Discard_changes?":"Discard changes?",
  "Discard_template_changes_content":"Are you sure you want to discard your changes?\n\nAll changes will not be saved.",
  "Discard_button":"Discard",
  "Automated_Message_for_your_Self_Check-In":"Automated Message for your Self Check-In",
  "Note_Reservation_template":"*Note: This is a preview of your access message. The actual access message will be sent to your guest via Airbnb platform before check-in time.",
  "0.5.703":"Timeout Error",
  "0.2.6":"Unlocking too many times at once Error",
  "0.2.7":"Time Offsync error",
  "0.2.11":"Connect bt failed error",
  "0.2.12":"Unable to connect to lock coz its already connected error",
  "0.2.21":"Enable pin generation failed error",
  "0.2.41":"Retrieve Ekey Error",
  "0.2.61":"Unlock error",
  "0.2.63":"Phone disconnected while unlock error",
  "0.2.64":"Unlock AES key error",
  "0.2.71":"Set Keypad password error",
  "0.2.72":"Keypad Password Digits error",
  "0.2.100":"Network Error",
  "0.2.101":"Bind admin error",
  "0.2.121":"Add admin error",
  "0.2.122":"Add admin settings mode error",
  "0.2.131":"Upload Pincodes error",
  "0.2.141":"Get logs error",
  "0.2.151":"Reset lock error",
  "0.2.161":"NTP check error",
  "0.2.171":"Sync time error",
  "unable to connect":"Unable to connect to the device. Please try again.",
  "51.5.1003":"Please ensure that the lock is unlocked before you proceed.",
  "51.1.100":"Please check your network settings and try again.",
  "51.5.1301":"Unable to connect to the Lock. Please try again.",
  "51.5.703":"Unable to connect to the Lock. Please try again.",
  "51.5.1023":"This lock is not support firmware update.",
  "51.2.708":"Please ensure that the Bluetooth and location are turned on, Bluetooth privacy is enabled, then try again.",
  "51.5.1":"Please ensure that the Bluetooth and location are turned on, Bluetooth privacy is enabled, then try again.",
  "51.5.1303":"Please ensure that the Bluetooth and location are turned on, Bluetooth privacy is enabled, then try again.",
  "51.5.100":"Unable to connect to the Lock. Please try again.",
  "51.5.1002":"Please check your network settings and try again.",
  "51.5.1011":"DFU download error",
  "51.5.1012":"DFU download error",
  "51.5.1013":"DFU download error",
  "51.5.1014":"DFU download error",
  "51.5.1015":"DFU download error",
  "51.5.1016":"DFU download error",
  "51.5.1100":"DFU Error",
  "51.5.1021":"DFU package error",
  "51.5.1022":"DFU package initialitation error",
  "51.5.1024":"Please update your igloohome app to latest version",
  "51.5.1025":"Server bluetooth version error",
  "51.5.1026":"DFU configuration initiation error",
  "51.2.1002":"Unable to connect to the Lock. Please try again.",
  "51.2.1233":"Unable to connect to the Lock. Please try again.",
  "51.2.5206":"Please ensure that the Bluetooth and location are turned on, Bluetooth privacy is enabled, then try again.",
  "51.5.5206":"Please ensure that the Bluetooth and location are turned on, Bluetooth privacy is enabled, then try again.",
  "51.2.5196":"Unable to connect to the Lock. Please try again.",
  "51.4.1":"Please check your network settings and try again.",
  "51.2.12":"Unable to connect to the lock. Please try again.",
  "52.5.1":"Generic Error",
  "53.2.980":"Unable to delete access. Fingerprint UID could not be found. Please sync the lock and try again.",
  "52.2.960":"Fingerprint creation limit reached. Please remove another fingerprint access and try again",
  "52.2.970":"Reading error",
  "52.2.971":"Fingerprint scanning timeout. Please try again.",
  "52.2.972":"You have exceeded the number of attempts. Please make sure the scanner is clean and dry, then try again.",
  "51.1.801":"Please check your network settings and try again.",
  "38.2.860":"Please ensure that the Bluetooth and location are turned on, Bluetooth privacy is enabled, then try again.",
  "33.2.860":"Please ensure that the Bluetooth and location are turned on, Bluetooth privacy is enabled, then try again.",
  "54.2.708":"Please ensure that the Bluetooth and location are turned on, Bluetooth privacy is enabled, then try again.",
  "33.2.708":"Please ensure that the Bluetooth and location are turned on, Bluetooth privacy is enabled, then try again.",
  "airbnbError":"Cannot connect to airbnb",
  "Keycard missing uid":"Unable to delete access. Keycard UID could not be found. Please sync the lock and try again."
}