{
  "actions":{
     "Login":"Accedi",
     "Register":"Registrati",
     "Email":"Email",
     "Your email":"tua@email.com",
     "Reset Password":"Reimposta Password",
     "password":"Password",
     "Forgot Password":"Password Dimenticata",
     "Submit":"Invia",
     "First Name":"Nome",
     "Last Name":"Cognome",
     "Mobile":"Cellulare",
     "Password requirement":"Password di minimo 8 caratteri",
     "Password match":"Le password devono combaciare",
     "Passwords not matching":"Password attuali e nuove non corrispondenti",
     "Confirm Password":"Conferma Password",
     "Change Details":"Cambia Dettagli",
     "Change Password":"Cambia Password",
     "Change batteries":"Cambia batteria",
     "Current Password":"Password Attuale",
     "New Password":"Nuova Password",
     "Edit Account Details":"Modifica dettagli Account",
     "Filter":"Filtra",
     "Check Validity":"Controlla Validità",
     "New Key":"Nuova Chiave",
     "Update Logs":"Aggiorna Logs",
     "Change language":"Cambia lingua",
     "Select Listing":"Seleziona Inserzione",
     "Select City":"Select City",
     "Select One":"Select One",
     "Test Welcome Email":"Test Email Benvenuto",
     "Test Access Email":"Test Accesso Email",
     "Contact Support":"Contatta Supporto",
     "Add":"Aggiungi",
     "Delete":"Cancella",
     "Delete Lock":"Elimina Lucchetto",
     "Delete Home":"Elimina Propriet‡",
     "Create PIN":"Crea PIN",
     "Create Bluetooth Key":"Crea Chiave Bluetooth",
     "Edit PIN":"Modifica PIN",
     "Edit Key Card":"Modifica Key Card",
     "Confirm":"Conferma",
     "Edit Master PIN":"Modifica Master PIN",
     "Disconnect Airbnb":"Disconnetti Airbnb",
     "Connect Airbnb":"Connettiti con Airbnb",
     "Connect Airbnb Message":"Si prega di collegare igloohome all'account primario Airbnb dell'albergatore e non a quello del co-albergatore.",
     "Back":"Indietro",
     "Ok":"Ok",
     "Cancel":"Elimina",
     "Cancel Sync":"Annulla Sincronizzazione",
     "Retry":"Riprova",
     "Done":"Fatto",
     "Load More":"Carica Altro",
     "OR":"O",
     "Send Key":"Invia Chiave",
     "Close":"Chiudi",
     "Set Up Now":"Imposta Ora",
     "Set Up Later":"Imposta più tardi",
     "FingerPrint Message":"Accesso rapido con impronta digitale. In alternativa potrai impostarlo più tardi in 'Impostazioni Account'.",
     "Touch Id Message":"Accedi rapidamente con Touch ID. In alternativa, potrai impostarlo più tardi in 'Impostazioni Account'.",
     "Face Id Message":"Accedi velocemente utilizzando FaceID. In alternativa, potrai impostarlo successivamente nelle 'Impostazioni Account'.",
     "Press back again to exit App.":"Premi nuovamente indietro per uscire dall'App",
     "Accept":"Accept",
     "Reject":"Reject",
     "Yes":"Yes",
     "No":"No"
  },
  "pairing":{
     "Pairing":"Accoppiamento",
     "Start pairing":"Accoppia il tuo lucchetto",
     "Step 1":"Posiziona il palmo sopra il tastierino per attivare il lucchetto.",
     "Step 1 padlock":"Press any number to activate lock.",
     "Step 1 euroRetrofit":"Please keep the lock unlocked and hold the multi-function button until the lock is flashing blue.",
     "Step 1 keybox":"Si prega di tenere il lucchetto aperto e posizionare il palmo sul tastierino per attivarlo",
     "Keybox warning":"Si prega di non chiudere la cassetta delle chiavi fino a che il dispositivo non è accoppiato.",
     "Scan":"Seleziona il lucchetto bluetooth a cui connettersi.",
     "Next":"Prossimo",
     "Try Again":"Prova Ancora",
     "Pairing in progress":"Accoppiamento in corso...",
     "Please wait":"Please wait...",
     "Almost done":"Almost done...",
     "Step 1: Select Property":"Step 1: Seleziona Proprietà",
     "Step 2: Select Lock Model":"Step 2: Seleziona Modello Lucchetto",
     "Step 3: Pair your device":"Step 3: Accoppia il tuo dispositivo",
     "Step 3: Select Product ID":"Step 3: Seleziona ID Prodotto",
     "PAIRING_STEP_1":"Rrimuovi il pannello posteriore dal lucchetto",
     "PAIRING_STEP_2":"Posiziona il palmo sul tastierino per attivare il lucchetto",
     "PAIRING_STEP_2_KEYBOX":"Si prega di tenere il lucchetto aperto è porre il palmo sopra il tastierino per attivare il lucchetto",
     "PAIRING_STEP_3":"Rimuovi e reinserisci una batteria",
     "PAIRING_STEP_4_L":"Premi e tieni premuto il tasto apri per 2 secondi",
     "PAIRING_STEP_4_B":"Premi e tieni premuto il tasto # per 2 secondi",
     "PAIRING_STEP_5_L":"Ascolta 4 beep, seguiti da 2 beep",
     "PAIRING_STEP_5_B":"Ascolta 2 beep",
     "I hear the beeps":"Sento i beep",
     "PAIRING_LOCKBOX_STEP_1":"Gira il coperchio delle batterie in senso orario per aprirlo.",
     "PAIRING_LOCKBOX_STEP_2":"Usa un oggetto appuntito per premere il pulsante di reset che si trova fra gli slot della terza e quarta batteria. Tieni premuto per 2 secondi.",
     "PAIRING_LOCKBOX_STEP_3":"Premi Avanti quando hai finito",
     "PAIRING_BOLT2_NON_FACTORY_STEP_1":"Individua il pulsante di reset posizionato nel buco in alto a destra nel retro del pannello della parte frontale del lucchetto.",
     "PAIRING_BOLT2_NON_FACTORY_STEP_2":"Attiva il pulsante di reset con un oggetto appuntito e mantienilo premuto per 20 secondi.",
     "PAIRING_BOLT2_NON_FACTORY_STEP_3":"Se ti serve ulteriore supporto ti preghiamo di visitare l'Help Center igloohome nella pagina di Supporto.",
     "PAIRING_MORTISE_NON_FACTORY_STEP_1":"Individua il pulsante di reset posizionato nella parte bassa del vano batterie.",
     "PAIRING_MORTISE_NON_FACTORY_STEP_2":"Premi il pulsante reset insieme al tasto cancelletto sul tastierino fino a che non sentirai un beep.",
     "PAIRING_KEYBOX_2_STEP_1":"Open the Keybox 2 and unscrew the battery cover.",
     "PAIRING_KEYBOX_2_STEP_2":"Use a sharp object to press the reset button which falls between the 2nd and 3rd battery slots. Hold it for 2 seconds.",
     "PAIRING_PADLOCK_RESET_STEP_1":"Locate the reset button in the hole at the back after removing the battery cover.",
     "PAIRING_PADLOCK_RESET_STEP_2":"Trigger the reset button using a thin object and hold it for 3 seconds and you will hear a confirmation tone.",
     "PAIRING_BOLT2S_IGB4_RESET_STEP_1":"Hold on to [CLEAR] button and back body button that can be found below the thumbturn for 3 seconds and you will hear a confirmation tone.",
     "PAIRING_MORTISE_IGM2_RESET_STEP_1":"Hold on to [CLEAR] button and [R] button after removing the battery cover for 3 seconds and you will hear a confirmation tone.",
     "errors":{
        "There are no bluetooth devices detected in your network.":"Non ci sono dispositivi bluetooth nella tua rete.",
        "Try to turn bluetooth off and then on again.":"Prova a spegnere il bluetooth e a riaccenderlo e riprovare.",
        "We are unable to connect to the device selected.":"Non siamo in grado di connetterci al dispositivo selezionato.",
        "The lock that you are trying to add has already been claimed by another user.":"Il lucchetto che stai provando ad aggiungere è già stato reclamato da un altro utente.",
        "Please get the previous owner to delete the lock. The delete lock option can be found under the 'Set Up Home' menu.":"Si prega di chiedere al proprietario precedente di eliminare il lucchetto. L'opzione di eliminazione del lucchetto può essere trovata sotto il menu 'Home Impostazioni'.",
        "If you believe this to be in error, please contact Igloohome at support@igloohome.co":"Se credi sia un errore, si prega di contattare l'Help Center igloohome nella Pagina di Supporto",
        "NOT_IGLOOHOME":"Questo non è un dispositivo igloohome e non può essere accoppiato con l'app.",
        "Please try again.":"Si prega di riprovare.",
        "Lock deactivated during pairing":"Lucchetto deattivato durante l'accoppiamento",
        "Place palm over keypad to reactivate it":"Poggia il palmo sul tastierino per riattivarlo",
        "NETWORK_ERROR_MSG":"Abbiamo riscontrato un errore. Si prega di controllare le tue impostazioni di rete e riprovare.",
        "ENSURE_LOCK_ON":"Si prega di riprovare e assicurarsi che le luci sul lucchetto siano accese.",
        "OWN_LOCK_ALREADY_PAIRED":"Questo lucchetto è già stato associato al tuo account.",
        "UNABLE_TO_COMPLETE_PAIRING_ERROR":"Abbiamo riscontrato un problema durante l'accoppiamento.",
        "The lock that you are trying to add has already been blocked.":"Il lucchetto che stai provando ad aggiungere è già stato bloccato."
     }
  },
  "tabs":{
     "Active":"Attiva",
     "Valid Keys":"Tutte le Chiavi Valide",
     "Valid Keys New":"Tutti gli Accessi Validi",
     "Inactive":"Inattivo",
     "Invalid Keys":"Tutti i codici PIN scaduti o usati",
     "Invalid Keys New":"Tutti gli Accessi scaduti o usati",
     "Pending":"In Attesa",
     "Pending Keys":"Tutte le future durate dei codici Pin e chiavi bluetooth non ancora reclamate. Si prega di premere su 'Controlla Validità' per aggiornare lo stato dei codici PIN",
     "Pending Keys New":"Tutti gli accessi futuri e non reclamati"
  },
  "settings":{
     "My Account":"Mio Account",
     "My Preferences":"Mie Preferenze",
     "Notification Settings":"Impostazioni di Notifica",
     "Bluetooth Key Claimed":"Chiavi Bluetooth Reclamate",
     "Bluetooth Key Used":"Chiavi Bluetooth Usate",
     "Vibration Feedback":"Feedback Vibrazione",
     "Fingerprint Login":"Accesso con Impronta",
     "Face Id Login":"Accesso Face ID",
     "Touch Id Login":"Accesso Touch ID",
     "Language":"Lingua",
     "Connect External Providers":"Connetti Fornitori Esterni",
     "Reservation Welcome Email":"Prenotazione Email di Benvenuto",
     "Reservation Access Email":"Prenotazione Email Accesso",
     "Airbnb Connect Email Notifications":"Airbnb Connect Email Notifications",
     "hi":"Ciao,",
     "My Details":"Miei dettagli",
     "Name, Contact":"Nome, Contatto",
     "Battery Sync Reminder":"Ricorda Sincronizzazione Batteria",
     "Every X month":"Ogni X Mesi"
  },
  "checkbox":{
     "Unlock":"Apri",
     "Pairing":"Accoppia",
     "Reset":"Reset",
     "Description: A - Z":"Descrizione: A - Z",
     "Description: Z - A":"Descrizione: Z - A",
     "Created: Earliest First":"Creazione: Prima Recenti",
     "Created: Latest First":"Creazione: Prima Ultimi",
     "Bluetooth Key":"Chiave Bluetooth",
     "Key Card":"Key Card"
  },
  "menu":{
     "Home":"Casa",
     "Reservations":"Prenotazioni",
     "Visits":"Visite",
     "Configuration":"Configurazione",
     "Account Settings":"Impostazioni Account",
     "Support":"Supporto",
     "FAQ":"Domande Frequenti",
     "Logout":"Disconnetti"
  },
  "reserveDetail":{
     "Check In Time":"Controlla In Tempo",
     "Check Out Time":"Controlla Fuori Tempo",
     "Send Access Email":"Invia Accesso Email"
  },
  "firmware":{
     "The update can take up to 10 minutes.":"The update can take up to 10 minutes.",
     "Please keep your internet connected with the app open and place your phone near your lock":"Please keep your internet connected with the app open and place your phone near your lock",
     "Please keep your internet connected with the app open and place your phone near your fob":"Please keep your internet connected with the app open and place your phone near your {{ecosystemType}}",
     "Please keep your internet connected with the app open and place your phone near your bridge":"Please keep your internet connected with the app open and place your phone near your {{ecosystemType}}",
     "Do not remove the batteries.":"Do not remove the batteries.",
     "Do not close your app.":"Do not close your app.",
     "If there is an error during update, please remove the batteries and put them back into the fob":"If there is an error during update, please remove the batteries and put them back into the {{ecosystemType}}.",
     "Unlock your lock and keep it open":"Unlock your lock and keep it open",
     "Please place your phone near your lock":"Please place your phone near your lock.",
     "Please place your phone near your fob":"Please place your phone near your {{ecosystemType}}.",
     "Please place your phone near your bridge":"Please place your phone near your {{ecosystemType}}.",
     "Updating Firmware":"Updating Firmware",
     "Firmware is up to date!":"Firmware is up to date!",
     "Current Firmware Version":"Current Firmware Version",
     "Update available!":"Update available!",
     "Firmware downloaded!":"Firmware downloaded!",
     "New Firmware Version":"New Firmware Version",
     "New Firmware available. Update Now.":"New Firmware available. Update Now.",
     "Please ensure that the lock is unlocked before you proceed.":"Please ensure that the lock is unlocked before you proceed.",
     "Step 1: Download Firmware":"Step 1: Download Firmware",
     "Step 2: Prepare your lock":"Step 2: Prepare your lock",
     "Step 3: Updating Firmware":"Step 3: Updating Firmware",
     "Step 2: Updating Firmware":"Step 2: Updating Firmware",
     "Step 1: Firmware Downloaded":"Step 1: Firmware Downloaded",
     "Step 3: Firmware Updated":"Step 3 : Firmware Updated",
     "IMPORTANT":"IMPORTANT",
     "update now":"Update Now",
     "Firmware update is not available yet":"Firmware update is not available yet.",
     "Do check again later":"Do check again later.",
     "firmware update":"firmware update",
     "Make sure the blue light on your Fob is flashing":"Make sure the blue light on your Key Fob is flashing.",
     "Please hold onto the settings button":"Please hold onto the settings button if the blue light on your Key Fob stops flashing."
  },
  "access":{
     "Access":"Accesso",
     "Access Summary":"Sommarrio Accesso",
     "keycard issued":"Key Card emesse",
     "ekey issued":"Chiavi bluetooth emesse",
     "exclude unclaimed ekey":"Escludi chiavi non usate",
     "pincode created":"Codici PIN creati",
     "exclude deleted pincode":"Escludi PIN eliminati",
     "End time should be after start time":"End time should be after start time",
     "Start should be before end":"La data di inizio deve essere prima della data di fine.",
     "The end date should not exceed one year from the start date":"La data non deve eccedere un anno dalla data di inizio",
     "End date time should be current":"Il tempo della data di fine deve essere attuale",
     "Start date time should be current":"La data del tempo di inizio deve essere attuale",
     "Start date time should be before end date time":"La data di inizio deve essere prima della data di fine",
     "End day must be within same week":"End day must be within same week",
     "End date\/time must be after start date\/time":"End date\/time must be after start date\/time",
     "The PIN code should be between 4 and 7 digits":"The PIN code should be between 4 and 7 digits",
     "The PIN code should be between 7 and 9 digits":"Il codice pin deve avere da 7 a 8 cifre.",
     "The PIN codes do not match":"I codici PIN non corrispondono.",
     "Please fill in both PIN codes":"Si prega di compilare entrambi i codici PIN.",
     "Who is this key card for":"Per chi è questa key card",
     "Card ID":"Card ID",
     "Card added":"Card aggiunta",
     "Ekey Details":"Dettagli Chiave Bluetooth",
     "Pending start time":"Tempo di inizio in attesa",
     "View all durations":"Mostra tutte le durate",
     "All durations":"Tutte le durate",
     "Duration":"Durata",
     "received pin code for certain duration":"Hai ricevuto un codice PIN {{code}}. E' valido per {{duration}}.",
     "received permanent or otp":"Hai ricevuto un codice {{pinType}} {{code}}",
     "Enter a new name for this PIN":"Inserisci un nuovo nome per questo PIN:",
     "LIMITED_ACCESS_VIEW":"A causa di una cattiva connessione, non siamo in grado di accedere alla lista. Si prega di aggiornare la pagina se la connessione ad internet è disponibile.",
     "Select an access type":"Seleziona un tipo di accesso",
     "Works forever":"Funziona per sempre",
     "Works for a period":"Funziona per un periodo",
     "Repeats forever":"Ripeti per sempre",
     "Repeat Every":"Repeat Every",
     "Works only once":"Funziona una volta",
     "Unlocks with phone":"Apri col telefono",
     "Unlocks with keycard":"Apri con keycard",
     "Action Required":"Azione Richiesta",
     "Please update activity log before registering key card.":"Si prega di aggiornare il log attività prima di registrare la key card.",
     "no access":"Nessun {{statusAccess}} accesso per questo lucchetto.",
     "Sync to update status":"Sincronizza per aggiornare lo stato",
     "Revoke":"Revoca",
     "Clear":"Rimuovi",
     "Revoke bluetooth key":"Revoca chiave bluetooth",
     "Delete Bluetooth Key Access":"Elimina Chiave di Accesso Bluetooth",
     "Clear Pin Access":"Rimuovi Accesso PIN",
     "Delete Pin Access":"Delete PIN access",
     "Delete Keycard Access":"Delete Keycard Access",
     "Delete Access Message":"Sei sicuro di voler eliminare {{name}} {{accessType}}?",
     "Clear Access Message":"Sei sicuro di voler rimuovere {{name}} {{accessType}}?",
     "Revoke Access Message":"Sei sicuro di voler revocare {{name}} {{accessType}}?",
     "PIN not synced":"PIN non sincronizzato",
     "Please Sync Status to update":"PIN non sincronizzato. Si prega di Sincronizzare Stato per aggiornare.",
     "Share Bluetooth Key":"Condividi Chiave Bluetooth",
     "Share Key":"Condividi Chiave",
     "Scan key":"Scansiona utilizzando lo scanner QR del ricevente per ricevere la chiave",
     "pincodes":"Codici PIN",
     "out of 285 PINs created":"{{number}} di 285 PIN creati",
     "Bluetooth keys and PIN codes issued":"chaivi Bluetooth e codici PIN emessi",
     "Delete key card":"Elimina key card",
     "Share ekey message":"Ti ho inviato una chiave bluetooth igloohome. Per reclamare la chiave bluetooth premi sul link seguente. ",
     "permanent pin generated":"PIN permanente generato",
     "duration pin generated":"PIN a durata generato",
     "otp pin generated":"PIN a uso singolo generato",
     "duration ekey generated":"Chiave Bluetooth generata",
     "weekly pin generated":"Weekly PIN generated",
     "weekend pin generated":"Weekend PIN generated",
     "weekday pin generated":"Weekday PIN generated",
     "monthly pin generated":"Monthly PIN generated",
     "permanent nfc generated message":"Key card(s) added",
     "permanent pin generated message":"Si prega di usare il PIN nelle prossime 24 ore per attivarlo.",
     "weekly pin generated message":"Please use PIN within 24 hours from Start Time to activate it.",
     "weekday pin generated message":"Please use PIN within 24 hours from Start Time to activate it.",
     "weekend pin generated message":"Please use PIN within 24 hours from Start Time to activate it.",
     "monthly pin generated message":"Please use PIN within 24 hours from Start Time to activate it.",
     "duration pin generated message":"Si prega di usare il PIN nelle prossime 24 ore dal Tempo di Inizio per attivarlo.",
     "otp pin generated message":"Si prega di usare questo PIN in {{number}} ore prima che scada.",
     "duration ekey generated message":"Si prega di assicurarsi che la Chiave Bluetooth venga reclamata entro {{number}} ora.",
     "Don't remind me again":"Non ricordarmelo di nuovo",
     "Every Week":"Every Week",
     "Every Month":"Every Month",
     "Every Monday to Friday":"Every Monday to Friday",
     "Every Saturday and Sunday":"Every Saturday and Sunday",
     "Default":"Default",
     "Custom":"Custom",
     "Generate PIN remotely":"Generate PIN remotely",
     "Customize PIN via Bluetooth":"Customize PIN via Bluetooth",
     "Set your own PIN via bluetooth":"Set your own PIN via bluetooth",
     "Protips":"Protips",
     "All key cards look the same":"All key cards look the same so don't forget to label them!",
     "Step 1: Get your key card(s) ready":"Step 1: Get your key card(s) ready",
     "Step 2: Tap key card(s) on lock":"Step 2: Tap key card(s) on lock",
     "Step 3: Hold on to unlock until close sign appears":"Step 3: Hold on to 🔓 until 'CLOSE' sign appears.",
     "Step 4: Press and hold the lock icon until you hear a beep":"Step 4: Press and hold the 'lock' icon until you hear a beep",
     "key card(s) added":"Key card(s) added:",
     "You can add multiple cards at once":"You can add multiple cards at once.",
     "Start":"Start",
     "Ready":"I'm Ready",
     "Enter name":"Enter name",
     "Name X cards":"Name {{number}} card(s)",
     "SMS Pin Code":"Your {{pintype}} code is {{pincode}}.",
     "SMS Pin Validity":"Valid \nFROM {{from}} \nTO {{to}}.",
     "SMS Pin Validity Effective":"Valid \nEFFECTIVE FROM {{effective}} \nEVERY {{every}} \nFROM {{from}} \nTO {{to}}.",
     "SMS Pin Activate":"To Activate, please use once by: {{date}}",
     "SMS Pin Use":"Please use by: {{date}}"
  },
  "lock":{
     "Locks":"Lucchetti",
     "Pair a new lock":"Appaia un nuovo lucchetto",
     "Other igloohome locks":"Altri lucchetti igloohome",
     "Lock paired":"Lucchetto accoppiato!",
     "Edit lock name":"Modifica Nome Lucchetto",
     "Enter lock name":"Inserisci nome lucchetto",
     "Add Key Card":"Aggiungi Key Card",
     "Ensure that your bluetooth is turned on":"Ensure that your bluetooth is turned on",
     "On the lock keypad, enter":"Sul tastierino del lucchetto inserisci",
     "Tap your key card (s) on the key card reader":"Tocca la tua key card sul lettore key card",
     "Enter # on the keypad":"Inserisci # sul tastierino",
     "Press [Sync] below to update":"Premi [Sync] sotto per aggiornare",
     "Sync":"Sync",
     "Unable to Sync":"Impossibile Sincronizzare",
     "Create permanent PIN":"Crea PIN permanente",
     "Create duration PIN":"Crea PIN con durata",
     "Create one time PIN":"Crea PIN ad uso unico",
     "Create Bluetooth key":"Crea chiave Bluetooth",
     "Create recurring PIN":"Create recurring PIN",
     "Type of recurring PIN":"Type of recurring PIN",
     "other(s)":"altro(i)",
     "Are you sure you want to delete":"Sei sicuro di voler eliminare {{name}}",
     "Enter a new name for this lock":"Inserisci un nuovo nome per questo lucchetto",
     "Status":"Stato",
     "Go near lock":"Si prega di polle il vostro telefono vicino al lucchetto.",
     "Last updated":"Ultimo aggiornamento",
     "Lock updated":"Lucchetto aggiornato",
     "Last synced":"Ultima sincronizzazione",
     "Unable to check":"Impossibile controllare",
     "Battery Status Unavailable":"Stato Batteria non Disponibile",
     "Lock Name":"Nome Lucchetto",
     "Associated Property(s)":"Proprietà Associate",
     "Unpair lock from phone":"Deaccoppia lucchetti dal telefono",
     "Delete All PINs":"Elimina Tutti PIN",
     "Delete all PINs except for Master PIN":"Elimina Tutti i PIN a parte il master PIN",
     "RESET_LOCK_CONFIRM_TITLE":"Remove all PIN codes?",
     "RESET_LOCK_CONFIRM_MSG":"This must be done within bluetooth range of the lock. All generated PIN codes will be removed from the lock. The master PIN code will not be removed.",
     "LOCK_RESET_SUCCESS_MSG":"The lock has been reset to accept new PIN codes.  Previous PIN codes generated are no longer valid.",
     "General":"Generale",
     "Bluetooth Settings":"Impostazioni Bluetooth",
     "Quick Unlock":"Sblocco Veloce",
     "Auto Relock":"Auto Relock",
     "Sensor Relock Timer":"Timer Sensore di Richiusura",
     "Custom Relock Timer":"Custom Relock Timer",
     "Security lockout":"Blocco Sicurezza",
     "Volume":"Volume",
     "Set Volume":"Set Volume",
     "Battery Sync Reminder":"Promemoria Sincronizzazione Batteria",
     "Sync to delete":"Sincronizza per eliminare",
     "Delete Lock Message":"Place your phone near the lock to complete the deletion process.",
     "CONFIRM_DELETE_TEMPLATE":"Are you sure you want to delete this lock?  Please note that the lock codes generated earlier may still reside on the lock.",
     "Delete Lock Fail Message":"{{lockName}} è connesso all'inserzione {{providerName}} e non può essere rimosso. Si prega di disconnettere l'inserzione {{providerName}} prima di eliminare {{lockName}}.",
     "Never relock":"Never relock",
     "Always relock":"Always relock",
     "seconds":"seconds",
     "second(s)":"second(s)",
     "second":"second",
     "Set number of seconds":"Set number of seconds",
     "Enter number of seconds":"Enter number of seconds",
     "Apply":"Apply",
     "sec":"Sec",
     "Sensor relock can be customised from 1 to 180 seconds.":"Auto relock can be customised from 1 to 180 seconds.",
     "Not enabled":"Not enabled",
     "Level":"Level",
     "Attempt":"Attempt",
     "Attempts":"Attempts",
     "attempt(s)":"attempt(s)",
     "Deactivate lockout":"Deactivate lockout",
     "On":"On",
     "Off":"Off",
     "No Reminder":"No Reminder",
     "Relock Reminder Alert":"Relock Reminder Alert",
     "Firmware Version":"Firmware Version",
     "Calibrate Lock":"Calibrate Lock",
     "Lock Rotation":"Lock Rotation",
     "Step 1: Manually calibrate lock rotation":"Step 1: Manually calibrate lock rotation",
     "Step 2: Keep your door closed":"Step 2: Keep your door closed",
     "We will attempt the lock rotation you selected to see if it works for your door":"We will attempt the lock rotation you selected to see if it works for your door",
     "Step 3: Lock calibrated":"Step 3: Lock calibrated",
     "Calibration in progress...":"Calibration in progress...",
     "Prepare your lock":"Prepare your lock",
     "Calibrating":"Calibrating",
     "Calibration":"Calibration",
     "This lock rotation doesn’t work for your door.":"This lock rotation doesn’t work for your door."
  },
  "configuration":{
     "List Of Homes":"Lista Di Propriet‡",
     "Which property(s) would you like to pair the lock with?":"A quale proprietà vorresti accoppiare questo lucchetto",
     "You do not have any properties yet.":"Non hai ancora proprietà",
     "Add property":"Aggiungi proprietà",
     "Home(s)":"Propriet‡",
     "All Properties":" Tutte Proprietà",
     "Pinned Locks":"Lucchetti Appuntati"
  },
  "alert":{
     "Invalid Selection":"Selezione Invalida",
     "Please select listings that belongs to the same region.":"Si prega di selezionare le proprietà che appartengono alla stessa regione.",
     "Unable to re-associate to a property of different region":"Do note that you are unable to re-associate to a property of different region. Please re-pair to do that.",
     "Unable to Remove Home":"Non Ë stato possibile Rimuovere la Propriet‡",
     "Unable to Remove Home message":"{{listingName}} è connesso a {{provider}} e non può essere rimosso. Si prega di andare in prenotazioni e disconnettere {{listingName}} prima di eliminare.",
     "Unable to Remove Home message with lock":"{{listingName}} ha un dispositivo connesso e non può essere rimosso. Si prega di dissociare il tuo dispositivo da {{listingName}} prima di eliminare {{listingName}}."
  },
  "provider":{
     "Disconnect Listing":"Disconnetti Inserzione",
     "Disconnect Airbnb Listing Message":"Sei sicuro che vorresti disconnettere l'inserzione che si collega ad Airbnb? Rimuoverà tutte le prenotazioni associate alle inserzioni. Qualsiasi prenotazione futura non sarà processata",
     "guest(s)":"ospiti",
     "Access Methods":"Metodi di Accesso",
     "listings":"listings",
     "All Connected":"All Connected",
     "All":"All",
     "Generate PIN(s) now":"Generate PIN(s) now"
  },
  "support":{
     "Help & Support":"Aiuto e Supporto",
     "Youtube Channel":"Canale Youtube"
  },
  "Managing access on the go":"Gestisci l'accesso on the go.",
  "Reservation Details":"Dettagli Prenotazione",
  "Edit Reservation":"Modifica Prenotazione",
  "Connect":"Connetti",
  "Disconnect":"Disconnetti",
  "Select Listing":"Seleziona Inserzione",
  "Select a home to connect":"Seleziona una propriet‡ da collegare",
  "Guest":"Ospite",
  "Timezone":"Fuso orario",
  "Profile":"Profilo",
  "External Reservation":"Prenotazione Esterna",
  "Update PIN Send Time Message":"Accesso email per {{guestName}} (contiene i metodi di accesso come codici PIN e\/o chiavi bluetooth) saranno inviati {{sendAccessEmail}} ore prima dell'ora di checkin.",
  "Share":"condividi",
  "Skip":"Skip",
  "Send PIN Email Now":"Invia Email PIN Ora",
  "No Reservation Found":"Questa prenotazione non può essere trovata o potrebbe essere stata eliminata.",
  "PIN Email Sent With Time":"Accesso email inviato {{time_ago}}",
  "PIN Email Send Time Now":"Inviando l'email ora",
  "PIN Email Send Time Future":"L'accesso email sarà inviato {{time_future}}",
  "Reservation Share Msg":"Caro {{guestName}}, Ecco il tuo accesso per {{listingName}} dal {{startDate}} al {{endDate}}.\n{{access_pin_list}}",
  "Reservation Share Msg Access Pin Partial":"Codice PIN per {{lockName}}: {{pinCode}}",
  "Name":"Nome",
  "Region":"Regione",
  "Connect External Providers":"Connetti Fornitore Esterno",
  "Listing Details":"Dettagli Inserzione",
  "Select Your Product":"Seleziona il Tuo Prodotto",
  "Other igloohome locks":"Alri lucchetti igloohome",
  "Select Others":"Seleziona Altri",
  "Issue new key for":"Emetti nuova chiave per",
  "Family":"Famiglia",
  "Friends":"Amici",
  "Visitors":"Visitatori",
  "Tenants":"Affittuari",
  "Services":"Servizi",
  "Staff":"Staff",
  "Guests":"Ospiti",
  "Others":"Altri",
  "Key Card Holder":"Possessore Key Card",
  "Access Type":"Tipo Accesso",
  "Repeat this PIN":"Repeat this PIN",
  "Start Time":"Ora Inizio",
  "End Time":"Ora Fine",
  "Start Date":"Data Inizio",
  "End Date":"Data Fine",
  "Now":"Ora",
  "Start Day":"Start Day",
  "Start Day of Month":"Start Day of Month",
  "End Day of Month":"End Day of Month",
  "End Day":"End Day",
  "Effective Start Date":"Effective Start Date",
  "PIN":"PIN",
  "One Time PIN":"PIN ad un utilizzo",
  "Permanent PIN":"PIN permanente",
  "Duration PIN":"PIN a durata",
  "Weekly PIN":"Weekly PIN",
  "Weekday PIN":"Weekday PIN",
  "Weekend PIN":"Weekend PIN",
  "Monthly PIN":"Monthly PIN",
  "Repeats Sat and Sun":"Repeats Sat and Sun",
  "Repeats Mon to Fri":"Repeats Mon to Fri",
  "Repeats every Week":"Repeats every Week",
  "Repeats every Month":"Repeats every Month",
  "Recurring PIN":"PIN ricorrente",
  "Bluetooth Key":"Chiave Bluetooth",
  "Guest Bluetooth Keys":"Chiavi Bluetooth Ospite",
  "Keycard":"Keycard",
  "Add duration placeholder":"Es. Per chi è questo codice",
  "Lock Owner":"Possessore Lucchetto",
  "Master PIN":"Master PIN",
  "Master pin never expires":"Master pin non scade mai",
  "Remove from List":"Rimuovi da Lista",
  "Add New Home":"Aggiungi Nuova Propriet‡",
  "Name your home":"Dai un nome alla tua propriet‡",
  "Edit your home":"Modifica la tua propriet‡",
  "Edit":"Modifica",
  "Refreshing":"EN-Refreshing...",
  "Pull to refresh":"EN-Pull to refresh...",
  "Loading more data":"EN-Loading more data...",
  "Enter 7-9 digit PIN":"Inserisci un PIN di 7-9 caratteri",
  "Repeat PIN":"Ripeti PIN",
  "PIN code placeholder":"Inserisci un codice PIN",
  "Re-enter PIN code":"Re-inserisci codice PIN",
  "Connect Airbnb Listing":"Connetti Inserzioni AirBnb",
  "Connect Your AirBnb Listing":"Connetti le Tue Inserzioni AirBnb'",
  "Select Airbnb Listing":"Seleziona Inserzioni AirBnb",
  "Day":"Giorno",
  "Days":"Giorni",
  "Month":"Mese",
  "Months":"Mesi",
  "Hours":"ore",
  "Hour":"ora",
  "Minutes":"Minuti",
  "Before":"prima",
  "Select send PIN time":"Si prega di selezionare il numero di ore prima dell'orario di check in di quando il tuo ospite riceverà il suo accesso email. Il default è 1 ora.",
  "Select send PIN time2":"Please select the number of hour(s) before check in time for your guests to receive their access message. The default is 1 hour.",
  "hour(s) before check in time":"ore prima dell'orario di checkin",
  "No data found":"Nessun dato trovato",
  "Lock Info":"Informazioni Lucchetto",
  "Basic Unlock":"Sblocco Base",
  "Basic":"Base",
  "Logs":"Logs",
  "Settings":"Impostazioni",
  "Lock Settings":"Impostazioni Lucchetto",
  "Issue Access":"Emetti Accesso",
  "Activity Log":"Log Attività",
  "Igloohome Help Center":"Centro Aiuto Igloohome",
  "Welcome to igloohome":"Benvenuto a igloohome",
  "Receive bluetooth key":" Ricevi chiave bluetooth",
  "Pair new lock":"Accoppia nuovo lucchetto",
  "Request Instant Access":"Request Instant Access",
  "Go to visit page":"Vai alla pagina visite",
  "Add lock":"Aggiungi Lucchetto",
  "Manage Homes":"Gestisci Propriet‡",
  "Claim Bluetooth Key":"Reclama Chiave Bluetooth",
  "Manage Locks":"Gestisci Lucchetti",
  "Scan QR code to add key":"Scansiona codice QR per aggiungere chiave",
  "Customise email message":"Per controllare la mail di benvenuto o di accesso che verrà inviata al tuo ospite, si prega di premere sul pulsante 'Test Email Benvenuto' o ' Test Email Accesso'. La mail verrà inviata al tuo indirizzo email registrato. Per personalizzare la mail di accesso si prega di premere sul pulsante 'Contatta Supporto'.",
  "BTKEY_UNLOCK":"{{firstName}} {{lastName}} {{ekeyName}} ha aperto il lucchetto tramite chiave Bluetooth.",
  "EASY_UNLOCK":"Hai aperto il lucchetto tramite Easy Unlock.",
  "BASIC_UNLOCK":"Hai aperto il lucchetto tramite Sblocco Base.",
  "CREATE_PINCODE":"Hai creato un codice PIN per {{durationCode}}.",
  "CREATE_PINCODE_WITH_PINTYPE":"Hai creato un pin {{pinType}}.",
  "CREATE_PINCODE_WITH_PINTYPE_VIA_BLUETOOTH":"Hai creato un {{pinType}} tramite Bluetooth.",
  "CREATE_PINCODE_DURATION":"Hai creato un codice pin valido da {{start}} a {{end}}.",
  "CREATE_PINCODE_DURATION_VIA_BLUETOOTH":"Hai creato un codice PIN valido da {{start}} a {{end}} tramite Bluetooth.",
  "PAIR":"Hai accoppiato il lucchetto.",
  "RESET":"Hai reimpostato il lucchetto ed eliminato i PIN.",
  "TODAY":"OGGI",
  "YESTERDAY":"IERI",
  "LOG_CHANGE_MASTER_PIN":"Hai modificato il PIN Principale.",
  "LOG_ENABLE_AUTO_RELOCK_VIA_BLUETOOTH_SIMPLE":"La Chiusura Automatica Ë stata abilitata.",
  "LOG_ENABLE_AUTO_RELOCK_VIA_BLUETOOTH_EXTENDED":"La Chiusura Automatica Ë stata abilitata e impostata per {{newValue}}.",
  "LOG_DISABLE_AUTO_RELOCK_VIA_BLUETOOTH":"La Chiusura Automatica Ë stata disabilitata.",
  "LOG_CHANGE_INCORRECT_PIN_LOCKOUT_COUNT_VIA_BLUETOOTH":"I Tentativi di Blocco di Sicurezza sono stati impostati su{{newValue}}",
  "LOG_DISABLE_INCORRECT_PIN_LOCKOUT_COUNT_VIA_BLUETOOTH":"I Tentativi di Blocco di Sicurezza sono stati disabilitati",
  "LOG_CHANGE_VOL_VIA_BLUETOOTH":"Il Volume di Blocco Ë stato impostato sul Livello {{newValue}}",
  "LOG_PIN_DELETE":"Un codice PIN \"{{pinDescription}}\" Ë stato cancellato dalla serratura.",
  "LOG_PIN_UNLOCK_MASTER":"Un codice master PIN è stato utilizzato per aprire il lucchetto.",
  "LOG_PIN_UNLOCK_GUEST":"Un codice PIN usato da {{guestName}} è stato usato per aprire il lucchetto.",
  "LOG_PIN_CHANGE_GUEST_FROM_KEYPAD":"Un codice PIN usato da {{guestName}} è stato cambiato dal tastierino del lucchetto.",
  "LOG_PIN_DELETE_GUEST_FROM_KEYPAD":"Un codice PIN usato da {{guestName}} è stato eliminato dal tastierino del lucchetto.",
  "LOG_PIN_UNLOCK_NO_PINTYPE":"Un codice PIN \"{{pinDescription}}\" è stato usato per aprire il lucchetto.",
  "LOG_PIN_UNLOCK":"Un codice {{pinType}} \"{{pinDescription}}\" è stato usato per aprire il lucchetto.",
  "LOG_PIN_CHANGE_FROM_KEYPAD":"Un codice PIN \"{{pinDescription}}\" è stato cambiato dal tastierino del lucchetto.",
  "LOG_PIN_DELETE_FROM_KEYPAD":"Un codice PIN \"{{pinDescription}}\" è stato cambiato dal tastierino del lucchetto.",
  "LOG_PIN_UNLOCK_FAILED":"Un codice PIN non valido \"{{pinCodeNumber}}\" è stato provato.",
  "LOG_DELETE_ALL_PINS_FROM_KEYPAD":"Tutti i codici PIN sono stati eliminati dal tastierino del lucchetto.",
  "LOG_PIN_LOCK_BATTERIES_CHANGED":"Un cambio di batteria è stato effettuato sul lucchetto.  nuovo livello batteria: {{level}}%",
  "LOG_ENABLE_TIME_AUTOLOCK":"Ri-chiusura a tempo è stata impostata attiva e impostata a {{relockTime}}s.",
  "LOG_DISABLE_TIME_AUTOLOCK":"Ri-chiusura a tempo è stata disabilitata.",
  "LOG_ENABLE_SENSOR_AUTOLOCK":"Ri-chiusura a sensore è stata abilitata.",
  "LOG_DISABLE_SENSOR_AUTOLOCK":"Ri-chiusura a sensore è stata disabilitata.",
  "LOG_LOCK_VOLUME":"Volume lucchetto impostato a {{volume}}.",
  "LOG_NFC_PIN_SET":"Pin di sicurezza a 4 cifre è stato impostato a {{nfcPin}}.",
  "LOG_NFC_REGISTERED":"Key Card {{nfcCardId}} aggiunta.",
  "LOG_NFC_REGISTERED_NAME":"Key Card \"{{name}}\" has been added.",
  "LOG_NFC_DEREGISTERED":"Key card {{nfcCardId}} eliminata.",
  "LOG_NFC_DEREGISTERED_NAME":"Key card \"{{name}}\" è stata eliminata.",
  "LOG_NFC_UNLOCK":"Key card {{nfcCardId}} è stata usata per aprire il lucchetto.",
  "LOG_NFC_UNLOCK_NAME":"Key card \"{{name}}\" è stata usata per aprire il lucchetto.",
  "AUTO_RELOCK_AFTER_OPENING_AND_CLOSING_LOCK":"Lock has auto-relocked after closing.",
  "AUTO_RELOCK_WITHOUT_FIRST_OPENING_LOCK":"Lock has auto-relocked without opening.",
  "LOCK_VIA_KEYPAD_OR_BUTTON":"You have locked the lock via keypad or function button.",
  "RELOCK_ALARM_DISABLED":"Relock Reminder Alert has been disabled.",
  "RELOCK_ALARM_ENABLED":"Relock Reminder Alert has been set to {{seconds}} seconds.",
  "Attempted_BREAK_IN":"Intrusion detected on the lock. Please check immediately.",
  "DELETE_FINGERPRINT":"Fingerprint \"{{description}}\" has been deleted.",
  "ADD_FINGERPRINT":"Fingerprint \"{{description}}\" has been added.",
  "UNLOCK_VIA_FINGERPRINT":"Fingerprint \"{{description}}\" was used to unlock the lock.",
  "INVALID_FINGERPRINT":"An invalid Fingerprint was attemped.",
  "UNLOCK_VIA_BUTTON":"You have unlocked the lock via the function button.",
  "LINK_FOB":"Key Fob \"{{name}}\" has been added to the lock.",
  "UNLINK_FOB":"Lock has been unlinked from the Key Fob \"{{name}}\"",
  "BLOCK_FOB":"Key Fob \"{{name}}\" has been blocked from the lock.",
  "DELETE_FOB_FROM_LOCK":"Key Fob \"{{name}}\" has been deleted from the lock.",
  "UNLOCK_FOB":"Key Fob \"{{name}}\" was used to unlock the lock.",
  "LOCK_WITH_FOB":"Key Fob \"{{name}}\" was used to lock the lock.",
  "LOCK_VIA_KEY_OR_THUMBTURN":"You have Locked via physical key or thumb turn.",
  "UNLOCK_VIA_KEY_OR_THUMBTURN":"You have Unlocked via physical key or thumb turn.",
  "You have successfully changed your account details":"Hai cambiato con successo i tuoi dettagli dell'account",
  "You have successfully changed your password":"Hai cambiato con successo la password",
  "You have successfully changed your settings":"Hai cambiato con successo le impostazioni",
  "You have successfully claimed your bluetooth key":"Hai reclamato con successo la chiave bluetooth",
  "This lock has been added to favourite list":"Questo lucchetto Ë stato aggiunto alla lista dei lucchetti appuntati",
  "This lock has been removed from favourite list":"Questo lucchetto Ë stato rimosso alla lista dei lucchetti appuntati",
  "You have successfully sync the lock":"Hai sincronizzato con successo il lucchetto",
  "You have successfully disconnected from Airbnb account":"Hai disconnesso con successo l'account Airbnb",
  "Your action was successful":"La tua azione ha avuto successo",
  "UNLOCK_BY_EKEY_TITLE":"Lock Access",
  "UNLOCK_BY_EKEY_MSG":"%1$@ has unlocked %2$@ with a Bluetooth key.",
  "EKEY_CLAIMED_TITLE":"Bluetooth Key Accepted",
  "EKEY_CLAIMED_MSG":"%1$@ has accepted your Bluetooth key for %2$@",
  "WELCOME_EMAIL_PUSH_TITLE":"Guest Welcome Email",
  "WELCOME_EMAIL_PUSH_MSG":"%1$@ has received welcome email for your listing %2$@.",
  "PIN_EMAIL_PUSH_TITLE":"Guest Access Email",
  "PIN_EMAIL_PUSH_MSG":"%1$@ has received access email for your listing %2$@.",
  "UNLOCK_BY_EKEY_TOAST":"{{val1}} has unlocked {{val2}} with a Bluetooth key.",
  "EKEY_CLAIMED_TOAST":"{{val1}} has accepted your Bluetooth key for {{val2}}",
  "WELCOME_EMAIL_PUSH_TOAST":"{{val1}} has received welcome email for your listing {{val2}}.",
  "PIN_EMAIL_PUSH_TOAST":"{{val1}} has received access email for your listing {{val2}}.",
  "Forgot Password Success Title":"Email di Reset Inviata",
  "Forgot Password Success Message":"Una mail per reimpostare la password Ë stata inviata al tuo indirizzo email. Premi sul link per reimpostare la tua password.",
  "Register Success Title":"Email Verification",
  "Register Success Message":"A verification email has been sent to {{email}}. Please verify your account and log in.",
  "I have agreed to":"I have agreed to ",
  "terms of Service":"Terms of Service",
  "and":"and ",
  "Privacy Policy":"Privacy Policy",
  "By clicking Sign In, you acknowledge you have agreed to":"By clicking Sign In, you acknowledge you have agreed to ",
  "Pin Copied":"Pin copied",
  "fingerprint":{
     "Fingerprint":"Fingerprint",
     "Unlocks with fingerprint":"Unlocks with fingerprint",
     "Step 1: Get ready to scan":"Step 1: Get ready to scan",
     "Ensure that your finger is clean and dry.":"Ensure that your finger is clean and dry.",
     "Step 3: Scan your fingerprint":"Step 3: Scan your fingerprint",
     "Scan required":"Scan required",
     "Ensure that you press your finger on the scanner firmly":"Ensure that you press your finger on the scanner firmly",
     "I'm Done":"I'm Done",
     "Step 2: Name your fingerprint":"Step 2: Name your fingerprint",
     "There will be 3 scans required to register your fingerprint.":"There will be 3 scans required to register your fingerprint.",
     "Always place your finger at the center of the scanner for optimal perfomance.":"Always place your finger at the center of the scanner for optimal perfomance.",
     "Please try again. Do place your finger at the center firmly.":"Please try again. Do place your finger at the center firmly.",
     "Delete Fingerprint Access":"Delete Fingerprint Access",
     "Edit Fingerprint":"Edit Fingerprint",
     "Add Fingerprint":"Add Fingerprint",
     "Fingerprint ID":"Fingerprint ID",
     "Fingerprint added":"Fingerprint added"
  },
  "fob":{
     "You do not have any paired fobs.":"You do not have any paired {{ecosystemType}}.",
     "Manage fobs":"Manage {{ecosystemType}}",
     "Add Fob":"Add {{ecosystemType}}",
     "step1":"Step 1 : Prepare your {{ecosystemType}} for pairing",
     "step2":"Step 2 : Select Key Fob ID",
     "Enter Fob name":"Enter {{ecosystemType}} name",
     "Fob paired":"Key Fob paired!",
     "Link Fob":"Link {{ecosystemType}}",
     "Would you like to link your Fob to a lock now":"Would you like to link your {{ecosystemType}} to a lock now?",
     "Link lock from Fob":"Link lock from {{ecosystemType}}",
     "step1 link fob":"Step 1 : Get your {{ecosystemType}} ready",
     "step2 link fob":"Step 2 : Select a lock to link",
     "step3 link fob":"Step 3 : Linking your {{ecosystemType}} to {{lockname}}",
     "Linking Fob":"Linking {{ecosystemType}}",
     "Fob Linked":"{{ecosystemType}} Linked",
     "Fob successfully linked with":"{{ecosystemType}} successfully linked with \"{{lockname}}\"",
     "Fob Settings":"{{ecosystemType}} Settings",
     "Are you sure you want to unlink from":"Are you sure you want to unlink {{lock}} from {{fobname}}?",
     "Get your Fob ready":"Get your {{ecosystemType}} ready",
     "Successfully Deleted":"\"{{fobname}}\" Successfully Deleted",
     "Delete Fob":"Delete {{ecosystemType}}",
     "Unpair Fob from phone":"Unpair Key Fob from your phone",
     "Edit Fob Name":"Edit {{ecosystemType}} Name",
     "Fob name":"{{ecosystemType}} name",
     "Are you sure you want to delete Fob_name for all your locks":"Are you sure you want to delete {{fobname}} access for all your locks?",
     "Pair your Fob":"Pair your {{ecosystemType}}",
     "I lost my fob":"I lost my {{ecosystemType}}",
     "Lost your Fob":"Lost your {{ecosystemType}}?",
     "What to do when you have lost your Fob":"What to do when you have lost your {{ecosystemType}}",
     "When you lost your fob, you can revoke access to immediately to secure your place.":"When you lost your Key Fob, you can revoke access to immediately to secure your place.",
     "Revoke Fob access":"Revoke {{ecosystemType}} access",
     "lostFobRevoke":"You will no longer be able to unlock your linked lock(s) using the revoked {{ecosystemType}}.",
     "Step 1: Revoke Fob access":"Step 1: Revoke {{ecosystemType}} access",
     "Step 2: Delete Fob permanently":"Step 2: Delete {{ecosystemType}} permanently",
     "Permanently delete Fob from your account.":"Permanently delete your {{ecosystemType}} from your account.",
     "Are you sure you want revoke fob access for Lock_Name?":"Are you sure you want revoke {{ecosystemType}} access for {{Lock_Name}}?",
     "Remove Lock_Name from your Fob":"Remove {{Lock_Name}} from your Key Fob",
     "Lock successfully removed from your Fob.":"Lock successfully removed from your {{ecosystemType}} .",
     "Delete your Fob":"Delete your {{ecosystemType}}",
     "Your linked access will be removed automatically after you sync these access":"Your linked access will be removed automatically after you sync these access :",
     "Please wait while we remove all your Fob data":"Please wait while we remove all your {{ecosystemType}}’s data.",
     "Fob sucessfully removed":"Key Fob sucessfully removed.",
     "Please wait while we removing your lock from fob":"Please wait while we removing your lock from Key Fob.",
     "fob not found":"Device not found.",
     "fob aleready paired":"This Key Fob has already been paired.",
     "Delete fob alert":"Please unlink your linked lock(s) before deleting your device.",
     "This lock(s) has been deleted":"This lock has been deleted, please unlink it from the {{ecosystemType}}",
     "Fob has been blacklisted from the lock.":"Key Fob \"{{fobs_name}}\" has been blacklisted from the lock.",
     "Make sure your Fob is discoverable":"Make sure your {{ecosystemType}} is discoverable",
     "To start using your Fob, ensure the blue light is no longer flashing by holding onto the settings button":"To start using your Key Fob, ensure the blue light is no longer flashing by holding onto the settings button."
  },
  "bridge":{
     "Manage Bridge":"Manage {{ecosystemType}}",
     "You do not have any paired Bridge":"You do not have any paired {{ecosystemType}}.",
     "Add Bridge":"Add {{ecosystemType}}",
     "Pair your Bridge":"Pair your {{ecosystemType}}",
     "Pairing Bridge":"Pairing Bridge",
     "Step 1 Bridge pairing":"Step 1: Prepare your {{ecosystemType}} for pairing",
     "Bridge pairing message":"Connect your Bridge to power using the provided USB-C cable. \n \nPress the multi-function button once to wake the Bridge up.",
     "Step 2 Bridge pairing":"Step 2: Select Bridge ID",
     "You are connected to wifi":"You are connected to \"{{wifi_ssid}}\"",
     "Your phone is not connected to Wi-Fi":"Your phone is not connected to Wi-Fi",
     "Connected to wifi message":"Please enter your Wi-Fi password. Make sure you use a 2.4Ghz network.",
     "Step 3 Bridge pairing":"Bridge Paired!",
     "Not connected to wifi message":"Please connect your phone to your Wi-Fi to continue pairing.",
     "Incorrect wifi password message":"Incorrect password for \"{{wifi_ssid}}\"",
     "Set-up manually":"Set-up manually",
     "Skip this step":"Skip this step",
     "Skip wifi configuration":"Skip Wi-Fi configuration?",
     "Skip wifi configuration message":"This is an essential step in the Bridge setup process.",
     "Go to settings":"Go to settings",
     "Security":"Security",
     "Private Address":"Private Address",
     "Security types":"Security types",
     "None":"None",
     "WPA Enterprise":"WPA Enterprise",
     "WPA2 Enterprise":"WPA2 Enterprise",
     "WPA3 Enterprise":"WPA3 Enterprise",
     "Enter Bridge name":"Enter {{ecosystemType}} name",
     "Bridge name placeholder":"e.g. Home Bridge",
     "Link bridge to lock message":"Would you like to link your {{ecosystemType}} to a lock now?",
     "Current linked lock":"You currently have \"{{linkedLock}}\" locks linked",
     "Join network":"Join network",
     "Diagnostic":"Diagnostic",
     "wifi connected":"You are connected to \"{{ssid}}\"",
     "configuring wifi":"Configuring WiFi",
     "Step 1 link lock bridge":"Step 1 : Select a lock to link",
     "Step 2 link lock bridge":"Step 2 : Linking your {{ecosystemType}} to {{LockName}}",
     "Bridge successfully linked":"{{ecosystemType}} successfully linked with \"{{lockname}}\"",
     "You now have locks linked":"You now have  {{numberlock}}\/10 locks linked",
     "Diagnostics":"Diagnostics",
     "Check network status":"Check network status",
     "Remove Bridge name":"Remove {{bridgeName}}",
     "What to do when you have lost your Bridge":"What to do when you have lost your {{ecosystemType}}",
     "Remove Bridge from account":"Remove Bridge from account",
     "Allow Bridge to be paired to another account":"Allow Bridge to be paired to another account",
     "Bridge name":"{{ecosystemType}} name",
     "Delete Bridge":"Delete {{ecosystemType}}",
     "Bridge Settings":"{{ecosystemType}} Settings",
     "Delete bridge alert":"Are you sure you want to delete {{acc_name}} access for all your locks?",
     "I lost my bridge":"I lost my {{ecosystemType}}",
     "Unpair bridge from phone":"Unpair Bridge from your phone",
     "Edit Bridge Name":"Edit {{ecosystemType}} Name",
     "Bridge Wi-Fi Configuration":"Bridge Wi-Fi Configuration",
     "Configure Bridge Wi-Fi so you can start using your lock remotely":"Configure Bridge Wi-Fi so you can start using your lock remotely.",
     "Wifi Configuration message":"For some devices, we might ask you to enable location services to identify the SSID of the Wi-Fi that your phone’s connected to.",
     "Start Wi-Fi configuration":"Start Wi-Fi configuration"
  },
  "keypad":{
     "You do not have any paired Keypad.":"You do not have any paired {{ecosystemType}}.",
     "Manage Keypad":"Manage {{ecosystemType}}",
     "Add Keypad":"Add {{ecosystemType}}",
     "pairing step2":"Step 2 : Prepare your {{ecosystemType}} for pairing",
     "pairing step3":"Step 3 : Select Keypad ID",
     "Enter Keypad name":"Enter {{ecosystemType}} name",
     "Keypad paired":"Keypad paired!",
     "Link Keypad":"Link {{ecosystemType}}",
     "Would you like to link your Keypad to a lock now":"Would you like to link your {{ecosystemType}} to a lock now?",
     "Link lock from Keypad":"Link lock from {{ecosystemType}}",
     "step1 link keypad":"Step 1 : Get your {{ecosystemType}} ready",
     "step2 link keypad":"Step 2 : Select a lock to link",
     "step3 link keypad":"Step 3 : Linking your {{ecosystemType}} to {{lockname}}",
     "Linking Keypad":"Linking {{ecosystemType}}",
     "Keypad Linked":"{{ecosystemType}} Linked",
     "Keypad successfully linked with":"{{ecosystemType}} successfully linked with \"{{lockname}}\"",
     "Keypad Settings":"{{ecosystemType}} Settings",
     "Are you sure you want to unlink from":"Are you sure you want to unlink {{lock}} from {{keypadname}}?",
     "Get your Keypad ready":"Get your {{ecosystemType}} ready",
     "Successfully Deleted":"\"{{keypadname}}\" Successfully Deleted",
     "Delete Keypad":"Delete {{ecosystemType}}",
     "Unpair Keypad from phone":"Unpair Keypad from your phone",
     "Edit Keypad Name":"Edit {{ecosystemType}} Name",
     "Keypad name":"{{ecosystemType}} name",
     "Are you sure you want to delete Keypad_name for all your locks":"Are you sure you want to delete {{keypadname}} access for all your locks?",
     "Pair your Keypad":"Pair your {{ecosystemType}}",
     "I lost my keypad":"I lost my {{ecosystemType}}",
     "Lost your Keypad":"Lost your {{ecosystemType}}?",
     "What to do when you have lost your Keypad":"What to do when you have lost your {{ecosystemType}}",
     "When you lost your keypad, you can revoke access to immediately to secure your place.":"When you lost your Keypad, you can revoke access to immediately to secure your place.",
     "Revoke Keypad access":"Revoke {{ecosystemType}} access",
     "lostKeypadRevoke":"You will no longer be able to unlock your linked lock(s) using the revoked {{ecosystemType}}.",
     "Step 1: Revoke Keypad access":"Step 1: Revoke {{ecosystemType}} access",
     "Step 2: Delete Keypad permanently":"Step 2: Delete {{ecosystemType}} permanently",
     "Permanently delete Keypad from your account.":"Permanently delete your {{ecosystemType}} from your account.",
     "Are you sure you want revoke keypad access for Lock_Name?":"Are you sure you want revoke {{ecosystemType}} access for {{Lock_Name}}?",
     "Remove Lock_Name from your Keypad":"Remove {{Lock_Name}} from your Keypad",
     "Lock successfully removed from your Keypad.":"Lock successfully removed from your {{ecosystemType}}.",
     "Delete your Keypad":"Delete your {{ecosystemType}}",
     "Your linked access will be removed automatically after you sync these access":"Your linked access will be removed automatically after you sync these access :",
     "Please wait while we remove all your Keypad data":"Please wait while we remove all your {{ecosystemType}}’s data.",
     "Keypad sucessfully removed":"Keypad sucessfully removed.",
     "Please wait while we removing your lock from keypad":"Please wait while we removing your lock from Keypad.",
     "keypad not found":"Device not found.",
     "keypad aleready paired":"This Keypad has already been paired.",
     "Delete keypad alert":"Please unlink your linked lock(s) before deleting your device.",
     "This lock(s) has been deleted":"This lock has been deleted, please unlink it from the {{ecosystemType}}",
     "Keypad has been blacklisted from the lock.":"Keypad \"{{Keypad_name}}\" has been blacklisted from the lock.",
     "Make sure your Keypad is discoverable":"Make sure your {{ecosystemType}} is discoverable",
     "To start using your Keypad, ensure the blue light is no longer flashing by holding onto the settings button":"To start using your Keypad, ensure the blue light is no longer flashing by holding onto the settings button."
  },
  "accecories":{
     "Link now":"Link now",
     "Link later":"Link later",
     "Select lock":"Select lock",
     "Link more locks":"Link more locks",
     "Linked Lock(s)":"Linked Lock(s)",
     "Linked Locks":"Linked Locks",
     "Unlink Lock":"Unlink Lock?",
     "Unlink":"Unlink",
     "Unlink lock":"Unlink lock",
     "Unlinking":"unlinking \"{{name}}\"",
     "Successfully Unlinked":"\"{{lockname}}\" Successfully Unlinked",
     "Deleting":"Deleting \"{{name}}\"",
     "Linked to multiple locks":"Linked to multiple locks",
     "Linked to lockname":"Linked to \"{{lockname}}\"",
     "Not linked":"Not linked",
     "Open the back cover and hold setting button until blue light flashes":"Open the back cover and hold onto the settings button until the blue light flashes",
     "You have linked number locks":"You have linked ({{number}}\/5) locks",
     "You can link up to 5 locks":"You can link up to 5 locks",
     "Please make sure your lock(s) are nearby to revoke access.":"Please make sure your lock(s) are nearby to revoke access.",
     "Revoke access":"Revoke access",
     "I no longer have this lock":"I no longer have this lock",
     "Please confirm that you no longer have this lock.":"Please confirm that you no longer have this lock.",
     "Remove lock":"Remove lock",
     "Remove Lock_Name":"Remove {{Lock_Name}}",
     "This will permanently remove it from your account":"This will permanently remove it from your account",
     "Delete Permanently":"Delete Permanently",
     "Do you want to unlink lock":"Do you want to unlink lock?",
     "Do you want to unlink your lock":"Do you want to unlink your lock?",
     "Any access granted to linked devices will still persist. Would you like to unlink them now":"Any access granted to linked devices will still persist. Would you like to unlink them now?",
     "Later":"Later",
     "Linked Devices":"Linked Devices",
     "Unlink device":"Unlink device?",
     "lock aleready linked":"This lock already linked to this device."
  },
  "retrofit":{
     "Auto-relock calibration":"Auto-relock calibration",
     "Calibrating auto-relock":"Calibrating auto-relock",
     "Lock position":"Lock position",
     "Calibrate the lock’s magnet sensor to optimize auto-relock performance":"Calibrate the lock’s magnet sensor to optimize auto-relock performance.",
     "Ensure that the door is closed":"Ensure that the door is closed.",
     "Tap next and you should hear a chime":"Tap next and you should hear a chime.",
     "Choose your door lock position":"Choose your door lock position",
     "Calibration in progress":"Calibration in progress...",
     "Calibration complete":"Calibration complete",
     "Start calibration":"Start calibration",
     "Open your door slightly so it’s ajar":"Open your door slightly so it’s ajar.",
     "1 of 2":"1 of 2",
     "2 of 2":"2 of 2",
     "Left":"Left",
     "Right":"Right",
     "Lock rotation":"Lock rotation",
     "Single Lock":"Single Lock",
     "Double Lock":"Double Lock",
     "Auto Unlock":"Auto-Unlock",
     "Location radius":"Location radius",
     "Automatically unlock your lock when you return to your property":"Automatically unlock your lock when you return to your property.",
     "Auto-Unlock is already active for lock_name":"Auto-Unlock is already active for {{lock_name}}. Please disable Auto-Unlock for {{lock_name}} to proceed.",
     "Modify location radius depending on your property scale":"Modify location radius depending on your property scale.",
     "Adjust lock location":"Adjust lock location"
  },
  "Search lock...":"Search lock...",
  "Couldnt find lock":"Couldn't find \"{{lockname}}\"",
  "Try searching again using a different keyword.":"Try searching again using a different keyword.",
  "1.1.403":"Non è stato possibile accetere con username \/password. Si prega di riprovare.",
  "1.1.409":"Impossibile accedere.  Si prega di verificare il tuo account premendo sul link nella tua mail e riprovare.",
  "1.1.410":"Il tuo Account è stato bloccato",
  "2.1.403":"L'email {{email}} è già stata registrata.",
  "2.1.409":"L'email {{email}} è già stata registrata.",
  "3.1.403":"Non è stato possibile cambiare i tuoi dettagli a causa di un errore. Si prega di riporovare.",
  "4.1.403":"Non è stato possibile cambiare la tua password a causa di un errore. Si prega di riporovare.",
  "5.1.403":"Abbiamo riscontrato un errore nel disconnettere il tuo account AirBnb, si prega di disconnettere le inserzioni associate al tuo account AirBnb nella scheda Prenotazioni e riprovare.",
  "6.3.803":"Impossibile reclamare la chiave bluetooth. Si prega di riprovare.",
  "6.3.804":"Invalid QR code",
  "7.1.400":"Non ci Ë stato possibile aggiungere una nuova propriet‡. Si prega di riprovare.",
  "8.1.403":"{{listingName}} è connessa al dispositivo e non può essere rimossa. Si prega di dissociare il tuo dispositivo da {{listingName}} prima di eliminare {{listingName}}.",
  "8.1.409":"{{listingName}} è connessa a {{provider}} e non può essere rimossa. Si prega di andare nelle prenotazioni e disconnettere {{listingName}} prima di eliminare.",
  "9.1.404":"Non ci è stato possibile individuare la tua posizione attuale. Si prega di abilitare i Servizi di Localizzazione per automare la configurazione della tua casa e del fuso orario. Alternativamente puoi impostare manualmente la tua città.",
  "10.1.400":"Non ci è stato possibile generare un accesso per il tuo luccchetto. Si prega di riprovare.",
  "13.2.880":"New PIN is already taken. Please try a different pin",
  "18.1.404":"Impossibile rimuovere l'accesso. Si prega di riprovare.",
  "19.1.404":"Impossibile revocare l'accesso. Si prega di riprovare.",
  "20.1.404":"Non ci è stato possibile disconnettere la proprietà igloohome dall'inserzione AirBnb. Si prega di riprovare.",
  "21.1.404":"Impossibile inviare l'accesso email al tuo ospite. Si prega di riprovare.",
  "22.1.404":"La chiave bluetooth che stai provando a reclamare è stata reclamata o è scaduta. Si prega di contattare il tuo albergatore per una nuova chiave.",
  "22.1.409":"Non ti è consentito reclamare la tua chiave bluetooth.",
  "22.5.1":"Please login to your account before claiming the bluetooth key.",
  "22.5.800":"Please login to your account before claiming the bluetooth key.",
  "47.5.800":"Please login to your account before requesting for instant access.",
  "47.1.409":"You are not allowed to request instant access for your lock.",
  "23.1.404":"The bluetooth key is expired or revoked. Please contact your host.",
  "23.5.703":"Unlock ekey error",
  "24.1.403":"You have reached the maximum of 5 pinned locks. Please unpin a lock and try again.",
  "31.1.404":"Lock not found.",
  "delete_card_error":"Key card eliminata potrebbe ancora rifletterso nell'app. Si prega di riprovare.",
  "add_card_error":"La keycard aggiunta potrebbe non essere visibile nell'app. Si prega di riprovare.",
  "unlock_error":"Non assicurati che il lucchetto sia attivo:  Premi un qualsiasi tasto sul tastierino numerico. Assicurati che le luci sul tastierino numerico restino accese. Se il problema persiste preghiamo di controllare che il bluetooth sia impostato su 'On', riavvia il bluetooth sul tuo dispositivo, prova poi ad aggiungere di nuovo il tuo dispositivo.",
  "update mastercode error":"Non ci è stato possibile impostare la password admin per il tuo lucchetto. Si prega di riprovare.",
  "delete lock error":"Errore duranteil tentativo di rimozione del lucchetto. Si prega di assicurarsi di essere nel raggio di azione del bluetooth del lucchetto e riprovare.",
  "sync lock error":"Errore, impossibile sincronizzare il tempo del lucchetto al momento. Si prega di assicurarsi di essere nel raggio del bluetooth e riprovare.",
  "sync lock bt in progress error":"Unable to sync the lock. Please try again.",
  "location_permission error":"Please ensure that the Bluetooth and location are turned on, Bluetooth privacy is enabled, then try again.",
  "use pin before":"Si prega di usare il codice PIN una volta prima di procedere.",
  "update your application":"Si prega di aggiornare l'applicazione.",
  "edit pincode error":"We are unable to connect to the bluetooth lock. Ensure that the lock is awake: Press any key to check on the numpad of the lock. Ensure the lights on the numpad stays lit. If the problem persists, please check if bluetooth is set to 'On', restart bluetooth on your device.",
  "download":"Scarica",
  "network_error":"Siamo incappati in un errore di rete. Si prega di controllare le impostazioni di rete e riprovare.",
  "0.1.12":"Network Error",
  "invalid email":"Si prega di inserire una mail valida",
  "invalid password":"Si prega di inserire una password valida",
  "pin creation limit reached error":"PIN generation limit reached for this hour. Please wait till the next hour to generate more remotely. Alternatively, you may create PIN codes via Bluetooth.",
  "key card creation limit reached error":"Keycard creation limit reached. No further keycards can be added.",
  "legacy pin creation limit reached error":"PIN creation limit reached. Please delete all PINs to create more.",
  "Instant Access Request invalid. Lock is not paired to any account.":"Instant Access Request invalid. Lock is not paired to any account.",
  "0.0.0":"Error",
  "Note":"Note",
  "Full":"Full",
  "Okay":"Moderate",
  "Low":"Low",
  "Change your battery soon":"Change your battery soon",
  "You haven't add any listing yet.":"You haven't add any listing yet.",
  "You can send a test access message to your email.":"You can send a test access message to your email",
  "The actual access message will be sent to your guest via Airbnb platform before check-in time.":"The actual access message will be sent to your guest via Airbnb platform before check-in time.",
  "To customize the access message, please contact our support.":"To customize the access message, please contact our support.",
  "Add Listing":"Add Listing",
  "Test Access Message":"Test Access Message",
  "Send Access Message Now":"Send Access Message Now",
  "Send Access Message":"Send Access Message",
  "PIN Message Sent With Time":"message sent {{time_ago}}",
  "PIN Message Send Time Future":"message will be sent {{time_future}}",
  "Update PIN Send Time Message2":"Access message for {{guestName}} (containing access methods such as PIN codes and\/or bluetooth keys) will be sent {{sendAccessEmail}} hour(s) before check in time.",
  "Reservation Platform":"Reservation Platform",
  "Property Name":"Property Name",
  "Attention":"Attention",
  "You are making changes to the default listing settings.":"You are making changes to the default listing settings.",
  "Please note that this will not take effect on modified reservations.":"Please note that this will not take effect on modified reservations.",
  "Proceed":"Proceed",
  "The modifications will only affect this reservation. Default settings are unchanged.":"The modifications will only affect this reservation. Default settings are unchanged.",
  "Default Listing Settings":"Default Listing Settings",
  "Reservation Share Msg2":"Hi {{guestName}}, \n\nHere is your igloohome self check-in details at {{listingName}} from {{startDate}} to {{endDate}}.\n\n{{access_pin_list}}\n\n Your PIN is valid only from check-in to check-out time. Please use within 24 hours from your check-in time to activate the PIN.\n\nIf you experience any issues, please contact your host.\n\nEnjoy your stay!\nThe igloohome Team",
  "Reservation Share Msg Access detail":"{{lockName}}:\n{{pinCode}} \n",
  "All Airbnb listing has already been connected.":"All Airbnb listing has already been connected.",
  "PIN Message Send Time Now":"Sending access message now",
  "Are you sure you want to disconnect your Airbnb account? Please make sure all Airbnb listing(s) has already been disconnected.":"Are you sure you want to disconnect your Airbnb account? Please make sure all Airbnb listing(s) has already been disconnected.",
  "Access Message is being sent. Please check back for more details.":"Access Message is being sent. Please check back for more details.",
  "Message Sent":"Message Sent",
  "Template_content_required_error_message":"Please ensure you include these in your message:\n- Access detail\n- Start date\n- End date",
  "Discard_changes?":"Discard changes?",
  "Discard_template_changes_content":"Are you sure you want to discard your changes?\n\nAll changes will not be saved.",
  "Discard_button":"Discard",
  "Automated_Message_for_your_Self_Check-In":"Automated Message for your Self Check-In",
  "Note_Reservation_template":"*Note: This is a preview of your access message. The actual access message will be sent to your guest via Airbnb platform before check-in time.",
  "0.5.703":"Timeout Error",
  "0.2.6":"Unlocking too many times at once Error",
  "0.2.7":"Time Offsync error",
  "0.2.11":"Connect bt failed error",
  "0.2.12":"Unable to connect to lock coz its already connected error",
  "0.2.21":"Enable pin generation failed error",
  "0.2.41":"Retrieve Ekey Error",
  "0.2.61":"Unlock error",
  "0.2.63":"Phone disconnected while unlock error",
  "0.2.64":"Error",
  "0.2.71":"Set Keypad password error",
  "0.2.72":"Keypad Password Digits error",
  "0.2.100":"Network Error",
  "0.2.101":"Bind admin error",
  "0.2.121":"Add admin error",
  "0.2.122":"Add admin settings mode error",
  "0.2.131":"Upload Pincodes error",
  "0.2.141":"Get logs error",
  "0.2.151":"Reset lock error",
  "0.2.161":"NTP check error",
  "0.2.171":"Sync time error",
  "unable to connect":"Unable to connect to the device. Please try again.",
  "51.5.1003":"Please ensure that the lock is unlocked before you proceed.",
  "51.1.100":"Please check your network settings and try again.",
  "51.5.1301":"Unable to connect to the Lock. Please try again.",
  "51.5.703":"Unable to connect to the Lock. Please try again.",
  "51.5.1023":"This lock is not support firmware update.",
  "51.2.708":"Please ensure that the Bluetooth and location are turned on, Bluetooth privacy is enabled, then try again.",
  "51.5.1":"Please ensure that the Bluetooth and location are turned on, Bluetooth privacy is enabled, then try again.",
  "51.5.1303":"Please ensure that the Bluetooth and location are turned on, Bluetooth privacy is enabled, then try again.",
  "51.5.100":"Unable to connect to the Lock. Please try again.",
  "51.5.1002":"Please check your network settings and try again.",
  "51.5.1011":"DFU download error",
  "51.5.1012":"DFU download error",
  "51.5.1013":"DFU download error",
  "51.5.1014":"DFU download error",
  "51.5.1015":"DFU download error",
  "51.5.1016":"DFU download error",
  "51.5.1100":"DFU Error",
  "51.5.1021":"DFU package error",
  "51.5.1022":"DFU package initialitation error",
  "51.5.1024":"Please update your igloohome app to latest version",
  "51.5.1025":"Server bluetooth version error",
  "51.5.1026":"DFU configuration initiation error",
  "51.2.1002":"Unable to connect to the Lock. Please try again.",
  "51.2.1233":"Unable to connect to the Lock. Please try again.",
  "51.2.5206":"Please ensure that the Bluetooth and location are turned on, Bluetooth privacy is enabled, then try again.",
  "51.5.5206":"Please ensure that the Bluetooth and location are turned on, Bluetooth privacy is enabled, then try again.",
  "51.2.5196":"Unable to connect to the Lock. Please try again.",
  "51.4.1":"Please check your network settings and try again.",
  "51.2.12":"Unable to connect to the lock. Please try again.",
  "52.5.1":"Generic Error",
  "53.2.980":"Unable to delete access. Fingerprint UID could not be found. Please sync the lock and try again.",
  "52.2.960":"Fingerprint creation limit reached. Please remove another fingerprint access and try again",
  "52.2.970":"Reading error",
  "52.2.971":"Fingerprint scanning timeout. Please try again.",
  "52.2.972":"You have exceeded the number of attempts. Please make sure the scanner is clean and dry, then try again.",
  "51.1.801":"Please check your network settings and try again.",
  "38.2.860":"Please ensure that the Bluetooth and location are turned on, Bluetooth privacy is enabled, then try again.",
  "33.2.860":"Please ensure that the Bluetooth and location are turned on, Bluetooth privacy is enabled, then try again.",
  "54.2.708":"Please ensure that the Bluetooth and location are turned on, Bluetooth privacy is enabled, then try again.",
  "33.2.708":"Please ensure that the Bluetooth and location are turned on, Bluetooth privacy is enabled, then try again.",
  "airbnbError":"Cannot connect to airbnb",
  "Keycard missing uid":"Unable to delete access. Keycard UID could not be found. Please sync the lock and try again."
}