{
  "actions":{
     "Login":"ログイン",
     "Register":"新規登録",
     "Email":"Eメール",
     "Your email":"Eメール",
     "Reset Password":"パスワードをリセットする",
     "password":"パスワード",
     "Forgot Password":"パスワードを忘れた方",
     "Submit":"提出する",
     "First Name":"名",
     "Last Name":"姓",
     "Mobile":"携帯電話",
     "Password requirement":"パスワード(最小8文字)",
     "Password match":"パスワードは一致する必要があります",
     "Passwords not matching":"現在のパスワードと新しいパスワードが異なります",
     "Confirm Password":"パスワード確認",
     "Change Details":"詳細を変更する",
     "Change Password":"パスワード変更",
     "Change batteries":"電池を交換",
     "Current Password":"現在のパスワード",
     "New Password":"新しいパスワード",
     "Edit Account Details":"アカウントの詳細を編集する",
     "Filter":"フィルター",
     "Check Validity":"妥当性チェック",
     "New Key":"新しいキー",
     "Update Logs":"ログを更新",
     "Change language":"言語を変えてください",
     "Select Listing":"リスティングを選んでください",
     "Select City":"都市を選ぶ",
     "Select One":"一つ選んでください",
     "Test Welcome Email":"ウェルカムテストメールを送信する",
     "Test Access Email":"アクセステストメールを送信する",
     "Contact Support":"サポートに連絡する",
     "Add":"追加",
     "Delete":"削除",
     "Delete Lock":"スマートロックを削除",
     "Delete Home":"プロパティを削除",
     "Create PIN":"PINを作成する",
     "Create Bluetooth Key":"キーを作成する",
     "Edit PIN":"PINコードを編集",
     "Edit Key Card":"カードキーを編集",
     "Confirm":"確認する",
     "Edit Master PIN":"マスターPINコードを編集する",
     "Disconnect Airbnb":"Airbnbとの接続を終了",
     "Connect Airbnb":"Airbnbコネクト",
     "Connect Airbnb Message":"共同ホストのアカウントではなく、Airbnbプライマリホストのアカウントにigloohomeを接続してください",
     "Back":"戻る",
     "Ok":"Ok",
     "Cancel":"中止",
     "Cancel Sync":"同期をキャンセル",
     "Retry":"再試行",
     "Done":"仕上げ",
     "Load More":"もっと読み込む",
     "OR":"または",
     "Send Key":"キーを送る",
     "Close":"閉じる",
     "Set Up Now":"今すぐセットアップする",
     "Set Up Later":"後でセットアップする",
     "FingerPrint Message":"指紋認証でクイックログインします。或いは、'Account Settings'(アカウント設定)から後で設定することも可能です。",
     "Touch Id Message":"Touch IDでクイックログインします。或いは、'Account Settings'(アカウント設定)から後で設定することも可能です。",
     "Face Id Message":"얼굴 IDを使ったクイックログイン。あるいは設定することもできます後で[アカウント設定]の下にあります。",
     "Press back again to exit App.":"もう一度押すとAppを終了します。",
     "Accept":"承諾",
     "Reject":"拒否",
     "Yes":"Yes",
     "No":"No"
  },
  "pairing":{
     "Pairing":"ペアリング",
     "Start pairing":"スマートロックを同期しましょう",
     "Step 1":"キーパッドに手をかざしてスマートロックのスリープモードを解除する.",
     "Step 1 padlock":"任意の番号を押すとロックが起動します.",
     "Step 1 euroRetrofit":"Please keep the lock unlocked and hold the multi-function button until the lock is flashing blue.",
     "Step 1 keybox":"ロックを開いたままにし、キーパッドに手をかざしてスマートロックのスリープモードを解除する",
     "Keybox warning":"Keyboxとアカウントの接続が終了するまで、Keyboxを閉じないでください。",
     "Scan":"接続するBluetoothロックを選択する",
     "Next":"次へ",
     "Try Again":"もう一度試す",
     "Pairing in progress":"ペアリング中...",
     "Please wait":"Please wait...",
     "Almost done":"Almost done...",
     "Step 1: Select Property":"ステップ1: プロパティを選択",
     "Step 2: Select Lock Model":"ステップ2: ロックモデルを選択",
     "Step 3: Pair your device":"ステップ3: デバイスをペアリング",
     "Step 3: Select Product ID":"ステップ3: 製品IDを選択",
     "PAIRING_STEP_1":"スマートロックのバックパネルを取り外す",
     "PAIRING_STEP_2":"キーパッドに手をかざしてスマートロックのスリープモードを解除する",
     "PAIRING_STEP_2_KEYBOX":"ロックを開いたままにし、キーパッドに手をかざしてスマートロックのスリープモードを解除する",
     "PAIRING_STEP_3":"電池を一本一旦抜き取り、もう一度挿入する",
     "PAIRING_STEP_4_L":"解錠キーを2秒長押しする",
     "PAIRING_STEP_4_B":"「#」キーを2秒長押す",
     "PAIRING_STEP_5_L":"’ピー’音が4回鳴った後に、更に2回鳴る",
     "PAIRING_STEP_5_B":"’ピー’という音を2回聞く",
     "I hear the beeps":"’ピー’音が聞こえた",
     "PAIRING_LOCKBOX_STEP_1":"電池カバーを時計回りにひねって開ける",
     "PAIRING_LOCKBOX_STEP_2":"3本目と4本目の電池の間のリセットボタンを先端の細いもので2秒押す。",
     "PAIRING_LOCKBOX_STEP_3":"完了したら「次へ」を押す。",
     "PAIRING_BOLT2_NON_FACTORY_STEP_1":"ロックの前面の背面パネルの右上の穴にあるリセットボタンの位置を確認してください。",
     "PAIRING_BOLT2_NON_FACTORY_STEP_2":"先のとがった道具でリセットボタンを20秒くらい長押ししてください",
     "PAIRING_BOLT2_NON_FACTORY_STEP_3":"サポートが必要な場合は, に行くigloohomeヘルプセンターサポートページ。",
     "PAIRING_MORTISE_NON_FACTORY_STEP_1":"電池収納部の右下にありPleaseますリセットボタンの位置を確認してください。",
     "PAIRING_MORTISE_NON_FACTORY_STEP_2":"ビープ音が聞こえるまで、リセットボタンと一緒にキーパッド上にあるハッシュキーを押してください。",
     "PAIRING_KEYBOX_2_STEP_1":"キーボックス2を開き、バッテリカバーのネジを外します。",
     "PAIRING_KEYBOX_2_STEP_2":"鋭利なものを使用して、2番目と3番目のバッテリスロットの間にあるリセットボタンを2秒間押します。",
     "PAIRING_PADLOCK_RESET_STEP_1":"バッテリカバーを取り外したら、背面の穴にあるリセットボタンを見つけます。",
     "PAIRING_PADLOCK_RESET_STEP_2":"細いものでリセットボタンを3秒間押し続けると、確認音が鳴ります。",
     "PAIRING_BOLT2S_IGB4_RESET_STEP_1":"サムターンの付け根の下にある[クリア]ボタンと背面ボタンを3秒間押し続けると、確認音が鳴ります。",
     "PAIRING_MORTISE_IGM2_RESET_STEP_1":"電池カバーを取り外してから3秒間[クリア]ボタンと [R] ボタンを長押しすると、確認音が鳴ります。",
     "errors":{
        "There are no bluetooth devices detected in your network.":"ネットワーク上でBluetooth機器が検出できません。",
        "Try to turn bluetooth off and then on again.":"Bluetoothを入れ直し、再度やってみてください。",
        "We are unable to connect to the device selected.":"選択された機器に繋ぐことができません。",
        "The lock that you are trying to add has already been claimed by another user.":"あなたが追加しようとしているスマートロックは、既に他の人に所有されてしまいます。",
        "Please get the previous owner to delete the lock. The delete lock option can be found under the 'Set Up Home' menu.":"以前の所有者にスマートロックを削除してもらってください。スマートロック削除の選択肢は、'家の設定'のメニュー上にあります。",
        "If you believe this to be in error, please contact Igloohome at support@igloohome.co":"誤りがある場合、に行くigloohomeヘルプセンターサポートページ。",
        "NOT_IGLOOHOME":"これはigloohome デバイスではありませんので igloohome アプリとの組み合わせはできません.",
        "Please try again.":"再度実行してください。",
        "Lock deactivated during pairing":"Lock deactivated during pairing",
        "Place palm over keypad to reactivate it":"手をかざして再度オンにしてください。",
        "NETWORK_ERROR_MSG":"エラーが発生しています。ネットワーク状況を確認して、再度実行してください。",
        "ENSURE_LOCK_ON":"再度実行し、スマートロック上のライトが付いていることを確認してください。",
        "OWN_LOCK_ALREADY_PAIRED":"Bluetoothロックは既にあなたのアカウントに関連されています",
        "UNABLE_TO_COMPLETE_PAIRING_ERROR":"同期中にエラーが発生しました。",
        "The lock that you are trying to add has already been blocked.":"The lock that you are trying to add has already been blocked."
     }
  },
  "tabs":{
     "Active":"アクティブ",
     "Valid Keys":"すべての有効キー",
     "Valid Keys New":"全ての有効なアクセス",
     "Inactive":"非アクティブ",
     "Invalid Keys":"期限切れの及び使用済みの全てのPINコード",
     "Invalid Keys New":"全ての使用済み、期限切れのアクセス",
     "Pending":"保留",
     "Pending Keys":"今後のすべてのPINコード, 全ての保留中 bluetoothキー及びPINコードは更新されていません。'Check Validity'(妥当性のチェック)をクリックしてPINコードの状態を更新してください。",
     "Pending Keys New":"全てのこれからの、そして、未使用のアクセス"
  },
  "settings":{
     "My Account":"マイアカウント",
     "My Preferences":"お気に入り",
     "Notification Settings":"通知設定",
     "Bluetooth Key Claimed":"要求のあったBluetoothキー",
     "Bluetooth Key Used":"使用済みのBluetoothキー",
     "Vibration Feedback":"振動フィードバック",
     "Fingerprint Login":"指紋ログイン",
     "Face Id Login":"Face ID ログイン",
     "Touch Id Login":"Touch ID ログイン",
     "Language":"言語",
     "Connect External Providers":"コネクトプロバイダー",
     "Reservation Welcome Email":"予約ウェルカム メール",
     "Reservation Access Email":"予約アクセス メール",
     "Airbnb Connect Email Notifications":"Airbnb Connect Email Notifications",
     "hi":"こんにちは、",
     "My Details":"私の詳細情報",
     "Name, Contact":"名前、連絡先",
     "Battery Sync Reminder":"バッテリー同期リマインダー",
     "Every X month":"Xヶ月ごと"
  },
  "checkbox":{
     "Unlock":"解鍵",
     "Pairing":"ペアリング",
     "Reset":"リセット",
     "Description: A - Z":"コードの説明: アルファベット昇順",
     "Description: Z - A":"コードの説明: アルファベット降順",
     "Created: Earliest First":"コードの作成時間: 最も早いから",
     "Created: Latest First":"コードの作成時間: 最新から",
     "Bluetooth Key":"Bluetooth キー",
     "Key Card":"カードキー"
  },
  "menu":{
     "Home":"ホーム",
     "Reservations":"予約",
     "Visits":"訪問",
     "Configuration":"設定",
     "Account Settings":"アカウント設定",
     "Support":"サポート",
     "FAQ":"よくある質問(FAQ)",
     "Logout":"ログアウト"
  },
  "reserveDetail":{
     "Check In Time":"チェックイン時間",
     "Check Out Time":"チェックアウト時間",
     "Send Access Email":"アクセスメールを送信"
  },
  "firmware":{
     "The update can take up to 10 minutes.":"The update can take up to 10 minutes.",
     "Please keep your internet connected with the app open and place your phone near your lock":"Please keep your internet connected with the app open and place your phone near your lock",
     "Please keep your internet connected with the app open and place your phone near your fob":"Please keep your internet connected with the app open and place your phone near your {{ecosystemType}}",
     "Please keep your internet connected with the app open and place your phone near your bridge":"Please keep your internet connected with the app open and place your phone near your {{ecosystemType}}",
     "Do not remove the batteries.":"Do not remove the batteries.",
     "Do not close your app.":"Do not close your app.",
     "If there is an error during update, please remove the batteries and put them back into the fob":"If there is an error during update, please remove the batteries and put them back into the {{ecosystemType}}.",
     "Unlock your lock and keep it open":"Unlock your lock and keep it open",
     "Please place your phone near your lock":"Please place your phone near your lock.",
     "Please place your phone near your fob":"Please place your phone near your {{ecosystemType}}.",
     "Please place your phone near your bridge":"Please place your phone near your {{ecosystemType}}.",
     "Updating Firmware":"Updating Firmware",
     "Firmware is up to date!":"Firmware is up to date!",
     "Current Firmware Version":"Current Firmware Version",
     "Update available!":"Update available!",
     "Firmware downloaded!":"Firmware downloaded!",
     "New Firmware Version":"New Firmware Version",
     "New Firmware available. Update Now.":"New Firmware available. Update Now.",
     "Please ensure that the lock is unlocked before you proceed.":"Please ensure that the lock is unlocked before you proceed.",
     "Step 1: Download Firmware":"Step 1: Download Firmware",
     "Step 2: Prepare your lock":"Step 2: Prepare your lock",
     "Step 3: Updating Firmware":"Step 3: Updating Firmware",
     "Step 2: Updating Firmware":"Step 2: Updating Firmware",
     "Step 1: Firmware Downloaded":"Step 1: Firmware Downloaded",
     "Step 3: Firmware Updated":"Step 3 : Firmware Updated",
     "IMPORTANT":"IMPORTANT",
     "update now":"Update Now",
     "Firmware update is not available yet":"Firmware update is not available yet.",
     "Do check again later":"Do check again later.",
     "firmware update":"firmware update",
     "Make sure the blue light on your Fob is flashing":"Make sure the blue light on your Key Fob is flashing.",
     "Please hold onto the settings button":"Please hold onto the settings button if the blue light on your Key Fob stops flashing."
  },
  "access":{
     "Access":"アクセス",
     "Access Summary":"アクセスの概要",
     "keycard issued":"発行したカードキー",
     "ekey issued":"ブルートゥースキー発行",
     "exclude unclaimed ekey":"未使用のキーを除外する",
     "pincode created":"作成されたPINコード",
     "exclude deleted pincode":"削除されたPINコードを除外する",
     "End time should be after start time":"終了時刻は開始時刻より後でなければなりません",
     "Start should be before end":"開始日は終了日よりも前にしてください。",
     "The end date should not exceed one year from the start date":"終了日は開始日の1年以内でなければなりません",
     "End date time should be current":"終了時間は現在と同じにしてください",
     "Start date time should be current":"開始時間は現在と同じにしてください",
     "Start date time should be before end date time":"開始日時は終了日時より前でなければなりません",
     "End day must be within same week":"終了日は同じ週内でなければなりません",
     "End date\/time must be after start date\/time":"終了日時は開始日時より後でなければなりません",
     "The PIN code should be between 4 and 7 digits":"PINコードは4~7桁の数字で入力してください。",
     "The PIN code should be between 7 and 9 digits":"PINコードは7〜9桁でなければなりません。",
     "The PIN codes do not match":"PINコードが合致しません。",
     "Please fill in both PIN codes":"両方のPINコードを入力してください。",
     "Who is this key card for":"このカードは誰のものですか",
     "Card ID":"カードID",
     "Card added":"追加したカード",
     "Ekey Details":"ブルートゥースキーの詳細",
     "Pending start time":"保留中の開始時刻",
     "View all durations":"すべての期間を表示",
     "All durations":"すべての期間",
     "Duration":"期間",
     "received pin code for certain duration":"PINコード{{code}}を受け取りました。PINコードは、{{duration}}の間、有効です。",
     "received permanent or otp":"{{pinType}}コード{{code}}を受信しました。",
     "Enter a new name for this PIN":"このPINの新しい名前を入力：",
     "LIMITED_ACCESS_VIEW":"インターネット接続に問題があるため、アクセスリストの取得ができません。 インターネットに接続してから、ページの更新を行ってください。",
     "Select an access type":"アクセスの種類を選択",
     "Works forever":"無期限に利用",
     "Works for a period":"一定期間利用",
     "Repeats forever":"無期限に繰り返す",
     "Repeat Every":"Repeat Every",
     "Works only once":"一回限り利用",
     "Unlocks with phone":"スマートフォンでロック解除",
     "Unlocks with keycard":"カードキーでロック解除",
     "Action Required":"アクションが必要です",
     "Please update activity log before registering key card.":"カードキーの登録を行う前にアクティビティログを更新してください。",
     "no access":"このロックには{{statusAccess}}アクセスがありません。",
     "Sync to update status":"同期してステータスを更新",
     "Revoke":"取り消し",
     "Clear":"クリア",
     "Revoke bluetooth key":"Bluetooth keyを無効にしますか?",
     "Delete Bluetooth Key Access":"Bluetoothキーアクセスを削除",
     "Clear Pin Access":"ピンアクセスのクリア",
     "Delete Pin Access":"PINアクセスを削除",
     "Delete Keycard Access":"Delete Keycard Access",
     "Delete Access Message":"本当に{{name}}を削除しますか{{accessType}}",
     "Clear Access Message":"本当に{{name}}をクリアしますか{{accessType}}？",
     "Revoke Access Message":"{{name}}を取り消しますか{{accessType}}？",
     "PIN not synced":"PINが同期していません",
     "Please Sync Status to update":"PINが同期していません。ステータスの同期からアップデートを行ってください。",
     "Share Bluetooth Key":"Bluetooth Keyを共有する",
     "Share Key":"キーを共有する",
     "Scan key":"受け取り側のQRコードリーダーをスキャンして,キーを受け取る",
     "pincodes":"ピンコード",
     "out of 285 PINs created":"285のうちに{{number}}のPINコードが使われました。",
     "Bluetooth keys and PIN codes issued":"発行されたBluetoothキーとPINコード",
     "Delete key card":"カードキーを削除",
     "Share ekey message":"私はあなたにイグルーホームのブルートゥースキーを送った。ブルートゥースキーは、次のURLをクリックしてください。",
     "permanent pin generated":"恒久的なPINが生成されました",
     "duration pin generated":"期間PINが生成されました",
     "otp pin generated":"ワンタイムPINが生成されました",
     "duration ekey generated":"ブルートゥースキーが生成されました",
     "weekly pin generated":"週間PINが作成されました",
     "weekend pin generated":"週末PINが作成されました",
     "weekday pin generated":"週間日PINが作成されました",
     "monthly pin generated":"月毎PINが作成されました",
     "permanent nfc generated message":"Key card(s) added",
     "permanent pin generated message":"24時間以内にPINを使用してください有効にしてください。",
     "weekly pin generated message":"開始から24時間以内にPINを使用してください有効にする時間です。",
     "weekday pin generated message":"開始から24時間以内にPINを使用してください有効にする時間です。",
     "weekend pin generated message":"開始から24時間以内にPINを使用してください有効にする時間です。",
     "monthly pin generated message":"開始から24時間以内にPINを使用してください有効にする時間です。",
     "duration pin generated message":"開始から24時間以内にPINを使用してください有効にする時間です。",
     "otp pin generated message":"{{number}}時間前までにPINを使用してください期限切れです。",
     "duration ekey generated message":"を生成しました{{number}}時間以内に申し立てました。",
     "Don't remind me again":"二度と思い出させないでください",
     "Every Week":"毎週",
     "Every Month":"毎月",
     "Every Monday to Friday":"毎週月曜日から金曜日まで",
     "Every Saturday and Sunday":"毎週土曜日と日曜日",
     "Default":"デフォルト",
     "Custom":"カスタム",
     "Generate PIN remotely":"PINを遠距離生成する",
     "Customize PIN via Bluetooth":"Bluetooth経由でPINをカスタマイズ",
     "Set your own PIN via bluetooth":"Bluetooth経由でPINを設定",
     "Protips":"Protips",
     "All key cards look the same":"All key cards look the same so don't forget to label them!",
     "Step 1: Get your key card(s) ready":"Step 1: Get your key card(s) ready",
     "Step 2: Tap key card(s) on lock":"Step 2: Tap key card(s) on lock",
     "Step 3: Hold on to unlock until close sign appears":"Step 3: Hold on to 🔓 until 'CLOSE' sign appears.",
     "Step 4: Press and hold the lock icon until you hear a beep":"Step 4: Press and hold the 'lock' icon until you hear a beep",
     "key card(s) added":"Key card(s) added:",
     "You can add multiple cards at once":"You can add multiple cards at once.",
     "Start":"Start",
     "Ready":"I'm Ready",
     "Enter name":"Enter name",
     "Name X cards":"Name {{number}} card(s)",
     "SMS Pin Code":"Your {{pintype}} code is {{pincode}}.",
     "SMS Pin Validity":"Valid \nFROM {{from}} \nTO {{to}}.",
     "SMS Pin Validity Effective":"Valid \nEFFECTIVE FROM {{effective}} \nEVERY {{every}} \nFROM {{from}} \nTO {{to}}.",
     "SMS Pin Activate":"To Activate, please use once by: {{date}}",
     "SMS Pin Use":"Please use by: {{date}}"
  },
  "lock":{
     "Locks":"スマートロック",
     "Pair a new lock":"新しいロックをペアリングする",
     "Other igloohome locks":"その他のigloohomeロック",
     "Lock paired":"同期されました",
     "Edit lock name":"ロックの名前を編集する",
     "Enter lock name":"スマートロックの名前を入力してください",
     "Add Key Card":"カードキーを追加",
     "Ensure that your bluetooth is turned on":"Bluetoothをオンにしてください",
     "On the lock keypad, enter":"ロックキーパッドで次のものを入力してください",
     "Tap your key card (s) on the key card reader":"リーダーにカードキーをタップしてください。",
     "Enter # on the keypad":"#をキーパッドに入力してください",
     "Press [Sync] below to update":"以下の[同期]をクリックして更新してください",
     "Sync":"同期",
     "Unable to Sync":"同期できません",
     "Create permanent PIN":"無期限のPINを作成",
     "Create duration PIN":"期限付きのPINを作成",
     "Create one time PIN":"一度きりのPINを作成",
     "Create Bluetooth key":"Bluetoothキーを作成",
     "Create recurring PIN":"定型PINの作成",
     "Type of recurring PIN":"定型PINの種類",
     "other(s)":"その他",
     "Are you sure you want to delete":"本当に{{name}}を削除しても宜しいですか",
     "Enter a new name for this lock":"このロックに新しい名前を入力してください",
     "Status":"ステータス",
     "Go near lock":"あなたの電話をロックの近くに置いてください。",
     "Last updated":"最終更新",
     "Lock updated":"ロックは現在最新状態です",
     "Last synced":"最終同期",
     "Unable to check":"ロックの更新ができません。 再度お試しください。",
     "Battery Status Unavailable":"電源の状態は不明です",
     "Lock Name":"ロック名",
     "Associated Property(s)":"関連付けられている物件",
     "Unpair lock from phone":"ロックをスマートフォンから切断",
     "Delete All PINs":"全てのPINを削除",
     "Delete all PINs except for Master PIN":"マスターPINを除く全てのPINを削除",
     "RESET_LOCK_CONFIRM_TITLE":"リセット確認",
     "RESET_LOCK_CONFIRM_MSG":"本当にスマートロックをリセットしてもよろしいですか？リセット後は、以前に作成した暗証コードが全て削除されます。",
     "LOCK_RESET_SUCCESS_MSG":"新しい暗証コード設定の為、スマートロックがリセットされました。過去に作成された暗証コードは無効です。",
     "General":"一般",
     "Bluetooth Settings":"Bluetoothの設定",
     "Quick Unlock":"クイック解除",
     "Auto Relock":"オート再ロック",
     "Sensor Relock Timer":"自動再ロックタイマー",
     "Custom Relock Timer":"カスタム再ロックタイマー",
     "Security lockout":"セキュリティロックアウト",
     "Volume":"ボリューム",
     "Set Volume":"ボリュームをセットする",
     "Battery Sync Reminder":"バッテリー同期リマインダー",
     "Sync to delete":"同期で削除",
     "Delete Lock Message":"Place your phone near the lock to complete the deletion process.",
     "CONFIRM_DELETE_TEMPLATE":"このスマートロックを削除してもよろしいですか？　以前に設定した暗証コードはスマートロック上に残る場合がある点をご留意ください。",
     "Delete Lock Fail Message":"{{lockName}}は{{providerName}}リストに接続されているため削除できません。 {{lockName}}を削除する前に、{{providerName}}リストを切断してください。",
     "Never relock":"毎回再ロックしない",
     "Always relock":"毎回再ロックする",
     "seconds":"秒",
     "second(s)":"秒",
     "second":"秒",
     "Set number of seconds":"何秒か設定して下さい",
     "Enter number of seconds":"秒間を入力して下さい",
     "Apply":"適応",
     "sec":"秒",
     "Sensor relock can be customised from 1 to 180 seconds.":"自動再ロックは、1秒から180秒までカスタマイズできます。",
     "Not enabled":"無効",
     "Level":"レベル",
     "Attempt":"試行",
     "Attempts":"試行回数",
     "attempt(s)":"試行回数",
     "Deactivate lockout":"ロックアウトを無効にする",
     "On":"オン",
     "Off":"オフ",
     "No Reminder":"No Reminder",
     "Relock Reminder Alert":"Relock Reminder Alert",
     "Firmware Version":"Firmware Version",
     "Calibrate Lock":"Calibrate Lock",
     "Lock Rotation":"Lock Rotation",
     "Step 1: Manually calibrate lock rotation":"Step 1: Manually calibrate lock rotation",
     "Step 2: Keep your door closed":"Step 2: Keep your door closed",
     "We will attempt the lock rotation you selected to see if it works for your door":"We will attempt the lock rotation you selected to see if it works for your door",
     "Step 3: Lock calibrated":"Step 3: Lock calibrated",
     "Calibration in progress...":"Calibration in progress...",
     "Prepare your lock":"Prepare your lock",
     "Calibrating":"Calibrating",
     "Calibration":"Calibration",
     "This lock rotation doesn’t work for your door.":"This lock rotation doesn’t work for your door."
  },
  "configuration":{
     "List Of Homes":"不動産のリスト",
     "Which property(s) would you like to pair the lock with?":"ロックをどの物件とペアリングしますか？",
     "You do not have any properties yet.":"まだ物件が登録されていません。",
     "Add property":"物件を追加",
     "Home(s)":"不動産",
     "All Properties":"全ての物件",
     "Pinned Locks":"ピンしたロック"
  },
  "alert":{
     "Invalid Selection":"無効なセクション",
     "Please select listings that belongs to the same region.":"同じ地域にある物件を選択してください。",
     "Unable to re-associate to a property of different region":"Do note that you are unable to re-associate to a property of different region. Please re-pair to do that.",
     "Unable to Remove Home":"プロパティを削除できません",
     "Unable to Remove Home message":"{{listingName}}は{{provider}}に接続されており、削除できません。予約画面に移動して、{{listingName}}を切断してから、削除を行ってください。",
     "Unable to Remove Home message with lock":"{{listingName}}にはデバイスが接続されており、削除できません。デバイスを{{listingName}}から切断してから、{{listingName}}の削除を行ってください。"
  },
  "provider":{
     "Disconnect Listing":"切断リスト",
     "Disconnect Airbnb Listing Message":"本当にAirbnbへリンクするリストを切断してもよろしいですか。リストに関連付けられた全ての予約が削除されます。今後、予約は処理されません。",
     "guest(s)":"宿泊者",
     "Access Methods":"アクセス方法",
     "listings":"リスニング",
     "All Connected":"全て接続完了",
     "All":"全て",
     "Generate PIN(s) now":"Generate PIN(s) now"
  },
  "support":{
     "Help & Support":"ヘルプ＆サポート",
     "Youtube Channel":"Youtubeチャンネル"
  },
  "Managing access on the go":"外出先からアクセスを管理",
  "Reservation Details":"予約詳細",
  "Edit Reservation":"予約の編集",
  "Connect":"接続",
  "Disconnect":"切断",
  "Select Listing":"リスティングを選んでください",
  "Select a home to connect":"接続する家を選択してください",
  "Guest":"宿泊者",
  "Timezone":"時間帯",
  "Profile":"プロフィール",
  "External Reservation":"プロバイダー",
  "Update PIN Send Time Message":"チェックイン時間前に{{guestName}}のアクセスメールに{{sendAccessEmail}}時間が送信されます。 ",
  "Share":"共有",
  "Skip":"Skip",
  "Send PIN Email Now":"今すぐEメールでピンを送る",
  "No Reservation Found":"この予約は見つかりません。削除された可能性があります。",
  "PIN Email Sent With Time":"{{time_ago}}前にアクセスメール送信済み",
  "PIN Email Send Time Now":"アクセスメールを今すぐ送信",
  "PIN Email Send Time Future":"アクセスメールは{{time_future}}に送信されます",
  "Reservation Share Msg":"{{guestName}}様、{{startDate}}〜{{endDate}}のご滞在についての{{listingName}}へのアクセス情報をお送りします。\n{{access_pin_list}}",
  "Reservation Share Msg Access Pin Partial":"{{lockName}}のPINコード: {{pinCode}}",
  "Name":"名称",
  "Region":"地域",
  "Connect External Providers":"プロバイダーを接続",
  "Listing Details":"リスティング詳細",
  "Select Your Product":"製品を選択",
  "Other igloohome locks":"その他のigloohomeのロック",
  "Select Others":"その他を選択",
  "Issue new key for":"新しいキーを発行する",
  "Family":"家族",
  "Friends":"友人",
  "Visitors":"訪問者",
  "Tenants":"テナント",
  "Services":"サービス",
  "Staff":"スタッフ",
  "Guests":"宿泊者",
  "Others":"その他",
  "Key Card Holder":"カードキー所有者",
  "Access Type":"アクセスタイプ",
  "Repeat this PIN":"このPINを繰り返して下さい",
  "Start Time":"開始時間",
  "End Time":"終了時間",
  "Start Date":"開始日",
  "End Date":"終了日",
  "Now":"現在",
  "Start Day":"開始日",
  "Start Day of Month":"月の開始日",
  "End Day of Month":"月の最終日",
  "End Day":"最終日",
  "Effective Start Date":"有効開始日",
  "PIN":"PINコード",
  "One Time PIN":"1回限りのPINコード",
  "Permanent PIN":"無期限のPINコード",
  "Duration PIN":"期間設定のPINコード",
  "Weekly PIN":"毎週PIN",
  "Weekday PIN":"週間PIN",
  "Weekend PIN":"週末PIN",
  "Monthly PIN":"毎月PIN",
  "Repeats Sat and Sun":"Repeats Sat and Sun",
  "Repeats Mon to Fri":"Repeats Mon to Fri",
  "Repeats every Week":"Repeats every Week",
  "Repeats every Month":"Repeats every Month",
  "Recurring PIN":"繰り返し型のPIN",
  "Bluetooth Key":"Bluetoothキー",
  "Guest Bluetooth Keys":"宿泊者のBluetoothキー",
  "Keycard":"カードキー",
  "Add duration placeholder":"例：このコードの使用者",
  "Lock Owner":"ロック所有者",
  "Master PIN":"マスターPINコード",
  "Master pin never expires":"マスターPINコードは期限がなく、失効しません",
  "Remove from List":"リストから削除する",
  "Add New Home":"新しい家を追加",
  "Name your home":"あなたの財産に名前を付ける",
  "Edit your home":"あなたの財産を編集",
  "Edit":"編集",
  "Refreshing":"更新中...",
  "Pull to refresh":"プルして更新...",
  "Loading more data":"データをロード中...",
  "Enter 7-9 digit PIN":"7～9桁のPINコードを入力してください",
  "Repeat PIN":"再度入力してください",
  "PIN code placeholder":"7-9桁のPINコードを入力してください",
  "Re-enter PIN code":"再度PINコードを入力してください",
  "Connect Airbnb Listing":"Airbnbの物件を接続する",
  "Connect Your AirBnb Listing":"あなたのAirBnb物件を接続",
  "Select Airbnb Listing":"Airbnb物件の選択",
  "Day":"日",
  "Days":"日",
  "Month":"ヶ月",
  "Months":"ヶ月",
  "Hours":"時間",
  "Hour":"時間",
  "Minutes":"分",
  "Before":"ja-後で",
  "Select send PIN time":"宿泊者がアクセスメールを受信するデフォルトのタイミングは、チェックイン時間の1時間前です。これを変更するには、宿泊者がアクセスメールを受信する番号（時間単位）を選択してください。",
  "Select send PIN time2":"Please select the number of hour(s) before check in time for your guests to receive their access message. The default is 1 hour.",
  "hour(s) before check in time":"時間前に送信します",
  "No data found":"何もデータが見つかりませんでした",
  "Lock Info":"スマートロック情報",
  "Basic Unlock":"基本ロック解除",
  "Basic":"基本",
  "Logs":"ログ",
  "Settings":"設定",
  "Lock Settings":"ロックの設定",
  "Issue Access":"アクセスを発行する",
  "Activity Log":"アクティビティログ",
  "Igloohome Help Center":"igloohomeヘルプセンター",
  "Welcome to igloohome":"igloohomeへようこそ",
  "Receive bluetooth key":" Bluetoothキーを受信する",
  "Pair new lock":"新しいロックをペアリングする",
  "Request Instant Access":"Request Instant Access",
  "Go to visit page":"訪問ページに行く",
  "Add lock":"スマートロックを追加",
  "Manage Homes":"プロパティを管理する",
  "Claim Bluetooth Key":"Bluetooth Keyを作成",
  "Manage Locks":"スマートロック管理",
  "Scan QR code to add key":"キーを取得するためにＱＲコードを読み込んでください",
  "Customise email message":"宿泊者へ送信用のウェルカムメールの受信を希望する場合は、「ウェルカムテストメールを送信」ボタンをクリックしてください。 Eメールをあなたのメールアドレスに送信します。宿泊者へ送信用のアクセスEメールの受信を希望する場合は、「アクセステストメールを送信」ボタンをクリックしてください。テストメールをあなたのメールアドレスに送信します。あなたの仕様に従いアクセスメールをカスタマイズするには、「サポートに連絡する」ボタンをクリックしてください。Eメールのカスタマイズ手順が表示されます。",
  "BTKEY_UNLOCK":"{{lastName}} {{firstName}} {{ekeyName}} がBluetoothキーで解錠しました。",
  "EASY_UNLOCK":"簡単解錠により解錠しました",
  "BASIC_UNLOCK":"解錠しました",
  "CREATE_PINCODE":"{{durationCode}}有効なPINコードを作成しました",
  "CREATE_PINCODE_WITH_PINTYPE":"{{pinType}}を作成しました",
  "CREATE_PINCODE_WITH_PINTYPE_VIA_BLUETOOTH":"Bluetooth経由で{{pinType}}を作成しました。",
  "CREATE_PINCODE_DURATION":"{{start}}から{{end}}の間で有効なPINコードを作成しました",
  "CREATE_PINCODE_DURATION_VIA_BLUETOOTH":"Bluetooth経由で{{start}}から{{end}}まで有効なPINコードを作成しました。",
  "PAIR":"ロックの同期に成功しました",
  "RESET":"ロックをリセットしました",
  "TODAY":"今日",
  "YESTERDAY":"機能",
  "LOG_CHANGE_MASTER_PIN":"マスターPINを変えました。",
  "LOG_ENABLE_AUTO_RELOCK_VIA_BLUETOOTH_SIMPLE":"オート再ロックが有効になりました。",
  "LOG_ENABLE_AUTO_RELOCK_VIA_BLUETOOTH_EXTENDED":"自動再ロックが有効になり、{{newValue}}に設定されました。",
  "LOG_DISABLE_AUTO_RELOCK_VIA_BLUETOOTH":"自動再ロックは無効になっています。",
  "LOG_CHANGE_INCORRECT_PIN_LOCKOUT_COUNT_VIA_BLUETOOTH":"セキュリティロックアウトの試行回数が{{newValue}}に設定されました",
  "LOG_DISABLE_INCORRECT_PIN_LOCKOUT_COUNT_VIA_BLUETOOTH":"セキュリティロックアウトの試行が無効になっています",
  "LOG_CHANGE_VOL_VIA_BLUETOOTH":"ロックボリュームがレベル{{newValue}}に設定されました",
  "LOG_PIN_DELETE":"ピンコード\"{{pinDescription}}\"がロックから削除されました",
  "LOG_PIN_UNLOCK_MASTER":"マスターPINコードで解錠しました",
  "LOG_PIN_UNLOCK_GUEST":" {{guestName}}さんがPINコードで解錠しました",
  "LOG_PIN_CHANGE_GUEST_FROM_KEYPAD":" {{guestName}}さんの持つPINコードがキーパッドで変更されました",
  "LOG_PIN_DELETE_GUEST_FROM_KEYPAD":" {{guestName}}さんの持つPINコードがキーパッドで削除されました",
  "LOG_PIN_UNLOCK_NO_PINTYPE":"\"{{pinDescription}}\" PINコードで解錠しました",
  "LOG_PIN_UNLOCK":"\"{{pinDescription}}\" {{pinType}}PINコードで解錠しました",
  "LOG_PIN_CHANGE_FROM_KEYPAD":"\"{{pinDescription}}\" PINコードがキーパッドで変更されました",
  "LOG_PIN_DELETE_FROM_KEYPAD":"\"{{pinDescription}}\" PINコードがキーパッドで削除されました",
  "LOG_PIN_UNLOCK_FAILED":"失効したPINコード \"{{pinCodeNumber}}\" で解錠することを試みました",
  "LOG_DELETE_ALL_PINS_FROM_KEYPAD":"PINコードがすべてキーパッドで削除されました",
  "LOG_PIN_LOCK_BATTERIES_CHANGED":"新しい電池に交換しました。電池残量：{{level}}%",
  "LOG_ENABLE_TIME_AUTOLOCK":"タイマー再ロックが有効になり {{relockTime}}秒に設定されました。",
  "LOG_DISABLE_TIME_AUTOLOCK":"タイマー再ロックは無効になりました。",
  "LOG_ENABLE_SENSOR_AUTOLOCK":"自動再ロックが有効になっています。",
  "LOG_DISABLE_SENSOR_AUTOLOCK":"自動再ロックが無効になっています。",
  "LOG_LOCK_VOLUME":"ロック音量は {{volume}}に設定されました。",
  "LOG_NFC_PIN_SET":"4桁のセキュリティコードは{{nfcPin}}に設定されました。",
  "LOG_NFC_REGISTERED":"NFCカード {{nfcCardId}} が追加されました。",
  "LOG_NFC_REGISTERED_NAME":"Key Card \"{{name}}\" has been added.",
  "LOG_NFC_DEREGISTERED":"NFCカード {{nfcCardId}} は削除されました。",
  "LOG_NFC_DEREGISTERED_NAME":"カードキー\"{{name}}\"が削除されました。",
  "LOG_NFC_UNLOCK":"NFCカード {{nfcCardId}} はロック解除のため使用されました。",
  "LOG_NFC_UNLOCK_NAME":"カードキー\"{{name}}\"を使用しロックが解除されました。",
  "AUTO_RELOCK_AFTER_OPENING_AND_CLOSING_LOCK":"Lock has auto-relocked after closing.",
  "AUTO_RELOCK_WITHOUT_FIRST_OPENING_LOCK":"Lock has auto-relocked without opening.",
  "LOCK_VIA_KEYPAD_OR_BUTTON":"You have locked the lock via keypad or function button.",
  "RELOCK_ALARM_DISABLED":"Relock Reminder Alert has been disabled.",
  "RELOCK_ALARM_ENABLED":"Relock Reminder Alert has been set to {{seconds}} seconds.",
  "Attempted_BREAK_IN":"Intrusion detected on the lock. Please check immediately.",
  "DELETE_FINGERPRINT":"Fingerprint \"{{description}}\" has been deleted.",
  "ADD_FINGERPRINT":"Fingerprint \"{{description}}\" has been added.",
  "UNLOCK_VIA_FINGERPRINT":"Fingerprint \"{{description}}\" was used to unlock the lock.",
  "INVALID_FINGERPRINT":"An invalid Fingerprint was attemped.",
  "UNLOCK_VIA_BUTTON":"You have unlocked the lock via the function button.",
  "LINK_FOB":"Key Fob \"{{name}}\" has been added to the lock.",
  "UNLINK_FOB":"Lock has been unlinked from the Key Fob \"{{name}}\"",
  "BLOCK_FOB":"Key Fob \"{{name}}\" has been blocked from the lock.",
  "DELETE_FOB_FROM_LOCK":"Key Fob \"{{name}}\" has been deleted from the lock.",
  "UNLOCK_FOB":"Key Fob \"{{name}}\" was used to unlock the lock.",
  "LOCK_WITH_FOB":"Key Fob \"{{name}}\" was used to lock the lock.",
  "LOCK_VIA_KEY_OR_THUMBTURN":"You have Locked via physical key or thumb turn.",
  "UNLOCK_VIA_KEY_OR_THUMBTURN":"You have Unlocked via physical key or thumb turn.",
  "You have successfully changed your account details":"アカウント情報が更新されました",
  "You have successfully changed your password":"パスワードが変更されました",
  "You have successfully changed your settings":"設定が変更されました",
  "You have successfully claimed your bluetooth key":"Bluetoothキーを受け取りました",
  "This lock has been added to favourite list":"このロックはお気に入りリストに追加されました固定ロックリスト",
  "This lock has been removed from favourite list":"このロックは削除されました固定ロックリストから ",
  "You have successfully sync the lock":"ロックの同期に成功しました",
  "You have successfully disconnected from Airbnb account":"Airbnbアカウントの切断が完了しました",
  "Your action was successful":"操作が完了しました",
  "UNLOCK_BY_EKEY_TITLE":"ロックアクセス",
  "UNLOCK_BY_EKEY_MSG":"%1$@さんはbluetoothキーで%2$@を解錠しました",
  "EKEY_CLAIMED_TITLE":"Bluetoothキーは届きました",
  "EKEY_CLAIMED_MSG":"%1$@さんは%2$@用のbluetoothキーを受け取りました",
  "WELCOME_EMAIL_PUSH_TITLE":"ウェルカム メール",
  "WELCOME_EMAIL_PUSH_MSG":"%1$@ さんはリストのウェルカムメールを受信しました%2$@.",
  "PIN_EMAIL_PUSH_TITLE":"アクセス メール",
  "PIN_EMAIL_PUSH_MSG":"%1$@ さんはリストのアクセスメールを受信しました%2$@.",
  "UNLOCK_BY_EKEY_TOAST":"{{val1}}さんはbluetoothキーで{{val2}}を解錠しました",
  "EKEY_CLAIMED_TOAST":"{{val1}}さんは{{val2}}用のbluetoothキーを受け取りました",
  "WELCOME_EMAIL_PUSH_TOAST":"{{val1}} さんはリストのウェルカムメールを受信しました{{val2}}.",
  "PIN_EMAIL_PUSH_TOAST":"{{val1}} さんはリストのアクセスメールを受信しました{{val2}}.",
  "Forgot Password Success Title":"パスワードリセットEメールを送信しました",
  "Forgot Password Success Message":"パスワード再設定のEメールが送信されましたあなたのEメールアドレスに。パスワードをリセットするには、リンクをクリックしてください。",
  "Register Success Title":"電子メールの確認",
  "Register Success Message":"確認メールが{{email}}に送信されました。 アカウントを確認してログインしてください。",
  "I have agreed to":"I have agreed to ",
  "terms of Service":"Terms of Service",
  "and":"and ",
  "Privacy Policy":"Privacy Policy",
  "By clicking Sign In, you acknowledge you have agreed to":"By clicking Sign In, you acknowledge you have agreed to ",
  "Pin Copied":"Pin copied",
  "fingerprint":{
     "Fingerprint":"Fingerprint",
     "Unlocks with fingerprint":"Unlocks with fingerprint",
     "Step 1: Get ready to scan":"Step 1: Get ready to scan",
     "Ensure that your finger is clean and dry.":"Ensure that your finger is clean and dry.",
     "Step 3: Scan your fingerprint":"Step 3: Scan your fingerprint",
     "Scan required":"Scan required",
     "Ensure that you press your finger on the scanner firmly":"Ensure that you press your finger on the scanner firmly",
     "I'm Done":"I'm Done",
     "Step 2: Name your fingerprint":"Step 2: Name your fingerprint",
     "There will be 3 scans required to register your fingerprint.":"There will be 3 scans required to register your fingerprint.",
     "Always place your finger at the center of the scanner for optimal perfomance.":"Always place your finger at the center of the scanner for optimal perfomance.",
     "Please try again. Do place your finger at the center firmly.":"Please try again. Do place your finger at the center firmly.",
     "Delete Fingerprint Access":"Delete Fingerprint Access",
     "Edit Fingerprint":"Edit Fingerprint",
     "Add Fingerprint":"Add Fingerprint",
     "Fingerprint ID":"Fingerprint ID",
     "Fingerprint added":"Fingerprint added"
  },
  "fob":{
     "You do not have any paired fobs.":"You do not have any paired {{ecosystemType}}.",
     "Manage fobs":"Manage {{ecosystemType}}",
     "Add Fob":"Add {{ecosystemType}}",
     "step1":"Step 1 : Prepare your {{ecosystemType}} for pairing",
     "step2":"Step 2 : Select Key Fob ID",
     "Enter Fob name":"Enter {{ecosystemType}} name",
     "Fob paired":"Key Fob paired!",
     "Link Fob":"Link {{ecosystemType}}",
     "Would you like to link your Fob to a lock now":"Would you like to link your {{ecosystemType}} to a lock now?",
     "Link lock from Fob":"Link lock from {{ecosystemType}}",
     "step1 link fob":"Step 1 : Get your {{ecosystemType}} ready",
     "step2 link fob":"Step 2 : Select a lock to link",
     "step3 link fob":"Step 3 : Linking your {{ecosystemType}} to {{lockname}}",
     "Linking Fob":"Linking {{ecosystemType}}",
     "Fob Linked":"{{ecosystemType}} Linked",
     "Fob successfully linked with":"{{ecosystemType}} successfully linked with \"{{lockname}}\"",
     "Fob Settings":"{{ecosystemType}} Settings",
     "Are you sure you want to unlink from":"Are you sure you want to unlink {{lock}} from {{fobname}}?",
     "Get your Fob ready":"Get your {{ecosystemType}} ready",
     "Successfully Deleted":"\"{{fobname}}\" Successfully Deleted",
     "Delete Fob":"Delete {{ecosystemType}}",
     "Unpair Fob from phone":"Unpair Key Fob from your phone",
     "Edit Fob Name":"Edit {{ecosystemType}} Name",
     "Fob name":"{{ecosystemType}} name",
     "Are you sure you want to delete Fob_name for all your locks":"Are you sure you want to delete {{fobname}} access for all your locks?",
     "Pair your Fob":"Pair your {{ecosystemType}}",
     "I lost my fob":"I lost my {{ecosystemType}}",
     "Lost your Fob":"Lost your {{ecosystemType}}?",
     "What to do when you have lost your Fob":"What to do when you have lost your {{ecosystemType}}",
     "When you lost your fob, you can revoke access to immediately to secure your place.":"When you lost your Key Fob, you can revoke access to immediately to secure your place.",
     "Revoke Fob access":"Revoke {{ecosystemType}} access",
     "lostFobRevoke":"You will no longer be able to unlock your linked lock(s) using the revoked {{ecosystemType}}.",
     "Step 1: Revoke Fob access":"Step 1: Revoke {{ecosystemType}} access",
     "Step 2: Delete Fob permanently":"Step 2: Delete {{ecosystemType}} permanently",
     "Permanently delete Fob from your account.":"Permanently delete your {{ecosystemType}} from your account.",
     "Are you sure you want revoke fob access for Lock_Name?":"Are you sure you want revoke {{ecosystemType}} access for {{Lock_Name}}?",
     "Remove Lock_Name from your Fob":"Remove {{Lock_Name}} from your Key Fob",
     "Lock successfully removed from your Fob.":"Lock successfully removed from your {{ecosystemType}} .",
     "Delete your Fob":"Delete your {{ecosystemType}}",
     "Your linked access will be removed automatically after you sync these access":"Your linked access will be removed automatically after you sync these access :",
     "Please wait while we remove all your Fob data":"Please wait while we remove all your {{ecosystemType}}’s data.",
     "Fob sucessfully removed":"Key Fob sucessfully removed.",
     "Please wait while we removing your lock from fob":"Please wait while we removing your lock from Key Fob.",
     "fob not found":"Device not found.",
     "fob aleready paired":"This Key Fob has already been paired.",
     "Delete fob alert":"Please unlink your linked lock(s) before deleting your device.",
     "This lock(s) has been deleted":"This lock has been deleted, please unlink it from the {{ecosystemType}}",
     "Fob has been blacklisted from the lock.":"Key Fob \"{{fobs_name}}\" has been blacklisted from the lock.",
     "Make sure your Fob is discoverable":"Make sure your {{ecosystemType}} is discoverable",
     "To start using your Fob, ensure the blue light is no longer flashing by holding onto the settings button":"To start using your Key Fob, ensure the blue light is no longer flashing by holding onto the settings button."
  },
  "bridge":{
     "Manage Bridge":"Manage {{ecosystemType}}",
     "You do not have any paired Bridge":"You do not have any paired {{ecosystemType}}.",
     "Add Bridge":"Add {{ecosystemType}}",
     "Pair your Bridge":"Pair your {{ecosystemType}}",
     "Pairing Bridge":"Pairing Bridge",
     "Step 1 Bridge pairing":"Step 1: Prepare your {{ecosystemType}} for pairing",
     "Bridge pairing message":"Connect your Bridge to power using the provided USB-C cable. \n \nPress the multi-function button once to wake the Bridge up.",
     "Step 2 Bridge pairing":"Step 2: Select Bridge ID",
     "You are connected to wifi":"You are connected to \"{{wifi_ssid}}\"",
     "Your phone is not connected to Wi-Fi":"Your phone is not connected to Wi-Fi",
     "Connected to wifi message":"Please enter your Wi-Fi password. Make sure you use a 2.4Ghz network.",
     "Step 3 Bridge pairing":"Bridge Paired!",
     "Not connected to wifi message":"Please connect your phone to your Wi-Fi to continue pairing.",
     "Incorrect wifi password message":"Incorrect password for \"{{wifi_ssid}}\"",
     "Set-up manually":"Set-up manually",
     "Skip this step":"Skip this step",
     "Skip wifi configuration":"Skip Wi-Fi configuration?",
     "Skip wifi configuration message":"This is an essential step in the Bridge setup process.",
     "Go to settings":"Go to settings",
     "Security":"Security",
     "Private Address":"Private Address",
     "Security types":"Security types",
     "None":"None",
     "WPA Enterprise":"WPA Enterprise",
     "WPA2 Enterprise":"WPA2 Enterprise",
     "WPA3 Enterprise":"WPA3 Enterprise",
     "Enter Bridge name":"Enter {{ecosystemType}} name",
     "Bridge name placeholder":"e.g. Home Bridge",
     "Link bridge to lock message":"Would you like to link your {{ecosystemType}} to a lock now?",
     "Current linked lock":"You currently have \"{{linkedLock}}\" locks linked",
     "Join network":"Join network",
     "Diagnostic":"Diagnostic",
     "wifi connected":"You are connected to \"{{ssid}}\"",
     "configuring wifi":"Configuring WiFi",
     "Step 1 link lock bridge":"Step 1 : Select a lock to link",
     "Step 2 link lock bridge":"Step 2 : Linking your {{ecosystemType}} to {{LockName}}",
     "Bridge successfully linked":"{{ecosystemType}} successfully linked with \"{{lockname}}\"",
     "You now have locks linked":"You now have  {{numberlock}}\/10 locks linked",
     "Diagnostics":"Diagnostics",
     "Check network status":"Check network status",
     "Remove Bridge name":"Remove {{bridgeName}}",
     "What to do when you have lost your Bridge":"What to do when you have lost your {{ecosystemType}}",
     "Remove Bridge from account":"Remove Bridge from account",
     "Allow Bridge to be paired to another account":"Allow Bridge to be paired to another account",
     "Bridge name":"{{ecosystemType}} name",
     "Delete Bridge":"Delete {{ecosystemType}}",
     "Bridge Settings":"{{ecosystemType}} Settings",
     "Delete bridge alert":"Are you sure you want to delete {{acc_name}} access for all your locks?",
     "I lost my bridge":"I lost my {{ecosystemType}}",
     "Unpair bridge from phone":"Unpair Bridge from your phone",
     "Edit Bridge Name":"Edit {{ecosystemType}} Name",
     "Bridge Wi-Fi Configuration":"Bridge Wi-Fi Configuration",
     "Configure Bridge Wi-Fi so you can start using your lock remotely":"Configure Bridge Wi-Fi so you can start using your lock remotely.",
     "Wifi Configuration message":"For some devices, we might ask you to enable location services to identify the SSID of the Wi-Fi that your phone’s connected to.",
     "Start Wi-Fi configuration":"Start Wi-Fi configuration"
  },
  "keypad":{
     "You do not have any paired Keypad.":"You do not have any paired {{ecosystemType}}.",
     "Manage Keypad":"Manage {{ecosystemType}}",
     "Add Keypad":"Add {{ecosystemType}}",
     "pairing step2":"Step 2 : Prepare your {{ecosystemType}} for pairing",
     "pairing step3":"Step 3 : Select Keypad ID",
     "Enter Keypad name":"Enter {{ecosystemType}} name",
     "Keypad paired":"Keypad paired!",
     "Link Keypad":"Link {{ecosystemType}}",
     "Would you like to link your Keypad to a lock now":"Would you like to link your {{ecosystemType}} to a lock now?",
     "Link lock from Keypad":"Link lock from {{ecosystemType}}",
     "step1 link keypad":"Step 1 : Get your {{ecosystemType}} ready",
     "step2 link keypad":"Step 2 : Select a lock to link",
     "step3 link keypad":"Step 3 : Linking your {{ecosystemType}} to {{lockname}}",
     "Linking Keypad":"Linking {{ecosystemType}}",
     "Keypad Linked":"{{ecosystemType}} Linked",
     "Keypad successfully linked with":"{{ecosystemType}} successfully linked with \"{{lockname}}\"",
     "Keypad Settings":"{{ecosystemType}} Settings",
     "Are you sure you want to unlink from":"Are you sure you want to unlink {{lock}} from {{keypadname}}?",
     "Get your Keypad ready":"Get your {{ecosystemType}} ready",
     "Successfully Deleted":"\"{{keypadname}}\" Successfully Deleted",
     "Delete Keypad":"Delete {{ecosystemType}}",
     "Unpair Keypad from phone":"Unpair Keypad from your phone",
     "Edit Keypad Name":"Edit {{ecosystemType}} Name",
     "Keypad name":"{{ecosystemType}} name",
     "Are you sure you want to delete Keypad_name for all your locks":"Are you sure you want to delete {{keypadname}} access for all your locks?",
     "Pair your Keypad":"Pair your {{ecosystemType}}",
     "I lost my keypad":"I lost my {{ecosystemType}}",
     "Lost your Keypad":"Lost your {{ecosystemType}}?",
     "What to do when you have lost your Keypad":"What to do when you have lost your {{ecosystemType}}",
     "When you lost your keypad, you can revoke access to immediately to secure your place.":"When you lost your Keypad, you can revoke access to immediately to secure your place.",
     "Revoke Keypad access":"Revoke {{ecosystemType}} access",
     "lostKeypadRevoke":"You will no longer be able to unlock your linked lock(s) using the revoked {{ecosystemType}}.",
     "Step 1: Revoke Keypad access":"Step 1: Revoke {{ecosystemType}} access",
     "Step 2: Delete Keypad permanently":"Step 2: Delete {{ecosystemType}} permanently",
     "Permanently delete Keypad from your account.":"Permanently delete your {{ecosystemType}} from your account.",
     "Are you sure you want revoke keypad access for Lock_Name?":"Are you sure you want revoke {{ecosystemType}} access for {{Lock_Name}}?",
     "Remove Lock_Name from your Keypad":"Remove {{Lock_Name}} from your Keypad",
     "Lock successfully removed from your Keypad.":"Lock successfully removed from your {{ecosystemType}}.",
     "Delete your Keypad":"Delete your {{ecosystemType}}",
     "Your linked access will be removed automatically after you sync these access":"Your linked access will be removed automatically after you sync these access :",
     "Please wait while we remove all your Keypad data":"Please wait while we remove all your {{ecosystemType}}’s data.",
     "Keypad sucessfully removed":"Keypad sucessfully removed.",
     "Please wait while we removing your lock from keypad":"Please wait while we removing your lock from Keypad.",
     "keypad not found":"Device not found.",
     "keypad aleready paired":"This Keypad has already been paired.",
     "Delete keypad alert":"Please unlink your linked lock(s) before deleting your device.",
     "This lock(s) has been deleted":"This lock has been deleted, please unlink it from the {{ecosystemType}}",
     "Keypad has been blacklisted from the lock.":"Keypad \"{{Keypad_name}}\" has been blacklisted from the lock.",
     "Make sure your Keypad is discoverable":"Make sure your {{ecosystemType}} is discoverable",
     "To start using your Keypad, ensure the blue light is no longer flashing by holding onto the settings button":"To start using your Keypad, ensure the blue light is no longer flashing by holding onto the settings button."
  },
  "accecories":{
     "Link now":"Link now",
     "Link later":"Link later",
     "Select lock":"Select lock",
     "Link more locks":"Link more locks",
     "Linked Lock(s)":"Linked Lock(s)",
     "Linked Locks":"Linked Locks",
     "Unlink Lock":"Unlink Lock?",
     "Unlink":"Unlink",
     "Unlink lock":"Unlink lock",
     "Unlinking":"unlinking \"{{name}}\"",
     "Successfully Unlinked":"\"{{lockname}}\" Successfully Unlinked",
     "Deleting":"Deleting \"{{name}}\"",
     "Linked to multiple locks":"Linked to multiple locks",
     "Linked to lockname":"Linked to \"{{lockname}}\"",
     "Not linked":"Not linked",
     "Open the back cover and hold setting button until blue light flashes":"Open the back cover and hold onto the settings button until the blue light flashes",
     "You have linked number locks":"You have linked ({{number}}\/5) locks",
     "You can link up to 5 locks":"You can link up to 5 locks",
     "Please make sure your lock(s) are nearby to revoke access.":"Please make sure your lock(s) are nearby to revoke access.",
     "Revoke access":"Revoke access",
     "I no longer have this lock":"I no longer have this lock",
     "Please confirm that you no longer have this lock.":"Please confirm that you no longer have this lock.",
     "Remove lock":"Remove lock",
     "Remove Lock_Name":"Remove {{Lock_Name}}",
     "This will permanently remove it from your account":"This will permanently remove it from your account",
     "Delete Permanently":"Delete Permanently",
     "Do you want to unlink lock":"Do you want to unlink lock?",
     "Do you want to unlink your lock":"Do you want to unlink your lock?",
     "Any access granted to linked devices will still persist. Would you like to unlink them now":"Any access granted to linked devices will still persist. Would you like to unlink them now?",
     "Later":"Later",
     "Linked Devices":"Linked Devices",
     "Unlink device":"Unlink device?",
     "lock aleready linked":"This lock already linked to this device."
  },
  "retrofit":{
     "Auto-relock calibration":"Auto-relock calibration",
     "Calibrating auto-relock":"Calibrating auto-relock",
     "Lock position":"Lock position",
     "Calibrate the lock’s magnet sensor to optimize auto-relock performance":"Calibrate the lock’s magnet sensor to optimize auto-relock performance.",
     "Ensure that the door is closed":"Ensure that the door is closed.",
     "Tap next and you should hear a chime":"Tap next and you should hear a chime.",
     "Choose your door lock position":"Choose your door lock position",
     "Calibration in progress":"Calibration in progress...",
     "Calibration complete":"Calibration complete",
     "Start calibration":"Start calibration",
     "Open your door slightly so it’s ajar":"Open your door slightly so it’s ajar.",
     "1 of 2":"1 of 2",
     "2 of 2":"2 of 2",
     "Left":"Left",
     "Right":"Right",
     "Lock rotation":"Lock rotation",
     "Single Lock":"Single Lock",
     "Double Lock":"Double Lock",
     "Auto Unlock":"Auto-Unlock",
     "Location radius":"Location radius",
     "Automatically unlock your lock when you return to your property":"Automatically unlock your lock when you return to your property.",
     "Auto-Unlock is already active for lock_name":"Auto-Unlock is already active for {{lock_name}}. Please disable Auto-Unlock for {{lock_name}} to proceed.",
     "Modify location radius depending on your property scale":"Modify location radius depending on your property scale.",
     "Adjust lock location":"Adjust lock location"
  },
  "Search lock...":"Search lock...",
  "Couldnt find lock":"Couldn't find \"{{lockname}}\"",
  "Try searching again using a different keyword.":"Try searching again using a different keyword.",
  "1.1.403":"このユーザー名\/パスワードではログインできません。再度、挑戦してください。",
  "1.1.409":"ログインできません。メールに送信されたリンクをクリックしてアカウントを確認し、もう一度お試しください。",
  "1.1.410":"あなたのアカウントは凍結されました。",
  "2.1.403":"メールアドレス{{email}}はすでに登録されています。",
  "2.1.409":"メールアドレス{{email}}はすでに登録されています。",
  "3.1.403":"エラーが発生しました。ユーザー情報を変更することができません。もう一度お試しください。",
  "4.1.403":"エラーが発生しました。パスワードを変更することができません。もう一度お試しください。",
  "5.1.403":"Airbnbアカウント切断の際にエラーが発生しました。予約タブでAirbnbアカウントとペアリングされているすべての物件を切断し、もう一度お試しください。",
  "6.3.803":"Bluetoothキーを要求できません。もう一度お試しください。",
  "6.3.804":"Invalid QR code",
  "7.1.400":"新しい物件を追加することはできません。もう一度やり直してください。",
  "8.1.403":"{{listingName}}に接続されているデバイスがあり、削除できません。このデバイスを{{listingName}}から切断してから、{{listingName}}の削除を行ってください。",
  "8.1.409":"{{listingName}}は{{provider}}に接続されており、削除できません。予約画面に移動して、{{listingName}}を切断してから、削除を行ってください。",
  "9.1.404":"あなたの現在地を把握することができません。家とタイムゾーンの設定を自動化するには、位置情報サービスを有効にしてください。また、都市を手動で選択することもできます。",
  "10.1.400":"ロックへのアクセスを生成することができません。もう一度お試しください。",
  "13.2.880":"新しいPINはすでに使用されています。 別のピンを試してください",
  "18.1.404":"このアクセスを削除することができません。もう一度お試しください。",
  "19.1.404":"このアクセスを無効にすることができません。もう一度お試しください。",
  "20.1.404":"igloohomeの物件をAirbnbから切り離すことができません。もう一度お試しください。",
  "21.1.404":"アクセスメールを宿泊者に送信することができません。もう一度お試しください。",
  "22.1.404":"あなたが入手しようとしているBluetoothキーはすでに使用されたか期限切れです。物件の管理者に新しいキーを送ってもらってください。",
  "22.1.409":"Bluetoothキーを受け取る権利がありません。",
  "22.5.1":"Bluetoothキーを要求する前に、アカウントにログインしてください。",
  "22.5.800":"Bluetoothキーを要求する前に、アカウントにログインしてください。",
  "47.5.800":"Please login to your account before requesting for instant access.",
  "47.1.409":"You are not allowed to request instant access for your lock.",
  "23.1.404":"Bluetoothキーの有効期限が切れているか失効しています。ホストに連絡してください。",
  "23.5.703":"Bluetoothキー解除エラー",
  "24.1.403":"最大5つのピンロックに達しました。ロックを解除して再試行してください。",
  "31.1.404":"ロックが見つかりません",
  "delete_card_error":"削除されたキーカードはまだアプリに反映されている可能性があります。再試行してください。",
  "add_card_error":"追加されたカードキーはアプリに表示されない可能性があります。再試行してください。",
  "unlock_error":"ロックに接続できません。キーパッドが起動していることを確認し、再試行してください。Bluetoothが「オン」の場合は、Bluetoothを再起動してください。",
  "update mastercode error":"ロックに接続できません。キーパッドが起動していることを確認し、再試行してください。Bluetoothが「オン」の場合は、Bluetoothを再起動してください。",
  "delete lock error":"ロックを解除できません。ロックのBluetooth範囲内にいることを確認して、再試行してください。",
  "sync lock error":"ロックを同期できません。ロックのBluetooth範囲内にいることを確認して、再試行してください。",
  "sync lock bt in progress error":"ロックを同期できません。再試行してください。",
  "location_permission error":"Please ensure that the Bluetooth and location are turned on, Bluetooth privacy is enabled, then try again.",
  "use pin before":"進む前に、再度PINコードを使用してください。",
  "update your application":"あなたのアプリケーションを更新してください。",
  "edit pincode error":"ロックに接続できません。キーパッドが起動していることを確認し、再試行してください。Bluetoothが「オン」の場合は、Bluetoothを再起動してください。",
  "download":"ダウンロード",
  "network_error":"ネットワーク設定を確認し、再試行してください。",
  "0.1.12":"Network Error",
  "invalid email":"有効なEメールを入力してください",
  "invalid password":"有効なパスワードを入力してください",
  "pin creation limit reached error":"PIN generation limit reached for this hour. Please wait till the next hour to generate more remotely. Alternatively, you may create PIN codes via Bluetooth.",
  "key card creation limit reached error":"Keycard creation limit reached. No further keycards can be added.",
  "legacy pin creation limit reached error":"PIN creation limit reached. Please delete all PINs to create more.",
  "Instant Access Request invalid. Lock is not paired to any account.":"Instant Access Request invalid. Lock is not paired to any account.",
  "0.0.0":"Error",
  "Note":"Note",
  "Full":"Full",
  "Okay":"Moderate",
  "Low":"Low",
  "Change your battery soon":"Change your battery soon",
  "You haven't add any listing yet.":"You haven't add any listing yet.",
  "You can send a test access message to your email.":"You can send a test access message to your email",
  "The actual access message will be sent to your guest via Airbnb platform before check-in time.":"The actual access message will be sent to your guest via Airbnb platform before check-in time.",
  "To customize the access message, please contact our support.":"To customize the access message, please contact our support.",
  "Add Listing":"Add Listing",
  "Test Access Message":"Test Access Message",
  "Send Access Message Now":"Send Access Message Now",
  "Send Access Message":"Send Access Message",
  "PIN Message Sent With Time":"message sent {{time_ago}}",
  "PIN Message Send Time Future":"message will be sent {{time_future}}",
  "Update PIN Send Time Message2":"Access message for {{guestName}} (containing access methods such as PIN codes and\/or bluetooth keys) will be sent {{sendAccessEmail}} hour(s) before check in time.",
  "Reservation Platform":"Reservation Platform",
  "Property Name":"Property Name",
  "Attention":"Attention",
  "You are making changes to the default listing settings.":"You are making changes to the default listing settings.",
  "Please note that this will not take effect on modified reservations.":"Please note that this will not take effect on modified reservations.",
  "Proceed":"Proceed",
  "The modifications will only affect this reservation. Default settings are unchanged.":"The modifications will only affect this reservation. Default settings are unchanged.",
  "Default Listing Settings":"Default Listing Settings",
  "Reservation Share Msg2":"Hi {{guestName}}, \n\nHere is your igloohome self check-in details at {{listingName}} from {{startDate}} to {{endDate}}.\n\n{{access_pin_list}}\n\n Your PIN is valid only from check-in to check-out time. Please use within 24 hours from your check-in time to activate the PIN.\n\nIf you experience any issues, please contact your host.\n\nEnjoy your stay!\nThe igloohome Team",
  "Reservation Share Msg Access detail":"{{lockName}}:\n{{pinCode}} \n",
  "All Airbnb listing has already been connected.":"All Airbnb listing has already been connected.",
  "PIN Message Send Time Now":"Sending access message now",
  "Are you sure you want to disconnect your Airbnb account? Please make sure all Airbnb listing(s) has already been disconnected.":"Are you sure you want to disconnect your Airbnb account? Please make sure all Airbnb listing(s) has already been disconnected.",
  "Access Message is being sent. Please check back for more details.":"Access Message is being sent. Please check back for more details.",
  "Message Sent":"Message Sent",
  "Template_content_required_error_message":"Please ensure you include these in your message:\n- Access detail\n- Start date\n- End date",
  "Discard_changes?":"Discard changes?",
  "Discard_template_changes_content":"Are you sure you want to discard your changes?\n\nAll changes will not be saved.",
  "Discard_button":"Discard",
  "Automated_Message_for_your_Self_Check-In":"Automated Message for your Self Check-In",
  "Note_Reservation_template":"*Note: This is a preview of your access message. The actual access message will be sent to your guest via Airbnb platform before check-in time.",
  "0.5.703":"Timeout Error",
  "0.2.6":"Unlocking too many times at once Error",
  "0.2.7":"Time Offsync error",
  "0.2.11":"Connect bt failed error",
  "0.2.12":"Unable to connect to lock coz its already connected error",
  "0.2.21":"Enable pin generation failed error",
  "0.2.41":"Retrieve Ekey Error",
  "0.2.61":"Unlock error",
  "0.2.63":"Phone disconnected while unlock error",
  "0.2.64":"Unlock AES key error",
  "0.2.71":"Set Keypad password error",
  "0.2.72":"Keypad Password Digits error",
  "0.2.100":"Network Error",
  "0.2.101":"Bind admin error",
  "0.2.121":"Add admin error",
  "0.2.122":"Add admin settings mode error",
  "0.2.131":"Upload Pincodes error",
  "0.2.141":"Get logs error",
  "0.2.151":"Reset lock error",
  "0.2.161":"NTP check error",
  "0.2.171":"Sync time error",
  "unable to connect":"Unable to connect to the device. Please try again.",
  "51.5.1003":"Please ensure that the lock is unlocked before you proceed.",
  "51.1.100":"Please check your network settings and try again.",
  "51.5.1301":"Unable to connect to the Lock. Please try again.",
  "51.5.703":"Unable to connect to the Lock. Please try again.",
  "51.5.1023":"This lock is not support firmware update.",
  "51.2.708":"Please ensure that the Bluetooth and location are turned on, Bluetooth privacy is enabled, then try again.",
  "51.5.1":"Please ensure that the Bluetooth and location are turned on, Bluetooth privacy is enabled, then try again.",
  "51.5.1303":"Please ensure that the Bluetooth and location are turned on, Bluetooth privacy is enabled, then try again.",
  "51.5.100":"Unable to connect to the Lock. Please try again.",
  "51.5.1002":"Please check your network settings and try again.",
  "51.5.1011":"DFU download error",
  "51.5.1012":"DFU download error",
  "51.5.1013":"DFU download error",
  "51.5.1014":"DFU download error",
  "51.5.1015":"DFU download error",
  "51.5.1016":"DFU download error",
  "51.5.1100":"DFU Error",
  "51.5.1021":"DFU package error",
  "51.5.1022":"DFU package initialitation error",
  "51.5.1024":"Please update your igloohome app to latest version",
  "51.5.1025":"Server bluetooth version error",
  "51.5.1026":"DFU configuration initiation error",
  "51.2.1002":"Unable to connect to the Lock. Please try again.",
  "51.2.1233":"Unable to connect to the Lock. Please try again.",
  "51.2.5206":"Please ensure that the Bluetooth and location are turned on, Bluetooth privacy is enabled, then try again.",
  "51.5.5206":"Please ensure that the Bluetooth and location are turned on, Bluetooth privacy is enabled, then try again.",
  "51.2.5196":"Unable to connect to the Lock. Please try again.",
  "51.4.1":"Please check your network settings and try again.",
  "51.2.12":"Unable to connect to the lock. Please try again.",
  "52.5.1":"Generic Error",
  "53.2.980":"Unable to delete access. Fingerprint UID could not be found. Please sync the lock and try again.",
  "52.2.960":"Fingerprint creation limit reached. Please remove another fingerprint access and try again",
  "52.2.970":"Reading error",
  "52.2.971":"Fingerprint scanning timeout. Please try again.",
  "52.2.972":"You have exceeded the number of attempts. Please make sure the scanner is clean and dry, then try again.",
  "51.1.801":"Please check your network settings and try again.",
  "38.2.860":"Please ensure that the Bluetooth and location are turned on, Bluetooth privacy is enabled, then try again.",
  "33.2.860":"Please ensure that the Bluetooth and location are turned on, Bluetooth privacy is enabled, then try again.",
  "54.2.708":"Please ensure that the Bluetooth and location are turned on, Bluetooth privacy is enabled, then try again.",
  "33.2.708":"Please ensure that the Bluetooth and location are turned on, Bluetooth privacy is enabled, then try again.",
  "airbnbError":"Cannot connect to airbnb",
  "Keycard missing uid":"Unable to delete access. Keycard UID could not be found. Please sync the lock and try again."
}