{
  "actions":{
     "Login":"로그인",
     "Register":"등록",
     "Email":"이메일",
     "Your email":"your@email.com",
     "Reset Password":"비밀번호 재설정",
     "password":"비밀번호",
     "Forgot Password":"비밀번호 찾기",
     "Submit":"제출",
     "First Name":"이름",
     "Last Name":"성",
     "Mobile":"휴대폰",
     "Password requirement":"비밀번호 - 최소 8자리 문자",
     "Password match":"비밀번호는 반드시 일치해야합니다",
     "Passwords not matching":"현재 암호와 새 암호가 다릅니다",
     "Confirm Password":"비밀번호 확인",
     "Change Details":"세부 정보 변경",
     "Change Password":"비밀번호 변경",
     "Change batteries":"배터리 교체",
     "Current Password":"현재 비밀번호",
     "New Password":"새 비밀번호",
     "Edit Account Details":"계정 세부 정보 수정",
     "Filter":"필터",
     "Check Validity":"유효성 확인하기",
     "New Key":"새로운 키",
     "Update Logs":"접근 일지 업데이트",
     "Change language":"언어 변경",
     "Select Listing":"리스팅 선택하기",
     "Select City":"도시 설정",
     "Select One":"하나를 선택하세요",
     "Test Welcome Email":"환영 테스트 이메일 보내기",
     "Test Access Email":"엑세스 테스트 이메일 보내기",
     "Contact Support":"지원센터 연결",
     "Add":"추가",
     "Delete":"삭제",
     "Delete Lock":"도어락 삭제",
     "Delete Home":"속성 삭제",
     "Create PIN":"핀 코드 생성하기",
     "Create Bluetooth Key":"블루투스 키 만들기",
     "Edit PIN":"핀 코드 바꾸기",
     "Edit Key Card":"키 카드 수정",
     "Confirm":"확인",
     "Edit Master PIN":"마스터 핀 바꾸기",
     "Disconnect Airbnb":"Airbnb와 연결 해제",
     "Connect Airbnb":"Airbnb와 연결하기",
     "Connect Airbnb Message":"공동 호스트의 계정이 아닌 Airbnb 기본 호스트의 계정에 igloohome을 연결하십시오.",
     "Back":"뒤로가기",
     "Ok":"확인",
     "Cancel":"취소",
     "Cancel Sync":"동기화 취소",
     "Retry":"다시 시도",
     "Done":"완료",
     "Load More":"더 불러오기",
     "OR":"혹은",
     "Send Key":"키 전송",
     "Close":"닫기",
     "Set Up Now":"지금 설정하기",
     "Set Up Later":"나중에",
     "FingerPrint Message":"지문을 이용한 빠른 로그인. '계좌 관리'에서 설정 할 수 있습니다.",
     "Touch Id Message":"터치 ID를 이용한 빠른 로그인. '계좌 관리'에서 설정 할 수 있습니다.",
     "Face Id Message":"얼굴 ID로 빠른 로그인. 또는, 나중에 '계정 설정'에서",
     "Press back again to exit App.":"앱을 종료하려면 다시 누르십시오.",
     "Accept":"승인",
     "Reject":"거부",
     "Yes":"Yes",
     "No":"No"
  },
  "pairing":{
     "Pairing":"페어링",
     "Start pairing":"도어락을 페이링 합니다",
     "Step 1":"손바닥을 이용해서 키패드를 깨워주세요.",
     "Step 1 padlock":"잠금 장치를 활성화시키시려면 아무 숫자나 누르세요.",
     "Step 1 euroRetrofit":"Please keep the lock unlocked and hold the multi-function button until the lock is flashing blue.",
     "Step 1 keybox":"자물쇠를 열어 놓고 키패드 위에 손바닥을 두어 자물쇠를 활성화하십시오",
     "Keybox warning":"페어링이 완료 될 때까지 키박스를 닫지 말아주세요.",
     "Scan":"연결하고자하는 블루투스 도어락을 선택해주세요.",
     "Next":"다음",
     "Try Again":"다시 시도해 주세요",
     "Pairing in progress":"페어링 진행 중...",
     "Please wait":"Please wait...",
     "Almost done":"Almost done...",
     "Step 1: Select Property":"단계 1: 건물을 선택합니다",
     "Step 2: Select Lock Model":"단계 2: 락 모델을 선택합니다",
     "Step 3: Pair your device":"단계 3: 기기를 페어링합니다",
     "Step 3: Select Product ID":"단계 3: 제품 ID를 선택합니다",
     "PAIRING_STEP_1":"도어락의 후면패널을 제거해주세요",
     "PAIRING_STEP_2":"손바닥을 이용해서 키패드를 깨워주세요",
     "PAIRING_STEP_2_KEYBOX":"자물쇠를 열어 놓고 키패드 위에 손바닥을 두어 자물쇠를 활성화하십시오",
     "PAIRING_STEP_3":"배터리를 제거한 후 다시 넣어주세요",
     "PAIRING_STEP_4_L":"열림 키를 2초동안 눌러주세요",
     "PAIRING_STEP_4_B":"우물정자를 2초동안 눌러주세요",
     "PAIRING_STEP_5_L":"처음 삐소리 4번과 후에 2번을 확인해주세요",
     "PAIRING_STEP_5_B":"삐소리 2번을 확인해주세요",
     "I hear the beeps":"삐소리가 들립니다",
     "PAIRING_LOCKBOX_STEP_1":"시계방향으로 배터리 커버를 돌려서 열어주세요.",
     "PAIRING_LOCKBOX_STEP_2":"3번째오 4번째 배터리 공간 가운데 위치한 리셋 버튼을 날카로운 물건을 사용해서 2초동안 눌러주세요.",
     "PAIRING_LOCKBOX_STEP_3":"마친 후에 다음 버튼을 눌러주세요.",
     "PAIRING_BOLT2_NON_FACTORY_STEP_1":"도어락의 앞쪽 어셈블리의 후면 패널 우측 상단에 위치한 리셋버튼을 찾아주세요.",
     "PAIRING_BOLT2_NON_FACTORY_STEP_2":"날카로운 물건을 사용해서 리셋버튼을 20초간 눌러주세요.",
     "PAIRING_BOLT2_NON_FACTORY_STEP_3":"더 도움이 필요하시면, 지원 페이지에 있는 이글루홈 도움센터를 방문해주세요.",
     "PAIRING_MORTISE_NON_FACTORY_STEP_1":"배터리 칸의 우측 하단에 위치한 리셋버튼을 찾아주세요.",
     "PAIRING_MORTISE_NON_FACTORY_STEP_2":"삐소리가 날때까지 키패드에 있는 우물정자와 리셋버튼을 눌러주세요.",
     "PAIRING_KEYBOX_2_STEP_1":"키박스(Keybox) 2를 열고 배터리 덮개의 나사를 푸세요.",
     "PAIRING_KEYBOX_2_STEP_2":"뾰족한 물건을 이용하여 두 번째 배터리와 세 번째 배터리 사이에 있는 리셋 버튼을 누르세요. 2초간 길게 누르세요.",
     "PAIRING_PADLOCK_RESET_STEP_1":"배터리 덮개를 제거한 후 뒷면의 구멍에 있는 리셋 버튼을 찾으세요.",
     "PAIRING_PADLOCK_RESET_STEP_2":"얇은 물건을 이용하여 리셋 버튼을 3초간 길게 누르면 확인음을 들으실 수 있습니다.",
     "PAIRING_BOLT2S_IGB4_RESET_STEP_1":"섬턴 아래에 있는 [취소(CLEAR)] 버튼과 후면 바디 버튼을 3초간 길게 누르면 확인음을 들으실 수 있습니다.",
     "PAIRING_MORTISE_IGM2_RESET_STEP_1":"배터리 덮개를 제거한 후 [취소(CLEAR)] 버튼과 [R] 버튼을 3초간 길게 누르면 확인음을 들으실 수 있습니다.",
     "errors":{
        "There are no bluetooth devices detected in your network.":"블루투스 기기를 찾을 수 없습니다.",
        "Try to turn bluetooth off and then on again.":"블루투스를 껐다가 다시 켜주세요.",
        "We are unable to connect to the device selected.":"선택한 기기에 연결 할 수 없습니다.",
        "The lock that you are trying to add has already been claimed by another user.":"추가하고자 하는 도어락이 이미 다른 이용자에 의해서 설정되었습니다.",
        "Please get the previous owner to delete the lock. The delete lock option can be found under the 'Set Up Home' menu.":"이전 주인에게 도어락을 삭제하라고 해주세요. 도어락 삭제는 '홈 설정' 매뉴에서 찾을 수 있습니다.",
        "If you believe this to be in error, please contact Igloohome at support@igloohome.co":"에러라고 생각이 되시면 지원 페이지에 있는 이글루홈 도움센터를 방문해주세요.",
        "NOT_IGLOOHOME":"이 기기는 이글루홈 기기가 아니여서 이글루홈 앱과 연동을 할 수 없습니다.",
        "Please try again.":"다시 시도해주세요",
        "Lock deactivated during pairing":"도어락이 페어링 도중에 비활성화 되었습니다",
        "Place palm over keypad to reactivate it":"키패드에 손바닥을 올려 키패드를 다시 활성화 시켜주세요",
        "NETWORK_ERROR_MSG":"다른 오류가 발생하였습니다. 네트워크 셋팅을 확인해 주시고 다시 시도해주세요.",
        "ENSURE_LOCK_ON":"도어락에 불이 들어왔는 지 확인하시고 다시 시도해주세요.",
        "OWN_LOCK_ALREADY_PAIRED":"이 도어락은 이미 계좌에 페어링이 완료 되었습니다.",
        "UNABLE_TO_COMPLETE_PAIRING_ERROR":"페어링 중에 오류가 발생하였습니다.",
        "The lock that you are trying to add has already been blocked.":"잠금이미 차단되었습니다."
     }
  },
  "tabs":{
     "Active":"사용 중",
     "Valid Keys":"사용가능한 키",
     "Valid Keys New":"사용가능한 모든 키",
     "Inactive":"사용 완료",
     "Invalid Keys":"만료되고 사용이 완료된 키",
     "Invalid Keys New":"만료되고 사용이 완료된 모든 키",
     "Pending":"처리 중",
     "Pending Keys":"모든 요청되지 않은 기간제 핀 코드와 처리 중인 블루투스 키 그리고 업데이트가 진행되지 않은 핀 코드들. '유효성 확인하기' 버튼을 눌러서 핀코드이 상태을 업데이트 해주세요.",
     "Pending Keys New":"미래 및 요청되지 않은 모든 키"
  },
  "settings":{
     "My Account":"나의 계좌",
     "My Preferences":"설정",
     "Notification Settings":"안내 설정",
     "Bluetooth Key Claimed":"블루투스 키 요청",
     "Bluetooth Key Used":"사용 된 블루투스 키",
     "Vibration Feedback":"피드 알림",
     "Fingerprint Login":"F지문 로그인",
     "Face Id Login":"페이스 ID 로그인",
     "Touch Id Login":"터치 ID 로그인",
     "Language":"언어",
     "Connect External Providers":"공급자 연결하기",
     "Reservation Welcome Email":"공급자 환영 이메일",
     "Reservation Access Email":"공급자 접근 이메일",
     "Airbnb Connect Email Notifications":"Airbnb Connect Email Notifications",
     "hi":"안녕하세요,",
     "My Details":"나의 상세정보",
     "Name, Contact":"이름, 연락처",
     "Battery Sync Reminder":"배터리 동기화 리마인더",
     "Every X month":"매 X달 마다"
  },
  "checkbox":{
     "Unlock":"열림",
     "Pairing":"페어링",
     "Reset":"재설정",
     "Description: A - Z":"배열: 가 - 하",
     "Description: Z - A":"배열: 하 - 가",
     "Created: Earliest First":"발급 순서: 먼저 발급된 순서",
     "Created: Latest First":"발급 순서: 나중에 발급된 순서",
     "Bluetooth Key":"블루투스 키",
     "Key Card":"키 카드"
  },
  "menu":{
     "Home":"홈",
     "Reservations":"예약",
     "Visits":"방문",
     "Configuration":"환경 설정",
     "Account Settings":"계좌 관리",
     "Support":"지원",
     "FAQ":"FAQ",
     "Logout":"로그아웃"
  },
  "reserveDetail":{
     "Check In Time":"체크인 시간",
     "Check Out Time":"체크아웃 시간",
     "Send Access Email":"엑세스 이메일 보내기"
  },
  "firmware":{
     "The update can take up to 10 minutes.":"The update can take up to 10 minutes.",
     "Please keep your internet connected with the app open and place your phone near your lock":"Please keep your internet connected with the app open and place your phone near your lock",
     "Please keep your internet connected with the app open and place your phone near your fob":"Please keep your internet connected with the app open and place your phone near your {{ecosystemType}}",
     "Please keep your internet connected with the app open and place your phone near your bridge":"Please keep your internet connected with the app open and place your phone near your {{ecosystemType}}",
     "Do not remove the batteries.":"Do not remove the batteries.",
     "Do not close your app.":"Do not close your app.",
     "If there is an error during update, please remove the batteries and put them back into the fob":"If there is an error during update, please remove the batteries and put them back into the {{ecosystemType}}.",
     "Unlock your lock and keep it open":"Unlock your lock and keep it open",
     "Please place your phone near your lock":"Please place your phone near your lock.",
     "Please place your phone near your fob":"Please place your phone near your {{ecosystemType}}.",
     "Please place your phone near your bridge":"Please place your phone near your {{ecosystemType}}.",
     "Updating Firmware":"Updating Firmware",
     "Firmware is up to date!":"Firmware is up to date!",
     "Current Firmware Version":"Current Firmware Version",
     "Update available!":"Update available!",
     "Firmware downloaded!":"Firmware downloaded!",
     "New Firmware Version":"New Firmware Version",
     "New Firmware available. Update Now.":"New Firmware available. Update Now.",
     "Please ensure that the lock is unlocked before you proceed.":"Please ensure that the lock is unlocked before you proceed.",
     "Step 1: Download Firmware":"Step 1: Download Firmware",
     "Step 2: Prepare your lock":"Step 2: Prepare your lock",
     "Step 3: Updating Firmware":"Step 3: Updating Firmware",
     "Step 2: Updating Firmware":"Step 2: Updating Firmware",
     "Step 1: Firmware Downloaded":"Step 1: Firmware Downloaded",
     "Step 3: Firmware Updated":"Step 3 : Firmware Updated",
     "IMPORTANT":"IMPORTANT",
     "update now":"Update Now",
     "Firmware update is not available yet":"Firmware update is not available yet.",
     "Do check again later":"Do check again later.",
     "firmware update":"firmware update",
     "Make sure the blue light on your Fob is flashing":"Make sure the blue light on your Key Fob is flashing.",
     "Please hold onto the settings button":"Please hold onto the settings button if the blue light on your Key Fob stops flashing."
  },
  "access":{
     "Access":"접속",
     "Access Summary":"접속 요약",
     "keycard issued":"키 카드 발급됨",
     "ekey issued":"블루투스 키(들) 발급됨",
     "exclude unclaimed ekey":"요청하지 않은 키 제외",
     "pincode created":"핀코드 생성됨",
     "exclude deleted pincode":"삭제된 핀코드 제외",
     "End time should be after start time":"종료 시간은 시작 시간 이후여야 합니다",
     "Start should be before end":"시작일은 종료일보다 이전이어야 합니다.",
     "The end date should not exceed one year from the start date":"마감 날짜는 시작 날짜로부터 일년을 초과 할 수 없습니다.",
     "End date time should be current":"종료일시는 현재이어야 합니다.",
     "Start date time should be current":"시작일시는 현재이어야 합니다",
     "Start date time should be before end date time":"시작일시는 종료일시보다 이전이어야 합니다",
     "End day must be within same week":"종료 일자는 같은 주 내에 있어야 합니다",
     "End date\/time must be after start date\/time":"종료 일자\/시간은 시작 일자\/시간 이후여야 합니다",
     "The PIN code should be between 4 and 7 digits":"비밀번호는 4자에서 7자 이내여야 합니다",
     "The PIN code should be between 7 and 9 digits":"핀 코드는 7자리부터 9자리까지의 숫자이어야 합니다.",
     "The PIN codes do not match":"핀 코드가 일치하지 않습니다.",
     "Please fill in both PIN codes":"두 개의 핀 코드 모두를 채워주십시오.",
     "Who is this key card for":"누구에게 발급하는 것인가요",
     "Card ID":"카드 ID",
     "Card added":"카드가 추가되었습니다",
     "Ekey Details":"블루투스 키 세부 정보",
     "Pending start time":"보류중 시작시간",
     "View all durations":"모든 기간 보기",
     "All durations":"모든 기간",
     "Duration":"Duration",
     "received pin code for certain duration":"핀 코드를 받았습니다 {{code}}.  {{duration}} 기간동안 유효합니다.",
     "received permanent or otp":"{{pinType}} 코드 {{code}}를 받았습니다.",
     "Enter a new name for this PIN":"이 핀에 대해 새로운 이름을 입력하세요:",
     "LIMITED_ACCESS_VIEW":"인터넷 상태가 좋지 않아서 엑세스 목록을 가져오지 못했습니다. 인터넷이 가능하다면 페이지를 다시 시작해주세요.",
     "Select an access type":"엑세스 형태를 선택하세요",
     "Works forever":"영원히 동작",
     "Works for a period":"기간만 동작",
     "Repeats forever":"무한 반복",
     "Repeat Every":"Repeat Every",
     "Works only once":"한 번만 동작",
     "Unlocks with phone":"전화로 열기",
     "Unlocks with keycard":"키카드로 열기",
     "Action Required":"필요 절차",
     "Please update activity log before registering key card.":"키 카드를 등록하기 전에 사용 기록 업데이트 해주세요.",
     "no access":"이 도어락에 대한 {{statusAccess}} 엑세스 없음.",
     "Sync to update status":"상태 갱신을 위해 동기화",
     "Revoke":"해지",
     "Clear":"지우기",
     "Revoke bluetooth key":"블루투스 키를 지우시겠습니까?",
     "Delete Bluetooth Key Access":"블루투스 키 엑세스 삭제",
     "Clear Pin Access":"",
     "Delete Pin Access":"핀 엑세스 삭제",
     "Delete Keycard Access":"Delete Keycard Access",
     "Delete Access Message":"{{name}}을 (를) 삭제 하시겠습니까 {{accessType}}?",
     "Clear Access Message":"{{name}}을 지우시겠습니까 {{accessType}}?",
     "Revoke Access Message":"{{name}}을 취소 하시겠습니까 {{accessType}}?",
     "PIN not synced":"핀 동기화되지 않음",
     "Please Sync Status to update":"핀이 동기화되지 않았습니다. 상태 갱신을 위해 동기화해주십시오.",
     "Share Bluetooth Key":"블루투스 키 공유하기",
     "Share Key":"키 공유",
     "Scan key":"수령인의 QR스캐너를 사용하여 키 받기",
     "pincodes":"핀코드",
     "out of 285 PINs created":"285개 중 {{number}}개 핀 코드 사용",
     "Bluetooth keys and PIN codes issued":"블루투스 키와 핀 코드가 발급되었습니다",
     "Delete key card":"키 카드 삭제",
     "Share ekey message":"나는 당신에게 이글루 홈 블루투스 키를 보냈습니다. 블루투스 키를 클릭하면 다음 URL로 이동합니다. ",
     "permanent pin generated":"영구 PIN 생성됨",
     "duration pin generated":"기간 생성 됨",
     "otp pin generated":"1 회성 PIN 생성됨",
     "duration ekey generated":"블루투스 키 생성됨",
     "weekly pin generated":"주간 비밀번호가 생성되었습니다",
     "weekend pin generated":"주말 비밀번호가 생성되었습니다",
     "weekday pin generated":"주중 비밀번호가 생성되었습니다",
     "monthly pin generated":"월간 비밀번호가 생성되었습니다",
     "permanent nfc generated message":"Key card(s) added",
     "permanent pin generated message":"24 시간 이내에 PIN을 사용하십시오 그것을 활성화하십시오. ",
     "weekly pin generated message":"시작에서 24 시간 이내에 PIN을 사용하십시오 활성화 할 시간.",
     "weekday pin generated message":"시작에서 24 시간 이내에 PIN을 사용하십시오 활성화 할 시간.",
     "weekend pin generated message":"시작에서 24 시간 이내에 PIN을 사용하십시오 활성화 할 시간.",
     "monthly pin generated message":"시작에서 24 시간 이내에 PIN을 사용하십시오 활성화 할 시간.",
     "duration pin generated message":"시작에서 24 시간 이내에 PIN을 사용하십시오 활성화 할 시간.",
     "otp pin generated message":"PIN을 사용하기 전에 {{number}} 시간 이내에 PIN을 사용하십시오 만료됩니다.",
     "duration ekey generated message":"블루투스 키가 {{number}} 시간 내에 청구 됨.",
     "Don't remind me again":"다시 생각 나지 마라.",
     "Every Week":"매주",
     "Every Month":"매달",
     "Every Monday to Friday":"매주 월요일부터 금요일까지",
     "Every Saturday and Sunday":"매주 토요일, 일요일",
     "Default":"기본",
     "Custom":"맞춤",
     "Generate PIN remotely":"원격으로 비밀번호 생성하기",
     "Customize PIN via Bluetooth":"블루투스를 통해 비밀번호 맞춤 생성하기",
     "Set your own PIN via bluetooth":"블루투스를 통해 여러분의 비밀번호를 설정하세요",
     "Protips":"Protips",
     "All key cards look the same":"All key cards look the same so don't forget to label them!",
     "Step 1: Get your key card(s) ready":"Step 1: Get your key card(s) ready",
     "Step 2: Tap key card(s) on lock":"Step 2: Tap key card(s) on lock",
     "Step 3: Hold on to unlock until close sign appears":"Step 3: Hold on to 🔓 until 'CLOSE' sign appears.",
     "Step 4: Press and hold the lock icon until you hear a beep":"Step 4: Press and hold the 'lock' icon until you hear a beep",
     "key card(s) added":"Key card(s) added:",
     "You can add multiple cards at once":"You can add multiple cards at once.",
     "Start":"Start",
     "Ready":"I'm Ready",
     "Enter name":"Enter name",
     "Name X cards":"Name {{number}} card(s)",
     "SMS Pin Code":"Your {{pintype}} code is {{pincode}}.",
     "SMS Pin Validity":"Valid \nFROM {{from}} \nTO {{to}}.",
     "SMS Pin Validity Effective":"Valid \nEFFECTIVE FROM {{effective}} \nEVERY {{every}} \nFROM {{from}} \nTO {{to}}.",
     "SMS Pin Activate":"To Activate, please use once by: {{date}}",
     "SMS Pin Use":"Please use by: {{date}}"
  },
  "lock":{
     "Locks":"잠금",
     "Pair a new lock":"새로운 도어락 페어링",
     "Other igloohome locks":"기타 이글루홈 도어락",
     "Lock paired":"페어링 완료!",
     "Edit lock name":"도어락 이름 편집",
     "Enter lock name":"도어락 이름 입력",
     "Add Key Card":"키 카드 추가하기",
     "Ensure that your bluetooth is turned on":"블루투스가 켜져 있는지 확인해주십시오",
     "On the lock keypad, enter":"도어락 키패드에, 입력",
     "Tap your key card (s) on the key card reader":"키 카드 리더기에 설정하고 싶은 키 카드를 탭해주세요.",
     "Enter # on the keypad":"키보드에서 # 을 입력하십시오",
     "Press [Sync] below to update":"갱신하려면 아래의 [동기화]를 누르세요",
     "Sync":"동기화",
     "Unable to Sync":"동기화 할 수 없습니다",
     "Create permanent PIN":"영구적인 핀 생성",
     "Create duration PIN":"특정기간 핀 생성",
     "Create one time PIN":"일회용 핀 생성",
     "Create Bluetooth key":"블루투스 키 생성",
     "Create recurring PIN":"반복 비밀번호를 생성하세요",
     "Type of recurring PIN":"반복 비밀번호 유형",
     "other(s)":"기타",
     "Are you sure you want to delete":"{{name}} 을(를) 삭제하시겠습니까?",
     "Enter a new name for this lock":"이 도어락에 대한 새로운 이름을 입력하세요",
     "Status":"상황",
     "Go near lock":"자물쇠 근처에 전화기를 두십시오.",
     "Last updated":"최신 업데이트",
     "Lock updated":"도어락 업데이트가 완료되었습니다.",
     "Last synced":"최근 동기화",
     "Unable to check":"도어락 업데이트에 실패하였습니다. 다시 시도해 주세요.",
     "Battery Status Unavailable":"배터리 잔량 체크가 불가능합니다",
     "Lock Name":"도어락 이름",
     "Associated Property(s)":"관련된 건물",
     "Unpair lock from phone":"폰으로부터 도어락 페어링 끊기",
     "Delete All PINs":"모든 핀 삭제",
     "Delete all PINs except for Master PIN":"마스터 핀을 제외한 모든 핀 삭제",
     "RESET_LOCK_CONFIRM_TITLE":"모든 핀 코드를 제거 할까요?",
     "RESET_LOCK_CONFIRM_MSG":"반드시 도어락의 블루투스 범위 내에서 이루어져야 합니다. 생성된 모든 핀 코드들은 제거 됩니다. 마스터 핀 코드는 제거 되지 않습니다.",
     "LOCK_RESET_SUCCESS_MSG":"새로운 핀 코드를 설정 할 수 있게 재설정 되었습니다. 이전에 발급했던 핀 코드들은 더 이상 유효하지 않습니다.",
     "General":"일반",
     "Bluetooth Settings":"블루투스 설정",
     "Quick Unlock":"빠른 열기",
     "Auto Relock":"자동 재잠금",
     "Sensor Relock Timer":"자동 재잠금 타이머",
     "Custom Relock Timer":"맞춤 재잠금 타이머",
     "Security lockout":"보안 문잠금",
     "Volume":"소리크기",
     "Set Volume":"볼륨 설정",
     "Battery Sync Reminder":"배터리 동기화 리마인더",
     "Sync to delete":"삭제하기 위해 동기화",
     "Delete Lock Message":"Place your phone near the lock to complete the deletion process.",
     "CONFIRM_DELETE_TEMPLATE":"정말 도어락을 지우시겠습니까? 이전에 발급한 핀 코드는 아직 도어락에 남아 있을 수 있습니다.",
     "Delete Lock Fail Message":"{{lockName}}이(가) {{providerName}} 리스팅에 연결되어 있어 제거할 수 없습니다. {{lockName}}을(를) 삭제하기 전에 {{providerName}} 리스팅 연결을 해제하시기 바랍니다.",
     "Never relock":"재잠금 하지 않기",
     "Always relock":"항상 재잠금하기",
     "seconds":"초",
     "second(s)":"초",
     "second":"초",
     "Set number of seconds":"시간(초)을 설정하세요",
     "Enter number of seconds":"시간(초)을 입력하세요",
     "Apply":"적용",
     "sec":"초",
     "Sensor relock can be customised from 1 to 180 seconds.":"자동 재잠금은 1초에서 180초 이내로 맞춤 설정할 수 있습니다.",
     "Not enabled":"사용할 수 없습니다",
     "Level":"레벨",
     "Attempt":"시도",
     "Attempts":"시도",
     "attempt(s)":"시도",
     "Deactivate lockout":"잠금 비활성화하기",
     "On":"설정",
     "Off":"해제",
     "No Reminder":"No Reminder",
     "Relock Reminder Alert":"Relock Reminder Alert",
     "Firmware Version":"Firmware Version",
     "Calibrate Lock":"Calibrate Lock",
     "Lock Rotation":"Lock Rotation",
     "Step 1: Manually calibrate lock rotation":"Step 1: Manually calibrate lock rotation",
     "Step 2: Keep your door closed":"Step 2: Keep your door closed",
     "We will attempt the lock rotation you selected to see if it works for your door":"We will attempt the lock rotation you selected to see if it works for your door",
     "Step 3: Lock calibrated":"Step 3: Lock calibrated",
     "Calibration in progress...":"Calibration in progress...",
     "Prepare your lock":"Prepare your lock",
     "Calibrating":"Calibrating",
     "Calibration":"Calibration",
     "This lock rotation doesn’t work for your door.":"This lock rotation doesn’t work for your door."
  },
  "configuration":{
     "List Of Homes":"재산 목록",
     "Which property(s) would you like to pair the lock with?":"어떤 건물과 도어락을 페어링하시겠습니까?",
     "You do not have any properties yet.":"아직 건물이 없습니다.",
     "Add property":"건물 추가",
     "Home(s)":"부동산",
     "All Properties":" 모든 건물",
     "Pinned Locks":"고정된 도어락"
  },
  "alert":{
     "Invalid Selection":"잘못 선택하셨습니다",
     "Please select listings that belongs to the same region.":"동일한 지역에 속한 건물을 선택해주십시오.",
     "Unable to re-associate to a property of different region":"Do note that you are unable to re-associate to a property of different region. Please re-pair to do that.",
     "Unable to Remove Home":"속성을 제거 할 수 없습니다",
     "Unable to Remove Home message":"{{listingName}} 는(은){{provider}} 에 연결되어 있어 제거할 수 없습니다. 삭제전에 예약으로 이동하여 {{listingName}} 을(를) 연결해제 하십시오.",
     "Unable to Remove Home message with lock":"{{listingName}}과 연결된 기기가 있어 삭제할 수 없습니다. {{listingName}} 삭제전에 {{listingName}}에서 기기를 분리하십시오."
  },
  "provider":{
     "Disconnect Listing":"리스팅과 연결 해제",
     "Disconnect Airbnb Listing Message":"Airbnb와 연결된 리스팅을 해제하시겠습니까? 리스팅과 연결된 모든 예약들이 삭제됩니다. 추후 예정 되었던 예약들이 실행 되지 않습니다.",
     "guest(s)":"게스트",
     "Access Methods":"엑세 방법",
     "listings":"리스팅",
     "All Connected":"모두 연결 중입니다",
     "All":"모두",
     "Generate PIN(s) now":"Generate PIN(s) now"
  },
  "support":{
     "Help & Support":"도움말 & 지원",
     "Youtube Channel":"유튜브 채널"
  },
  "Managing access on the go":"이동중에도 엑세스 관리하기.",
  "Reservation Details":"예약 세부사항",
  "Edit Reservation":"예약 수정",
  "Connect":"연결",
  "Disconnect":"차단",
  "Select Listing":"리스팅 선택하기",
  "Select a home to connect":"연결할 속성을 선택하십시오",
  "Guest":"게스트",
  "Timezone":"시간대",
  "Profile":"프로파일",
  "External Reservation":"공급자",
  "Update PIN Send Time Message":"{{guestName}}의 액세스 이메일은 체크인 전에 {{sendAccessEmail}} (으)로 발송됩니다.",
  "Share":"공유",
  "Skip":"Skip",
  "Send PIN Email Now":"지금 핀 코드 이메일 보내기",
  "No Reservation Found":"예약이 삭제되었거나 찾을 수 없습니다.",
  "PIN Email Sent With Time":"핀 코드가 {{time_ago}} 전에 발송되었습니다.",
  "PIN Email Send Time Now":"지금 핀 코드 이메일 보내기",
  "PIN Email Send Time Future":"핀 코드 이메일이 {{time_future}}에 발송될 예정입니다.",
  "Reservation Share Msg":"{{guestName}}님께, {{listingName}}에서 {{startDate}}에서 {{endDate}}까지 이용가능한 핀 코드가 발급되었습니다.\n{{access_pin_list}}",
  "Reservation Share Msg Access Pin Partial":"{{lockName}}: {{pinCode}}에서 사용 가능한 핀 코드입니다.",
  "Name":"이름",
  "Region":"지역",
  "Connect External Providers":"공급자 연결하기",
  "Listing Details":"리스팅 세부사항",
  "Select Your Product":"제품 선택",
  "Other igloohome locks":"기타 이글루 도어락",
  "Select Others":"기타 선택",
  "Issue new key for":"새로운 키 생성하기",
  "Family":"가족",
  "Friends":"친구",
  "Visitors":"방문객",
  "Tenants":"거주인",
  "Services":"서비스",
  "Staff":"스태프",
  "Guests":"게스트",
  "Others":"그 외",
  "Key Card Holder":"키 카드 소유자",
  "Access Type":"엑세스 형태",
  "Repeat this PIN":"이 비밀번호 반복하기",
  "Start Time":"시작 시간",
  "End Time":"마감 시간",
  "Start Date":"시작 날짜",
  "End Date":"마감 날짜",
  "Now":"지금",
  "Start Day":"시작 일자",
  "Start Day of Month":"이 달의 시작 일자",
  "End Day of Month":"이 달의 종료 일자",
  "End Day":"종료 일자",
  "Effective Start Date":"실제 시작 일자",
  "PIN":"핀 코드",
  "One Time PIN":"원타임 핀 코드",
  "Permanent PIN":"고정 핀 코드",
  "Duration PIN":"기간제 핀 코드",
  "Weekly PIN":"주간 비밀번호",
  "Weekday PIN":"주중 비밀번호",
  "Weekend PIN":"주말 비밀번호",
  "Monthly PIN":"월간 비밀번호",
  "Repeats Sat and Sun":"Repeats Sat and Sun",
  "Repeats Mon to Fri":"Repeats Mon to Fri",
  "Repeats every Week":"Repeats every Week",
  "Repeats every Month":"Repeats every Month",
  "Recurring PIN":"반복 코드",
  "Bluetooth Key":"블루투스 키",
  "Guest Bluetooth Keys":"게스트 블루투스 키",
  "Keycard":"키 카드",
  "Add duration placeholder":"예시. 수령인 이름",
  "Lock Owner":"도어락 주인",
  "Master PIN":"마스터 핀",
  "Master pin never expires":"마스터 핀은 소멸되지 않습니다",
  "Remove from List":"목록에서 제거하기",
  "Add New Home":"새 속성 추가",
  "Name your home":"네 재산 이름 짓기",
  "Edit your home":"속성 편집",
  "Edit":"수정",
  "Refreshing":"새로 고침...",
  "Pull to refresh":"새로 고침을 하시려면 당기세요...",
  "Loading more data":"더 많은 데이터를 로딩 중입니다...",
  "Enter 7-9 digit PIN":"7-9 숫자 핀 코드를 입력해 주세요",
  "Repeat PIN":"핀 코드를 다시 한번 입력해 주세요",
  "PIN code placeholder":"핀 코드 입력",
  "Re-enter PIN code":"핀 코드 재입력",
  "Connect Airbnb Listing":"Airbnb 목록에 연결",
  "Connect Your AirBnb Listing":"당신의 Airbnb 목록에 연결",
  "Select Airbnb Listing":"Airbnb 목록 선택",
  "Day":"일",
  "Days":"일",
  "Month":"월",
  "Months":"월",
  "Hours":"시",
  "Hour":"시",
  "Minutes":"분",
  "Before":"전",
  "Select send PIN time":"게스트가 액세스 이메일을 수신하는 기본 타이밍은 체크인 시간 1 시간 전입니다. 이를 변경하려면 손님이 액세스 이메일을 받기를 원하는 번호 (시간)를 선택하기 만하면됩니다.",
  "Select send PIN time2":"Please select the number of hour(s) before check in time for your guests to receive their access message. The default is 1 hour.",
  "hour(s) before check in time":"체크인 몇 시간 전",
  "No data found":"데이터가 없습니다",
  "Lock Info":"도어락 정보",
  "Basic Unlock":"기본 잠금 해제",
  "Basic":"기본",
  "Logs":"로그",
  "Settings":"설정",
  "Lock Settings":"도어락 설정",
  "Issue Access":"엑세스 허용",
  "Activity Log":"사용 기록",
  "Igloohome Help Center":"이글루홈 도움 센터",
  "Welcome to igloohome":"환영합니다",
  "Receive bluetooth key":"블루투스 키 수신",
  "Pair new lock":"새로운 자물쇠 쌍",
  "Request Instant Access":"Request Instant Access",
  "Go to visit page":"방문 페이지로 이동",
  "Add lock":"도어락 추가",
  "Manage Homes":"속성 관리",
  "Claim Bluetooth Key":"블루투스 키 요청하기",
  "Manage Locks":"도어락 관리",
  "Scan QR code to add key":"키를 추가하기 위해서 QR 코드를 스캔해 주세요",
  "Customise email message":"게스트가 받을 이메일의 샘플을 받아보고 싶으시다면 ‘환영 테스트 이메일’ 버튼을 눌러주세요. 게스트가 받을 엑세스 이메일의 샘플을 받아보고 싶으시다면 ‘엑세스 테스트 이메일’ 버튼을 눌러주세요. 엑세스 이메일의 내용을 변경하고 싶으시면, ‘지원 연결’ 버튼을 눌러서 이메일 내용 변경 관련 설명을 참조해주세요",
  "BTKEY_UNLOCK":"{{firstName}} {{lastName}} ({{ekeyName}})이(가) 블루투스를 통해 잠금 장치를 해제했습니다.",
  "EASY_UNLOCK":"간편 문열기를 이용하여 문을 열었습니다.",
  "BASIC_UNLOCK":"기본 문 열기를 이용하여 문을 열었습니다.",
  "CREATE_PINCODE":"다음과 같은 핀 코드를 만들었습니다: {{durationCode}}.",
  "CREATE_PINCODE_WITH_PINTYPE":"다음과 같은 코드를 만들었습니다: {{pinType}}.",
  "CREATE_PINCODE_WITH_PINTYPE_VIA_BLUETOOTH":"블루투스를 통해 {{pinType}}을(를) 생성했습니다.",
  "CREATE_PINCODE_DURATION":" {{start}} 부터 {{end}}까지 유효한 핀 코드를 만들었습니다.",
  "CREATE_PINCODE_DURATION_VIA_BLUETOOTH":"블루투스를 통해 {{start}}에서부터 {{end}}까지 유효한 비밀번호를 생성했습니다.",
  "PAIR":"도어락 페어링 되어있습니다.",
  "RESET":"도어락을 재설정하여 모든 핀 코드를 삭제하였습니다.",
  "TODAY":"오늘",
  "YESTERDAY":"어제",
  "LOG_CHANGE_MASTER_PIN":"마스터 비밀번호를 수정했습니다.",
  "LOG_ENABLE_AUTO_RELOCK_VIA_BLUETOOTH_SIMPLE":"자동 재잠금이 활성화되었습니다.",
  "LOG_ENABLE_AUTO_RELOCK_VIA_BLUETOOTH_EXTENDED":"자동 재잠금이 활성화되었으며, {{newValue}}(으)로 설정되었습니다.",
  "LOG_DISABLE_AUTO_RELOCK_VIA_BLUETOOTH":"자동 재잠금이 비활성화되었습니다.",
  "LOG_CHANGE_INCORRECT_PIN_LOCKOUT_COUNT_VIA_BLUETOOTH":"보안 잠금 시도가 {{newValue}}(으)로 설정되었습니다",
  "LOG_DISABLE_INCORRECT_PIN_LOCKOUT_COUNT_VIA_BLUETOOTH":"보안 잠금 시도가 비활성화되었습니다",
  "LOG_CHANGE_VOL_VIA_BLUETOOTH":"잠금 볼륨이 {{newValue}} 레벨로 설정되었습니다",
  "LOG_PIN_DELETE":"비밀 번호 \"{{pinDescription}}\"가 잠금 장치로부터 삭제되었습니다.",
  "LOG_PIN_UNLOCK_MASTER":"마스터 핀 코드가 사용되었습니다.",
  "LOG_PIN_UNLOCK_GUEST":"{{guestName}}의 핀 코드가 사용되었습니다.",
  "LOG_PIN_CHANGE_GUEST_FROM_KEYPAD":"{{guestName}}이 사용하는 핀 코드가 도어락 키패드에서 변경되었습니다.",
  "LOG_PIN_DELETE_GUEST_FROM_KEYPAD":"{{guestName}}이 사용하는 핀 코드가 도어락 키패드에서 삭제되었습니다.",
  "LOG_PIN_UNLOCK_NO_PINTYPE":" \"{{pinDescription}}\" 의 핀 코드가 문을 열기 위해 사용되었습니다.",
  "LOG_PIN_UNLOCK":"{{pinType}} 형태의 \"{{pinDescription}}\" 의 핀 코드가 문을 열기 위해 사용되었습니다.",
  "LOG_PIN_CHANGE_FROM_KEYPAD":"\"{{pinDescription}}\" 의 핀 코드가 도어락 키패드에서 변경되었습니다.",
  "LOG_PIN_DELETE_FROM_KEYPAD":"\"{{pinDescription}}\" 의 핀 코드가 도어락 키패드에서 삭제되었습니다.",
  "LOG_PIN_UNLOCK_FAILED":"유효하지 않은 \"{{pinCodeNumber}}\" 가 시도되었습니다.",
  "LOG_DELETE_ALL_PINS_FROM_KEYPAD":"모든 핀 코드는 키패드를 통해서 삭제되었습니다.",
  "LOG_PIN_LOCK_BATTERIES_CHANGED":"배터리 교체가 이루어졌습니다. 새로운 배터리 잔량: {{level}}%",
  "LOG_ENABLE_TIME_AUTOLOCK":"시간제 다시 잠금 기능이 {{relockTime}}초로 설정이 되었습니다.",
  "LOG_DISABLE_TIME_AUTOLOCK":"시간제 다시 잠금 기능이 삭제되었습니다.",
  "LOG_ENABLE_SENSOR_AUTOLOCK":"자동 재잠금이 활성화되었습니다.",
  "LOG_DISABLE_SENSOR_AUTOLOCK":"자동 재잠금이 비활성화되었습니다.",
  "LOG_LOCK_VOLUME":"도어락 음량이 {{volume}}으로 설정되었습니다..",
  "LOG_NFC_PIN_SET":"4자리 숫자 핀 코드가 {{nfcPin}}으로 설정되었습니다.",
  "LOG_NFC_REGISTERED":"{{nfcCardId}} 키 카드가 추가되었습니다.",
  "LOG_NFC_REGISTERED_NAME":"Key Card \"{{name}}\" has been added.",
  "LOG_NFC_DEREGISTERED":"{{nfcCardId}} 키 카드가 삭제되었습니다.",
  "LOG_NFC_DEREGISTERED_NAME":"키 카드 \"{{name}}\" 가 삭제되었습니다.",
  "LOG_NFC_UNLOCK":"키 카드 {{nfcCardId}} 가 문을 열기 위해 사용되었습니다.",
  "LOG_NFC_UNLOCK_NAME":"키 카드 \"{{name}}\" 가 문을 열기 위해 사용되었습니다.",
  "AUTO_RELOCK_AFTER_OPENING_AND_CLOSING_LOCK":"Lock has auto-relocked after closing.",
  "AUTO_RELOCK_WITHOUT_FIRST_OPENING_LOCK":"Lock has auto-relocked without opening.",
  "LOCK_VIA_KEYPAD_OR_BUTTON":"You have locked the lock via keypad or function button.",
  "RELOCK_ALARM_DISABLED":"Relock Reminder Alert has been disabled.",
  "RELOCK_ALARM_ENABLED":"Relock Reminder Alert has been set to {{seconds}} seconds.",
  "Attempted_BREAK_IN":"Intrusion detected on the lock. Please check immediately.",
  "DELETE_FINGERPRINT":"Fingerprint \"{{description}}\" has been deleted.",
  "ADD_FINGERPRINT":"Fingerprint \"{{description}}\" has been added.",
  "UNLOCK_VIA_FINGERPRINT":"Fingerprint \"{{description}}\" was used to unlock the lock.",
  "INVALID_FINGERPRINT":"An invalid Fingerprint was attemped.",
  "UNLOCK_VIA_BUTTON":"You have unlocked the lock via the function button.",
  "LINK_FOB":"Key Fob \"{{name}}\" has been added to the lock.",
  "UNLINK_FOB":"Lock has been unlinked from the Key Fob \"{{name}}\"",
  "BLOCK_FOB":"Key Fob \"{{name}}\" has been blocked from the lock.",
  "DELETE_FOB_FROM_LOCK":"Key Fob \"{{name}}\" has been deleted from the lock.",
  "UNLOCK_FOB":"Key Fob \"{{name}}\" was used to unlock the lock.",
  "LOCK_WITH_FOB":"Key Fob \"{{name}}\" was used to lock the lock.",
  "LOCK_VIA_KEY_OR_THUMBTURN":"You have Locked via physical key or thumb turn.",
  "UNLOCK_VIA_KEY_OR_THUMBTURN":"You have Unlocked via physical key or thumb turn.",
  "You have successfully changed your account details":"계정 상세정보를 성공적으로 변경했습니다",
  "You have successfully changed your password":"비밀번호를 성공적으로 변경했습니다",
  "You have successfully changed your settings":"설정을 성공적으로 변경했습니다",
  "You have successfully claimed your bluetooth key":"블루투스 키를 성공적으로 요청했습니다",
  "This lock has been added to favourite list":"이 잠금은 고정 된 잠금 목록",
  "This lock has been removed from favourite list":"이 잠금 장치가 제거되었습니다 고정 된 잠금 목록에서",
  "You have successfully sync the lock":"도어락을 성공적으로 동기화했습니다",
  "You have successfully disconnected from Airbnb account":"성공적으로 Airbnb 계정에서 연결이 해제되었습니다",
  "Your action was successful":"액션이 성공했습니다",
  "UNLOCK_BY_EKEY_TITLE":"도어락 액세스",
  "UNLOCK_BY_EKEY_MSG":"%1$@ 이 블루투스 키를 통해  %2$@ 를 잠궜습니다.",
  "EKEY_CLAIMED_TITLE":"블루투스 키 허용",
  "EKEY_CLAIMED_MSG":"%1$@ 이 %2$@ 의 블루투스 키를 허용하였습니다.",
  "WELCOME_EMAIL_PUSH_TITLE":"환영 이메일",
  "WELCOME_EMAIL_PUSH_MSG":"%1$@ 이 %2$@ 리스팅의 환영 이메일을 받았습니다.",
  "PIN_EMAIL_PUSH_TITLE":"핀 코드 이메일",
  "PIN_EMAIL_PUSH_MSG":"%1$@ 이 %2$@ 리스팅의 핀 코드 이메일을 받았습니다.",
  "UNLOCK_BY_EKEY_TOAST":"{{val1}} 이 블루투스 키를 통해  {{val2}} 를 잠궜습니다.",
  "EKEY_CLAIMED_TOAST":"{{val1}} 이 {{val2}} 의 블루투스 키를 허용하였습니다.",
  "WELCOME_EMAIL_PUSH_TOAST":"{{val1}} 이 {{val2}} 리스팅의 환영 이메일을 받았습니다.",
  "PIN_EMAIL_PUSH_TOAST":"{{val1}} 이 {{val2}} 리스팅의 핀 코드 이메일을 받았습니다.",
  "Forgot Password Success Title":"비밀번호 재설정 이메일 보내기",
  "Forgot Password Success Message":"비밀번호 재설정 이메일을 보냈습니다. 귀하의 이메일 주소로. 비밀번호를 재설정하려면 링크를 클릭하십시오.",
  "Register Success Title":"Email Verification",
  "Register Success Message":"A verification email has been sent to {{email}}. Please verify your account and log in.",
  "I have agreed to":"I have agreed to ",
  "terms of Service":"Terms of Service",
  "and":"and ",
  "Privacy Policy":"Privacy Policy",
  "By clicking Sign In, you acknowledge you have agreed to":"By clicking Sign In, you acknowledge you have agreed to ",
  "Pin Copied":"Pin copied",
  "fingerprint":{
     "Fingerprint":"Fingerprint",
     "Unlocks with fingerprint":"Unlocks with fingerprint",
     "Step 1: Get ready to scan":"Step 1: Get ready to scan",
     "Ensure that your finger is clean and dry.":"Ensure that your finger is clean and dry.",
     "Step 3: Scan your fingerprint":"Step 3: Scan your fingerprint",
     "Scan required":"Scan required",
     "Ensure that you press your finger on the scanner firmly":"Ensure that you press your finger on the scanner firmly",
     "I'm Done":"I'm Done",
     "Step 2: Name your fingerprint":"Step 2: Name your fingerprint",
     "There will be 3 scans required to register your fingerprint.":"There will be 3 scans required to register your fingerprint.",
     "Always place your finger at the center of the scanner for optimal perfomance.":"Always place your finger at the center of the scanner for optimal perfomance.",
     "Please try again. Do place your finger at the center firmly.":"Please try again. Do place your finger at the center firmly.",
     "Delete Fingerprint Access":"Delete Fingerprint Access",
     "Edit Fingerprint":"Edit Fingerprint",
     "Add Fingerprint":"Add Fingerprint",
     "Fingerprint ID":"Fingerprint ID",
     "Fingerprint added":"Fingerprint added"
  },
  "fob":{
     "You do not have any paired fobs.":"You do not have any paired {{ecosystemType}}.",
     "Manage fobs":"Manage {{ecosystemType}}",
     "Add Fob":"Add {{ecosystemType}}",
     "step1":"Step 1 : Prepare your {{ecosystemType}} for pairing",
     "step2":"Step 2 : Select Key Fob ID",
     "Enter Fob name":"Enter {{ecosystemType}} name",
     "Fob paired":"Key Fob paired!",
     "Link Fob":"Link {{ecosystemType}}",
     "Would you like to link your Fob to a lock now":"Would you like to link your {{ecosystemType}} to a lock now?",
     "Link lock from Fob":"Link lock from {{ecosystemType}}",
     "step1 link fob":"Step 1 : Get your {{ecosystemType}} ready",
     "step2 link fob":"Step 2 : Select a lock to link",
     "step3 link fob":"Step 3 : Linking your {{ecosystemType}} to {{lockname}}",
     "Linking Fob":"Linking {{ecosystemType}}",
     "Fob Linked":"{{ecosystemType}} Linked",
     "Fob successfully linked with":"{{ecosystemType}} successfully linked with \"{{lockname}}\"",
     "Fob Settings":"{{ecosystemType}} Settings",
     "Are you sure you want to unlink from":"Are you sure you want to unlink {{lock}} from {{fobname}}?",
     "Get your Fob ready":"Get your {{ecosystemType}} ready",
     "Successfully Deleted":"\"{{fobname}}\" Successfully Deleted",
     "Delete Fob":"Delete {{ecosystemType}}",
     "Unpair Fob from phone":"Unpair Key Fob from your phone",
     "Edit Fob Name":"Edit {{ecosystemType}} Name",
     "Fob name":"{{ecosystemType}} name",
     "Are you sure you want to delete Fob_name for all your locks":"Are you sure you want to delete {{fobname}} access for all your locks?",
     "Pair your Fob":"Pair your {{ecosystemType}}",
     "I lost my fob":"I lost my {{ecosystemType}}",
     "Lost your Fob":"Lost your {{ecosystemType}}?",
     "What to do when you have lost your Fob":"What to do when you have lost your {{ecosystemType}}",
     "When you lost your fob, you can revoke access to immediately to secure your place.":"When you lost your Key Fob, you can revoke access to immediately to secure your place.",
     "Revoke Fob access":"Revoke {{ecosystemType}} access",
     "lostFobRevoke":"You will no longer be able to unlock your linked lock(s) using the revoked {{ecosystemType}}.",
     "Step 1: Revoke Fob access":"Step 1: Revoke {{ecosystemType}} access",
     "Step 2: Delete Fob permanently":"Step 2: Delete {{ecosystemType}} permanently",
     "Permanently delete Fob from your account.":"Permanently delete your {{ecosystemType}} from your account.",
     "Are you sure you want revoke fob access for Lock_Name?":"Are you sure you want revoke {{ecosystemType}} access for {{Lock_Name}}?",
     "Remove Lock_Name from your Fob":"Remove {{Lock_Name}} from your Key Fob",
     "Lock successfully removed from your Fob.":"Lock successfully removed from your {{ecosystemType}} .",
     "Delete your Fob":"Delete your {{ecosystemType}}",
     "Your linked access will be removed automatically after you sync these access":"Your linked access will be removed automatically after you sync these access :",
     "Please wait while we remove all your Fob data":"Please wait while we remove all your {{ecosystemType}}’s data.",
     "Fob sucessfully removed":"Key Fob sucessfully removed.",
     "Please wait while we removing your lock from fob":"Please wait while we removing your lock from Key Fob.",
     "fob not found":"Device not found.",
     "fob aleready paired":"This Key Fob has already been paired.",
     "Delete fob alert":"Please unlink your linked lock(s) before deleting your device.",
     "This lock(s) has been deleted":"This lock has been deleted, please unlink it from the {{ecosystemType}}",
     "Fob has been blacklisted from the lock.":"Key Fob \"{{fobs_name}}\" has been blacklisted from the lock.",
     "Make sure your Fob is discoverable":"Make sure your {{ecosystemType}} is discoverable",
     "To start using your Fob, ensure the blue light is no longer flashing by holding onto the settings button":"To start using your Key Fob, ensure the blue light is no longer flashing by holding onto the settings button."
  },
  "bridge":{
     "Manage Bridge":"Manage {{ecosystemType}}",
     "You do not have any paired Bridge":"You do not have any paired {{ecosystemType}}.",
     "Add Bridge":"Add {{ecosystemType}}",
     "Pair your Bridge":"Pair your {{ecosystemType}}",
     "Pairing Bridge":"Pairing Bridge",
     "Step 1 Bridge pairing":"Step 1: Prepare your {{ecosystemType}} for pairing",
     "Bridge pairing message":"Connect your Bridge to power using the provided USB-C cable. \n \nPress the multi-function button once to wake the Bridge up.",
     "Step 2 Bridge pairing":"Step 2: Select Bridge ID",
     "You are connected to wifi":"You are connected to \"{{wifi_ssid}}\"",
     "Your phone is not connected to Wi-Fi":"Your phone is not connected to Wi-Fi",
     "Connected to wifi message":"Please enter your Wi-Fi password. Make sure you use a 2.4Ghz network.",
     "Step 3 Bridge pairing":"Bridge Paired!",
     "Not connected to wifi message":"Please connect your phone to your Wi-Fi to continue pairing.",
     "Incorrect wifi password message":"Incorrect password for \"{{wifi_ssid}}\"",
     "Set-up manually":"Set-up manually",
     "Skip this step":"Skip this step",
     "Skip wifi configuration":"Skip Wi-Fi configuration?",
     "Skip wifi configuration message":"This is an essential step in the Bridge setup process.",
     "Go to settings":"Go to settings",
     "Security":"Security",
     "Private Address":"Private Address",
     "Security types":"Security types",
     "None":"None",
     "WPA Enterprise":"WPA Enterprise",
     "WPA2 Enterprise":"WPA2 Enterprise",
     "WPA3 Enterprise":"WPA3 Enterprise",
     "Enter Bridge name":"Enter {{ecosystemType}} name",
     "Bridge name placeholder":"e.g. Home Bridge",
     "Link bridge to lock message":"Would you like to link your {{ecosystemType}} to a lock now?",
     "Current linked lock":"You currently have \"{{linkedLock}}\" locks linked",
     "Join network":"Join network",
     "Diagnostic":"Diagnostic",
     "wifi connected":"You are connected to \"{{ssid}}\"",
     "configuring wifi":"Configuring WiFi",
     "Step 1 link lock bridge":"Step 1 : Select a lock to link",
     "Step 2 link lock bridge":"Step 2 : Linking your {{ecosystemType}} to {{LockName}}",
     "Bridge successfully linked":"{{ecosystemType}} successfully linked with \"{{lockname}}\"",
     "You now have locks linked":"You now have  {{numberlock}}\/10 locks linked",
     "Diagnostics":"Diagnostics",
     "Check network status":"Check network status",
     "Remove Bridge name":"Remove {{bridgeName}}",
     "What to do when you have lost your Bridge":"What to do when you have lost your {{ecosystemType}}",
     "Remove Bridge from account":"Remove Bridge from account",
     "Allow Bridge to be paired to another account":"Allow Bridge to be paired to another account",
     "Bridge name":"{{ecosystemType}} name",
     "Delete Bridge":"Delete {{ecosystemType}}",
     "Bridge Settings":"{{ecosystemType}} Settings",
     "Delete bridge alert":"Are you sure you want to delete {{acc_name}} access for all your locks?",
     "I lost my bridge":"I lost my {{ecosystemType}}",
     "Unpair bridge from phone":"Unpair Bridge from your phone",
     "Edit Bridge Name":"Edit {{ecosystemType}} Name",
     "Bridge Wi-Fi Configuration":"Bridge Wi-Fi Configuration",
     "Configure Bridge Wi-Fi so you can start using your lock remotely":"Configure Bridge Wi-Fi so you can start using your lock remotely.",
     "Wifi Configuration message":"For some devices, we might ask you to enable location services to identify the SSID of the Wi-Fi that your phone’s connected to.",
     "Start Wi-Fi configuration":"Start Wi-Fi configuration"
  },
  "keypad":{
     "You do not have any paired Keypad.":"You do not have any paired {{ecosystemType}}.",
     "Manage Keypad":"Manage {{ecosystemType}}",
     "Add Keypad":"Add {{ecosystemType}}",
     "pairing step2":"Step 2 : Prepare your {{ecosystemType}} for pairing",
     "pairing step3":"Step 3 : Select Keypad ID",
     "Enter Keypad name":"Enter {{ecosystemType}} name",
     "Keypad paired":"Keypad paired!",
     "Link Keypad":"Link {{ecosystemType}}",
     "Would you like to link your Keypad to a lock now":"Would you like to link your {{ecosystemType}} to a lock now?",
     "Link lock from Keypad":"Link lock from {{ecosystemType}}",
     "step1 link keypad":"Step 1 : Get your {{ecosystemType}} ready",
     "step2 link keypad":"Step 2 : Select a lock to link",
     "step3 link keypad":"Step 3 : Linking your {{ecosystemType}} to {{lockname}}",
     "Linking Keypad":"Linking {{ecosystemType}}",
     "Keypad Linked":"{{ecosystemType}} Linked",
     "Keypad successfully linked with":"{{ecosystemType}} successfully linked with \"{{lockname}}\"",
     "Keypad Settings":"{{ecosystemType}} Settings",
     "Are you sure you want to unlink from":"Are you sure you want to unlink {{lock}} from {{keypadname}}?",
     "Get your Keypad ready":"Get your {{ecosystemType}} ready",
     "Successfully Deleted":"\"{{keypadname}}\" Successfully Deleted",
     "Delete Keypad":"Delete {{ecosystemType}}",
     "Unpair Keypad from phone":"Unpair Keypad from your phone",
     "Edit Keypad Name":"Edit {{ecosystemType}} Name",
     "Keypad name":"{{ecosystemType}} name",
     "Are you sure you want to delete Keypad_name for all your locks":"Are you sure you want to delete {{keypadname}} access for all your locks?",
     "Pair your Keypad":"Pair your {{ecosystemType}}",
     "I lost my keypad":"I lost my {{ecosystemType}}",
     "Lost your Keypad":"Lost your {{ecosystemType}}?",
     "What to do when you have lost your Keypad":"What to do when you have lost your {{ecosystemType}}",
     "When you lost your keypad, you can revoke access to immediately to secure your place.":"When you lost your Keypad, you can revoke access to immediately to secure your place.",
     "Revoke Keypad access":"Revoke {{ecosystemType}} access",
     "lostKeypadRevoke":"You will no longer be able to unlock your linked lock(s) using the revoked {{ecosystemType}}.",
     "Step 1: Revoke Keypad access":"Step 1: Revoke {{ecosystemType}} access",
     "Step 2: Delete Keypad permanently":"Step 2: Delete {{ecosystemType}} permanently",
     "Permanently delete Keypad from your account.":"Permanently delete your {{ecosystemType}} from your account.",
     "Are you sure you want revoke keypad access for Lock_Name?":"Are you sure you want revoke {{ecosystemType}} access for {{Lock_Name}}?",
     "Remove Lock_Name from your Keypad":"Remove {{Lock_Name}} from your Keypad",
     "Lock successfully removed from your Keypad.":"Lock successfully removed from your {{ecosystemType}}.",
     "Delete your Keypad":"Delete your {{ecosystemType}}",
     "Your linked access will be removed automatically after you sync these access":"Your linked access will be removed automatically after you sync these access :",
     "Please wait while we remove all your Keypad data":"Please wait while we remove all your {{ecosystemType}}’s data.",
     "Keypad sucessfully removed":"Keypad sucessfully removed.",
     "Please wait while we removing your lock from keypad":"Please wait while we removing your lock from Keypad.",
     "keypad not found":"Device not found.",
     "keypad aleready paired":"This Keypad has already been paired.",
     "Delete keypad alert":"Please unlink your linked lock(s) before deleting your device.",
     "This lock(s) has been deleted":"This lock has been deleted, please unlink it from the {{ecosystemType}}",
     "Keypad has been blacklisted from the lock.":"Keypad \"{{Keypad_name}}\" has been blacklisted from the lock.",
     "Make sure your Keypad is discoverable":"Make sure your {{ecosystemType}} is discoverable",
     "To start using your Keypad, ensure the blue light is no longer flashing by holding onto the settings button":"To start using your Keypad, ensure the blue light is no longer flashing by holding onto the settings button."
  },
  "accecories":{
     "Link now":"Link now",
     "Link later":"Link later",
     "Select lock":"Select lock",
     "Link more locks":"Link more locks",
     "Linked Lock(s)":"Linked Lock(s)",
     "Linked Locks":"Linked Locks",
     "Unlink Lock":"Unlink Lock?",
     "Unlink":"Unlink",
     "Unlink lock":"Unlink lock",
     "Unlinking":"unlinking \"{{name}}\"",
     "Successfully Unlinked":"\"{{lockname}}\" Successfully Unlinked",
     "Deleting":"Deleting \"{{name}}\"",
     "Linked to multiple locks":"Linked to multiple locks",
     "Linked to lockname":"Linked to \"{{lockname}}\"",
     "Not linked":"Not linked",
     "Open the back cover and hold setting button until blue light flashes":"Open the back cover and hold onto the settings button until the blue light flashes",
     "You have linked number locks":"You have linked ({{number}}\/5) locks",
     "You can link up to 5 locks":"You can link up to 5 locks",
     "Please make sure your lock(s) are nearby to revoke access.":"Please make sure your lock(s) are nearby to revoke access.",
     "Revoke access":"Revoke access",
     "I no longer have this lock":"I no longer have this lock",
     "Please confirm that you no longer have this lock.":"Please confirm that you no longer have this lock.",
     "Remove lock":"Remove lock",
     "Remove Lock_Name":"Remove {{Lock_Name}}",
     "This will permanently remove it from your account":"This will permanently remove it from your account",
     "Delete Permanently":"Delete Permanently",
     "Do you want to unlink lock":"Do you want to unlink lock?",
     "Do you want to unlink your lock":"Do you want to unlink your lock?",
     "Any access granted to linked devices will still persist. Would you like to unlink them now":"Any access granted to linked devices will still persist. Would you like to unlink them now?",
     "Later":"Later",
     "Linked Devices":"Linked Devices",
     "Unlink device":"Unlink device?",
     "lock aleready linked":"This lock already linked to this device."
  },
  "retrofit":{
     "Auto-relock calibration":"Auto-relock calibration",
     "Calibrating auto-relock":"Calibrating auto-relock",
     "Lock position":"Lock position",
     "Calibrate the lock’s magnet sensor to optimize auto-relock performance":"Calibrate the lock’s magnet sensor to optimize auto-relock performance.",
     "Ensure that the door is closed":"Ensure that the door is closed.",
     "Tap next and you should hear a chime":"Tap next and you should hear a chime.",
     "Choose your door lock position":"Choose your door lock position",
     "Calibration in progress":"Calibration in progress...",
     "Calibration complete":"Calibration complete",
     "Start calibration":"Start calibration",
     "Open your door slightly so it’s ajar":"Open your door slightly so it’s ajar.",
     "1 of 2":"1 of 2",
     "2 of 2":"2 of 2",
     "Left":"Left",
     "Right":"Right",
     "Lock rotation":"Lock rotation",
     "Single Lock":"Single Lock",
     "Double Lock":"Double Lock",
     "Auto Unlock":"Auto-Unlock",
     "Location radius":"Location radius",
     "Automatically unlock your lock when you return to your property":"Automatically unlock your lock when you return to your property.",
     "Auto-Unlock is already active for lock_name":"Auto-Unlock is already active for {{lock_name}}. Please disable Auto-Unlock for {{lock_name}} to proceed.",
     "Modify location radius depending on your property scale":"Modify location radius depending on your property scale.",
     "Adjust lock location":"Adjust lock location"
  },
  "Search lock...":"Search lock...",
  "Couldnt find lock":"Couldn't find \"{{lockname}}\"",
  "Try searching again using a different keyword.":"Try searching again using a different keyword.",
  "1.1.403":"사용자이름\/비밀번호로 로그인 할 수 없습니다. 다시 시도해주세요.",
  "1.1.409":"로그인 할 수 없습니다. 이메일의 링크를 클릭하여 계정을 확인해주시고 다시 시도해주세요.",
  "1.1.410":"귀하의 계정이 블럭처리되었습니다.",
  "2.1.403":"{{email}} 이메일은 이미 등록되었습니다.",
  "2.1.409":"{{email}} 이메일은 이미 등록되었습니다.",
  "3.1.403":"오류로 인하여 사용자 상세정보를 변경할 수 없습니다. 다시 시도해주세요.",
  "4.1.403":"오류로 인하여 사용자 비밀번호를 변경할 수 없습니다. 다시 시도해주세요.",
  "5.1.403":"Airbnb 계정의 연결을 해제하는 도중에 오류가 발생했습니다. 예약 탭에서 Airbnb 계정에 페어링된 모든 목록을 연결해제하시고 다시 시도해주세요.",
  "6.3.803":"블루투스 키 요청을 할 수 없습니다. 다시 시도해주세요.",
  "6.3.804":"Invalid QR code",
  "7.1.400":"새 속성을 추가 할 수 없습니다. 다시 시도하십시오.",
  "8.1.403":"{{listingName}}은(는) 연결된 기기가 있어 제거할 수 없습니다. {{listingName}} 삭제전에 {{listingName}} 에서 기기를 연결해제 해주십시오.",
  "8.1.409":"{{listingName}}은(는) {{provider}} 에 연결되어 있어 삭제할 수 없습니다. 삭제전에 예약으로 이동하여 {{listingName}}을(를) 연결해제 하십시오.",
  "9.1.404":"귀하의 현재 위치를 알 수 없습니다. 위치 서비스를 활성화하여 자동적으로 홈과 시간대를 구성할 수 있도록 해 주십시오. 또한 수동으로 도시를 선택할 수 있습니다.",
  "10.1.400":"귀하의 도어락에 대하여 엑세스를 생성할 수 없습니다. 다시 시도해주세요.",
  "13.2.880":"새 비밀번호가 이미 사용 중입니다. 다른 비밀번호를 시도하시기 바랍니다",
  "18.1.404":"이 엑세스를 삭제할 수 없습니다. 다시 시도해주세요.",
  "19.1.404":"이 엑세스를 철회할 수 없습니다. 다시 시도해주세요.",
  "20.1.404":"Airbnb 목록에서 이글루홈 건물을 연결해제 할 수 없었습니다. 다시 시도해주세요.",
  "21.1.404":"귀하의 게스트에게 엑세스 메일을 전송할 수 없습니다. 다시 시도해주세요.",
  "22.1.404":"요청하고 있는 블루투스 키는 요청되었거나 만료되었습니다. 새로운 키에 대해서는 호스트에게 연락해주십시오.",
  "22.1.409":"블루투스 키를 요청할 권한이 없습니다.",
  "22.5.1":"블루투스 키를 설정하기 전에 로그인하시기 바랍니다.",
  "22.5.800":"블루투스 키를 설정하기 전에 로그인하시기 바랍니다.",
  "47.5.800":"Please login to your account before requesting for instant access.",
  "47.1.409":"You are not allowed to request instant access for your lock.",
  "23.1.404":"블루투스 키가 만료되었거나 해지되었습니다. 호스트에게 연락 하시기 바랍니다.",
  "23.5.703":"블루투스 키 잠금 해제 오류",
  "24.1.403":"5개의 최대 고정 잠금에 도달했습니다. 잠금 장치의 고정을 해제하고 다시 시도하시기 바랍니다.",
  "31.1.404":"잠금 장치를 찾을 수 없습니다.",
  "delete_card_error":"삭제 된 키 카드가 앱에 계속 반영 될 수 있습니다. 다시 시도하십시오.",
  "add_card_error":"추가 된 키 카드가 앱에 표시되지 않을 수 있습니다. 다시 시도하십시오.",
  "unlock_error":"잠금 장치에 연결할 수 없습니다. 키패드의 전원이 켜져 있는지 확인하고 다시 시도하시기 바랍니다. 블루투스가 '켜져 ' 있는 경우, 블루투스를 다시 시작하시기 바랍니다.",
  "update mastercode error":"잠금 장치에 연결할 수 없습니다. 키패드의 전원이 켜져 있는지 확인하고 다시 시도하시기 바랍니다. 블루투스가 '켜져 ' 있는 경우, 블루투스를 다시 시작하시기 바랍니다.",
  "delete lock error":"잠금 장치를 제거할 수 없습니다. 잠금 장치의 블루투스 범위 내에 있는지 확인하고 다시 시도하시기 바랍니다.",
  "sync lock error":"잠금 장치를 동기화할 수 없습니다. 잠금 장치의 블루투스 범위 내에 있는지 확인하고 다시 시도하시기 바랍니다.",
  "sync lock bt in progress error":"잠금 장치를 동기화할 수 없습니다. 다시 시도하시기 바랍니다.",
  "location_permission error":"Please ensure that the Bluetooth and location are turned on, Bluetooth privacy is enabled, then try again.",
  "use pin before":"진행 전 비밀번호를 다시 한번 사용하시기 바랍니다.",
  "update your application":"응용 프로그램을 업데이트하십시오.",
  "edit pincode error":"잠금 장치에 연결할 수 없습니다. 키패드의 전원이 켜져 있는지 확인하고 다시 시도하시기 바랍니다. 블루투스가 '켜져 ' 있는 경우, 블루투스를 다시 시작하시기 바랍니다.",
  "download":"다운로드",
  "network_error":"네트워크 설정을 확인하고 다시 시도하시기 바랍니다.",
  "0.1.12":"Network Error",
  "invalid email":"유효한 이메일을 입력하십시오",
  "invalid password":"유효한 비밀번호를 입력하십시오",
  "pin creation limit reached error":"PIN generation limit reached for this hour. Please wait till the next hour to generate more remotely. Alternatively, you may create PIN codes via Bluetooth.",
  "key card creation limit reached error":"Keycard creation limit reached. No further keycards can be added.",
  "legacy pin creation limit reached error":"PIN creation limit reached. Please delete all PINs to create more.",
  "Instant Access Request invalid. Lock is not paired to any account.":"Instant Access Request invalid. Lock is not paired to any account.",
  "0.0.0":"Error",
  "Note":"Note",
  "Full":"Full",
  "Okay":"Moderate",
  "Low":"Low",
  "Change your battery soon":"Change your battery soon",
  "You haven't add any listing yet.":"You haven't add any listing yet.",
  "You can send a test access message to your email.":"You can send a test access message to your email",
  "The actual access message will be sent to your guest via Airbnb platform before check-in time.":"The actual access message will be sent to your guest via Airbnb platform before check-in time.",
  "To customize the access message, please contact our support.":"To customize the access message, please contact our support.",
  "Add Listing":"Add Listing",
  "Test Access Message":"Test Access Message",
  "Send Access Message Now":"Send Access Message Now",
  "Send Access Message":"Send Access Message",
  "PIN Message Sent With Time":"message sent {{time_ago}}",
  "PIN Message Send Time Future":"message will be sent {{time_future}}",
  "Update PIN Send Time Message2":"Access message for {{guestName}} (containing access methods such as PIN codes and\/or bluetooth keys) will be sent {{sendAccessEmail}} hour(s) before check in time.",
  "Reservation Platform":"Reservation Platform",
  "Property Name":"Property Name",
  "Attention":"Attention",
  "You are making changes to the default listing settings.":"You are making changes to the default listing settings.",
  "Please note that this will not take effect on modified reservations.":"Please note that this will not take effect on modified reservations.",
  "Proceed":"Proceed",
  "The modifications will only affect this reservation. Default settings are unchanged.":"The modifications will only affect this reservation. Default settings are unchanged.",
  "Default Listing Settings":"Default Listing Settings",
  "Reservation Share Msg2":"Hi {{guestName}}, \n\nHere is your igloohome self check-in details at {{listingName}} from {{startDate}} to {{endDate}}.\n\n{{access_pin_list}}\n\n Your PIN is valid only from check-in to check-out time. Please use within 24 hours from your check-in time to activate the PIN.\n\nIf you experience any issues, please contact your host.\n\nEnjoy your stay!\nThe igloohome Team",
  "Reservation Share Msg Access detail":"{{lockName}}:\n{{pinCode}} \n",
  "All Airbnb listing has already been connected.":"All Airbnb listing has already been connected.",
  "PIN Message Send Time Now":"Sending access message now",
  "Are you sure you want to disconnect your Airbnb account? Please make sure all Airbnb listing(s) has already been disconnected.":"Are you sure you want to disconnect your Airbnb account? Please make sure all Airbnb listing(s) has already been disconnected.",
  "Access Message is being sent. Please check back for more details.":"Access Message is being sent. Please check back for more details.",
  "Message Sent":"Message Sent",
  "Template_content_required_error_message":"Please ensure you include these in your message:\n- Access detail\n- Start date\n- End date",
  "Discard_changes?":"Discard changes?",
  "Discard_template_changes_content":"Are you sure you want to discard your changes?\n\nAll changes will not be saved.",
  "Discard_button":"Discard",
  "Automated_Message_for_your_Self_Check-In":"Automated Message for your Self Check-In",
  "Note_Reservation_template":"*Note: This is a preview of your access message. The actual access message will be sent to your guest via Airbnb platform before check-in time.",
  "0.5.703":"Timeout Error",
  "0.2.6":"Unlocking too many times at once Error",
  "0.2.7":"Time Offsync error",
  "0.2.11":"Connect bt failed error",
  "0.2.12":"Unable to connect to lock coz its already connected error",
  "0.2.21":"Enable pin generation failed error",
  "0.2.41":"Retrieve Ekey Error",
  "0.2.61":"Unlock error",
  "0.2.63":"Phone disconnected while unlock error",
  "0.2.64":"Unlock AES key error",
  "0.2.71":"Set Keypad password error",
  "0.2.72":"Keypad Password Digits error",
  "0.2.100":"Network Error",
  "0.2.101":"Bind admin error",
  "0.2.121":"Add admin error",
  "0.2.122":"Add admin settings mode error",
  "0.2.131":"Upload Pincodes error",
  "0.2.141":"Get logs error",
  "0.2.151":"Reset lock error",
  "0.2.161":"NTP check error",
  "0.2.171":"Sync time error",
  "unable to connect":"Unable to connect to the device. Please try again.",
  "51.5.1003":"Please ensure that the lock is unlocked before you proceed.",
  "51.1.100":"Please check your network settings and try again.",
  "51.5.1301":"Unable to connect to the Lock. Please try again.",
  "51.5.703":"Unable to connect to the Lock. Please try again.",
  "51.5.1023":"This lock is not support firmware update.",
  "51.2.708":"Please ensure that the Bluetooth and location are turned on, Bluetooth privacy is enabled, then try again.",
  "51.5.1":"Please ensure that the Bluetooth and location are turned on, Bluetooth privacy is enabled, then try again.",
  "51.5.1303":"Please ensure that the Bluetooth and location are turned on, Bluetooth privacy is enabled, then try again.",
  "51.5.100":"Unable to connect to the Lock. Please try again.",
  "51.5.1002":"Please check your network settings and try again.",
  "51.5.1011":"DFU download error",
  "51.5.1012":"DFU download error",
  "51.5.1013":"DFU download error",
  "51.5.1014":"DFU download error",
  "51.5.1015":"DFU download error",
  "51.5.1016":"DFU download error",
  "51.5.1100":"DFU Error",
  "51.5.1021":"DFU package error",
  "51.5.1022":"DFU package initialitation error",
  "51.5.1024":"Please update your igloohome app to latest version",
  "51.5.1025":"Server bluetooth version error",
  "51.5.1026":"DFU configuration initiation error",
  "51.2.1002":"Unable to connect to the Lock. Please try again.",
  "51.2.1233":"Unable to connect to the Lock. Please try again.",
  "51.2.5206":"Please ensure that the Bluetooth and location are turned on, Bluetooth privacy is enabled, then try again.",
  "51.5.5206":"Please ensure that the Bluetooth and location are turned on, Bluetooth privacy is enabled, then try again.",
  "51.2.5196":"Unable to connect to the Lock. Please try again.",
  "51.4.1":"Please check your network settings and try again.",
  "51.2.12":"Unable to connect to the lock. Please try again.",
  "52.5.1":"Generic Error",
  "53.2.980":"Unable to delete access. Fingerprint UID could not be found. Please sync the lock and try again.",
  "52.2.960":"Fingerprint creation limit reached. Please remove another fingerprint access and try again",
  "52.2.970":"Reading error",
  "52.2.971":"Fingerprint scanning timeout. Please try again.",
  "52.2.972":"You have exceeded the number of attempts. Please make sure the scanner is clean and dry, then try again.",
  "51.1.801":"Please check your network settings and try again.",
  "38.2.860":"Please ensure that the Bluetooth and location are turned on, Bluetooth privacy is enabled, then try again.",
  "33.2.860":"Please ensure that the Bluetooth and location are turned on, Bluetooth privacy is enabled, then try again.",
  "54.2.708":"Please ensure that the Bluetooth and location are turned on, Bluetooth privacy is enabled, then try again.",
  "33.2.708":"Please ensure that the Bluetooth and location are turned on, Bluetooth privacy is enabled, then try again.",
  "airbnbError":"Cannot connect to airbnb",
  "Keycard missing uid":"Unable to delete access. Keycard UID could not be found. Please sync the lock and try again."
}