{
  "actions":{
     "Login":"Войти",
     "Register":"Регистрация",
     "Email":"Электронная почта",
     "Your email":"your@email.com",
     "Reset Password":"Сбросить пароль",
     "password":"Пароль",
     "Forgot Password":"Забыли пароль?",
     "Submit":"Подтвердить",
     "First Name":" Имя ",
     "Last Name":" Фамилия ",
     "Mobile":" Номер мобильного телефона ",
     "Password requirement":" Пароль – минимум 8 знаков ",
     "Password match":"Пароли должны совпадать",
     "Passwords not matching":"Текущий и новый пароли различаются",
     "Confirm Password":" Повторить пароль",
     "Change Details":"изменить детали",
     "Change Password":"Изменить пароль",
     "Change batteries":"Смена батареек",
     "Current Password":"текущий пароль",
     "New Password":"новый пароль",
     "Edit Account Details":"редактировать данные учетной записи",
     "Filter":"фильтры",
     "Check Validity":"Проверка доступа",
     "New Key":"Новый ключ",
     "Update Logs":"Обновить",
     "Change language":"изменение языка",
     "Select Listing":"Выбрать список",
     "Select City":"Выберите город",
     "Select One":"Select One",
     "Test Welcome Email":"Отправить тестовое приветственное письмо",
     "Test Access Email":"Отправить тестовое письмо доступа",
     "Contact Support":"Помощь",
     "Add":"Добавить",
     "Delete":"Удалить",
     "Delete Lock":" Удалить замок ",
     "Delete Home":"Удалить собственность",
     "Create PIN":" Создать ПИН ",
     "Create Bluetooth Key":"Создайте ключ Bluetooth",
     "Edit PIN":"Редактировать ПИН-код",
     "Edit Key Card":"Редактировать ключ-карту",
     "Confirm":" Подтвердите ",
     "Edit Master PIN":" Изменить Мастер-пин",
     "Disconnect Airbnb":"Отключить",
     "Connect Airbnb":"Соединить с Airbnb",
     "Connect Airbnb Message":"Пожалуйста, подключите igloohome к учетной записи первичного хоста Airbnb, а не к совладельцу.",
     "Back":"Назад",
     "Ok":"Ok",
     "Cancel":"Отмена",
     "Cancel Sync":"Отменить синхронизацию",
     "Retry":"Повторить",
     "Done":"Готово",
     "Load More":"Загрузить еще",
     "OR":"ИЛИ",
     "Send Key":"Отправьте ключ",
     "Close":"Закрыто",
     "Set Up Now":"Настроить сейчас",
     "Set Up Later":"Настроить позже",
     "FingerPrint Message":"Быстрый вход с помощью отпечатка пальца. Вы можете позднее внести изменения в 'Настройках учетной записи'.",
     "Touch Id Message":"Быстрый вход с помощью TOUCH ID. Вы можете позднее внести изменения в 'Настройках учетной записи'.",
     "Face Id Message":"Быстрый вход по Face ID. В любом случае Вы можете настроить вход позже в меню 'настройки аккаунта'.",
     "Press back again to exit App.":"Нажмите назад еще раз для выхода.",
     "Accept":"Accept",
     "Reject":"Reject",
     "Yes":"Yes",
     "No":"No"
  },
  "pairing":{
     "Pairing":"Синхронизация",
     "Start pairing":"Синхронизируйте Ваш замок",
     "Step 1":"Поднесите ладонь к клавиатуре для активации замка.",
     "Step 1 padlock":"Press any number to activate lock.",
     "Step 1 euroRetrofit":"Please keep the lock unlocked and hold the multi-function button until the lock is flashing blue.",
     "Step 1 keybox":"Пожалуйста, держите замок открытым и поместите ладонь по клавиатуре, чтобы активировать блокировку",
     "Keybox warning":" Пожалуйста, не отключайте клавиатуру до окончания синхронизации ",
     "Scan":"Выберите замок bluetooth, к которому хотите присоединиться.",
     "Next":"Далее",
     "Try Again":"Попробуйте снова",
     "Pairing in progress":"Идет сопряжение...",
     "Please wait":"Please wait...",
     "Almost done":"Almost done...",
     "Step 1: Select Property":"Шаг 1: Выберите объект",
     "Step 2: Select Lock Model":"Шаг 2: Выберите модель замка",
     "Step 3: Pair your device":"Шаг 3: Сопряжение устройства",
     "Step 3: Select Product ID":"Шаг 3: Выберите ID изделия",
     "PAIRING_STEP_1":"Снимите заднюю панель замка",
     "PAIRING_STEP_2":"Поднесите ладонь к клавиатуре для активации замка",
     "PAIRING_STEP_2_KEYBOX":"Пожалуйста, держите замок открытым и поместите ладонь по клавиатуре, чтобы активировать блокировку",
     "PAIRING_STEP_3":"Выньте и вставьте снова одну батарейку",
     "PAIRING_STEP_4_L":"Нажмите и удерживайте кнопку разблокировки две секунды",
     "PAIRING_STEP_4_B":"Нажмите и удерживайте клавишу # две секунды",
     "PAIRING_STEP_5_L":"Вы услышите 4 гудка после 2 гудков",
     "PAIRING_STEP_5_B":"Вы услышите 2 гудка",
     "I hear the beeps":"Я слышу звуковые сигналы",
     "PAIRING_LOCKBOX_STEP_1":"Поверните крышку корпуса батареек по часовой стрелку для того, чтобы открыть ее",
     "PAIRING_LOCKBOX_STEP_2":"Используйте острый предмет для того, чтобы нажать на кнопку сброса, которая находится между 3 и 4 слотом для батареек. Удерживайте ее две секунды.",
     "PAIRING_LOCKBOX_STEP_3":"Нажмите далее",
     "PAIRING_BOLT2_NON_FACTORY_STEP_1":" Расположите кнопку сброса, расположенную в правом верхнем отверстии задней панели передней части замка.",
     "PAIRING_BOLT2_NON_FACTORY_STEP_2":"Зажмите кнопку сброса острым предметом и удерживайте 20 секунд",
     "PAIRING_BOLT2_NON_FACTORY_STEP_3":"Если у Вас возникли вопросы, пожалуйста, зайдите на сайт igloohome на страницу Центра поддержки",
     "PAIRING_MORTISE_NON_FACTORY_STEP_1":" Найдите кнопку сброса, расположенную в правом нижнем углу батарейного отсека.",
     "PAIRING_MORTISE_NON_FACTORY_STEP_2":"Зажмите кнопку сброса вместе с клавишей # до звукового сигнала",
     "PAIRING_KEYBOX_2_STEP_1":"Open the Keybox 2 and unscrew the battery cover.",
     "PAIRING_KEYBOX_2_STEP_2":"Use a sharp object to press the reset button which falls between the 2nd and 3rd battery slots. Hold it for 2 seconds.",
     "PAIRING_PADLOCK_RESET_STEP_1":"Locate the reset button in the hole at the back after removing the battery cover.",
     "PAIRING_PADLOCK_RESET_STEP_2":"Trigger the reset button using a thin object and hold it for 3 seconds and you will hear a confirmation tone.",
     "PAIRING_BOLT2S_IGB4_RESET_STEP_1":"Hold on to [CLEAR] button and back body button that can be found below the thumbturn for 3 seconds and you will hear a confirmation tone.",
     "PAIRING_MORTISE_IGM2_RESET_STEP_1":"Hold on to [CLEAR] button and [R] button after removing the battery cover for 3 seconds and you will hear a confirmation tone.",
     "errors":{
        "There are no bluetooth devices detected in your network.":"Bluetooth устройства в вашей сети не найдены",
        "Try to turn bluetooth off and then on again.":"Попробуйте отключить bluetooth и включить снова",
        "We are unable to connect to the device selected.":"Невозможно подключиться к выбранному устройству",
        "The lock that you are trying to add has already been claimed by another user.":"Замок, который вы пытаетесь добавить уже используется другим пользователем",
        "Please get the previous owner to delete the lock. The delete lock option can be found under the 'Set Up Home' menu.":"Пожалуйста, попросите предыдущего владельца удалить замок. Параметр удаления блокировки можно найти в меню \"Настройка дом\"",
        "If you believe this to be in error, please contact Igloohome at support@igloohome.co":"Если появилась ошибка, пожалуйста, зайдите на сайт igloohome на страницу Центра поддержки",
        "NOT_IGLOOHOME":"Это не igloohome устройство оно не может быть синхронизировано с приложением igloohome",
        "Please try again.":" Попробуйте снова.",
        "Lock deactivated during pairing":"Замок деактивировался во время синхронизации",
        "Place palm over keypad to reactivate it":"Положите ладонь на клавиатуру для активации",
        "NETWORK_ERROR_MSG":"Обнаружилась ошибка. Пожалуйста, проверьте соединение с интернетом и попробуйте еще раз.",
        "ENSURE_LOCK_ON":" соединение с интернетом и попробуйте еще раз. ",
        "OWN_LOCK_ALREADY_PAIRED":" Установить фильтры.",
        "UNABLE_TO_COMPLETE_PAIRING_ERROR":"Мы обнаружили ошибку во время синхронизации",
        "The lock that you are trying to add has already been blocked.":"Замок, который вы пытаетесь добавить уже был заблокирован."
     }
  },
  "tabs":{
     "Active":"Активен",
     "Valid Keys":"Все действительные ключи",
     "Valid Keys New":"Все действующие ключи",
     "Inactive":"Неактивен",
     "Invalid Keys":"Все неактивные и использованные пин-коды",
     "Invalid Keys New":"Использованные ключи с истекшим сроком действия",
     "Pending":"В ожидании",
     "Pending Keys":"Все неподтвержденные ключи bluetooth и необновленные ПИН-коды. Пожалуйста, нажмите «Проверить доступ» для обновления статуса ПИН-кодов",
     "Pending Keys New":"Все новые и невостребованные ключи"
  },
  "settings":{
     "My Account":"Моя учетная запись",
     "My Preferences":"Избранное",
     "Notification Settings":"Настройки уведомлений",
     "Bluetooth Key Claimed":"Заявленный ключ-bluetooth",
     "Bluetooth Key Used":"Использованный ключ-bluetooth",
     "Vibration Feedback":"Вибрация",
     "Fingerprint Login":"Вход с помощью отпечатка пальца",
     "Face Id Login":"Вход с помощью Face ID",
     "Touch Id Login":"Вход с помощью Touch ID",
     "Language":"Язык",
     "Connect External Providers":" Установка связи ",
     "Reservation Welcome Email":" Приветственное письмо для гостя ",
     "Reservation Access Email":" Пин-код для гостя ",
     "Airbnb Connect Email Notifications":"Airbnb Connect Email Notifications",
     "hi":"Привет,",
     "My Details":"Мои данные",
     "Name, Contact":"Имя, контакты",
     "Battery Sync Reminder":"Напоминание об аккумуляторе",
     "Every X month":"Каждые X месяцев"
  },
  "checkbox":{
     "Unlock":"Разблокировать",
     "Pairing":"Синхронизация",
     "Reset":"Сброс",
     "Description: A - Z":"Описание: А-Я",
     "Description: Z - A":" Описание: Я-А",
     "Created: Earliest First":" Созданные: Сначала ранние ",
     "Created: Latest First":" Созданные: Сначала недавние ",
     "Bluetooth Key":" Ключ Bluetooth ",
     "Key Card":" Ключ-карта "
  },
  "menu":{
     "Home":"Дом",
     "Reservations":"Бронирования",
     "Visits":"Посещения",
     "Configuration":"Конфигурация",
     "Account Settings":"Настройки учетной записи",
     "Support":"Поддержка",
     "FAQ":"FAQ",
     "Logout":"Выйти"
  },
  "reserveDetail":{
     "Check In Time":"Время заезда",
     "Check Out Time":"Время выезда",
     "Send Access Email":"Письмо доступа"
  },
  "firmware":{
     "The update can take up to 10 minutes.":"The update can take up to 10 minutes.",
     "Please keep your internet connected with the app open and place your phone near your lock":"Please keep your internet connected with the app open and place your phone near your lock",
     "Please keep your internet connected with the app open and place your phone near your fob":"Please keep your internet connected with the app open and place your phone near your {{ecosystemType}}",
     "Please keep your internet connected with the app open and place your phone near your bridge":"Please keep your internet connected with the app open and place your phone near your {{ecosystemType}}",
     "Do not remove the batteries.":"Do not remove the batteries.",
     "Do not close your app.":"Do not close your app.",
     "If there is an error during update, please remove the batteries and put them back into the fob":"If there is an error during update, please remove the batteries and put them back into the {{ecosystemType}}.",
     "Unlock your lock and keep it open":"Unlock your lock and keep it open",
     "Please place your phone near your lock":"Please place your phone near your lock.",
     "Please place your phone near your fob":"Please place your phone near your {{ecosystemType}}.",
     "Please place your phone near your bridge":"Please place your phone near your {{ecosystemType}}.",
     "Updating Firmware":"Updating Firmware",
     "Firmware is up to date!":"Firmware is up to date!",
     "Current Firmware Version":"Current Firmware Version",
     "Update available!":"Update available!",
     "Firmware downloaded!":"Firmware downloaded!",
     "New Firmware Version":"New Firmware Version",
     "New Firmware available. Update Now.":"New Firmware available. Update Now.",
     "Please ensure that the lock is unlocked before you proceed.":"Please ensure that the lock is unlocked before you proceed.",
     "Step 1: Download Firmware":"Step 1: Download Firmware",
     "Step 2: Prepare your lock":"Step 2: Prepare your lock",
     "Step 3: Updating Firmware":"Step 3: Updating Firmware",
     "Step 2: Updating Firmware":"Step 2: Updating Firmware",
     "Step 1: Firmware Downloaded":"Step 1: Firmware Downloaded",
     "Step 3: Firmware Updated":"Step 3 : Firmware Updated",
     "IMPORTANT":"IMPORTANT",
     "update now":"Update Now",
     "Firmware update is not available yet":"Firmware update is not available yet.",
     "Do check again later":"Do check again later.",
     "firmware update":"firmware update",
     "Make sure the blue light on your Fob is flashing":"Make sure the blue light on your Key Fob is flashing.",
     "Please hold onto the settings button":"Please hold onto the settings button if the blue light on your Key Fob stops flashing."
  },
  "access":{
     "Access":"Доступ",
     "Access Summary":"Информация о доступе",
     "keycard issued":"Созданные ключи",
     "ekey issued":"ПИН-коды",
     "exclude unclaimed ekey":"За исключением невостребованных",
     "pincode created":"ПИН-код(ы) созданы",
     "exclude deleted pincode":"За исключением удаленных ПИН-кодов",
     "End time should be after start time":"End time should be after start time",
     "Start should be before end":"Дата начала должна наступать ранее даты окончания.",
     "The end date should not exceed one year from the start date":"Дата окончания не должна быть позднее одного года с даты начала.",
     "End date time should be current":"Необходимо указать правильную дату окончания",
     "Start date time should be current":"Необходимо указать правильное время окончания",
     "Start date time should be before end date time":"Время начала должно наступать ранее времени окончания",
     "End day must be within same week":"End day must be within same week",
     "End date\/time must be after start date\/time":"End date\/time must be after start date\/time",
     "The PIN code should be between 4 and 7 digits":"The PIN code should be between 4 and 7 digits",
     "The PIN code should be between 7 and 9 digits":"ПИН-код должен содержать от 7 до 9 символов.",
     "The PIN codes do not match":"ПИН-коды не совпадают.",
     "Please fill in both PIN codes":"Пожалуйста, укажите оба ПИН-кода.",
     "Who is this key card for":"Для кого этот ключ",
     "Card ID":"ID карты",
     "Card added":"Карта добавлена",
     "Ekey Details":"Детали ключа Bluetooth",
     "Pending start time":"Ожидание времени начала",
     "View all durations":"Показать все варианты",
     "All durations":"Все варианты",
     "Duration":"Продолжительность",
     "received pin code for certain duration":"Вы получили пин-код {{code}}. Он действителен до {{duration}}.",
     "received permanent or otp":"Вы получили {{pinType}} PIN-код {{code}}",
     "Enter a new name for this PIN":"Укажите новое название для этого ПИН-кода:",
     "LIMITED_ACCESS_VIEW":"Из-за плохого подключения к интернету, мы не можем получить список доступа. Пожалуйста, обновите страницу, если подключение к интернету доступно.",
     "Select an access type":"Выберите тип доступа",
     "Works forever":"Работает всегда",
     "Works for a period":"Работает в течение определенного времени",
     "Repeats forever":"Многократное использование",
     "Repeat Every":"Repeat Every",
     "Works only once":"Работает всего один раз",
     "Unlocks with phone":"Разблокировка ключом",
     "Unlocks with keycard":"Разблокировка картой",
     "Action Required":"Необходимые действия",
     "Please update activity log before registering key card.":"Пожалуйста, обновите журнал активности перед регистрацией ключа-карты.",
     "no access":"Нет {{statusAccess}} доступа к данному замку.",
     "Sync to update status":"Синхронизируйте для обновления статуса",
     "Revoke":"Отозвать",
     "Clear":"Очистить",
     "Revoke bluetooth key":"Удалить ключ Bluetooth?",
     "Delete Bluetooth Key Access":"Удаление доступа через Bluetooth",
     "Clear Pin Access":"Очистить PIN доступ",
     "Delete Pin Access":"Delete PIN Access",
     "Delete Keycard Access":"Delete Keycard Access",
     "Delete Access Message":"Вы уверены что хотите удалить {{name}} {{accessType}}?",
     "Clear Access Message":"Вы уверены что хотите очистить {{name}} {{accessType}}?",
     "Revoke Access Message":"Вы уверены что хотите отозвать {{name}} {{accessType}}?",
     "PIN not synced":"ПИН-код не синхронизирован",
     "Please Sync Status to update":"ПИН-код не синхронизирован. Пожалуйста, синхронизируйте для обновления.",
     "Share Bluetooth Key":"Поделитесь ключом Bluetooth",
     "Share Key":"Поделитесь ключом",
     "Scan key":"Отсканируйте QR код для получения ключа",
     "pincodes":"ПИН-коды",
     "out of 285 PINs created":"ПИН-коды: {{number}}",
     "Bluetooth keys and PIN codes issued":"Коды Bluetooth и ПИН-коды успешно созданы",
     "Delete key card":"Удалить ключ",
     "Share ekey message":"Только что я отправил(а) вам ключ igloohome Bluetooth. Для того чтобы получить ключ Bluetooth, пожалуйста, нажмите на данную ссылку. ",
     "permanent pin generated":"Постоянный PIN-код сгенерирован",
     "duration pin generated":"Временный PIN-код сгенерирован",
     "otp pin generated":"Одноразовый PIN-код сгенерирован",
     "duration ekey generated":"Сгенерирован ключ Bluetooth",
     "weekly pin generated":"Weekly PIN generated",
     "weekend pin generated":"Weekend PIN generated",
     "weekday pin generated":"Weekday PIN generated",
     "monthly pin generated":"Monthly PIN generated",
     "permanent nfc generated message":"Key card(s) added",
     "permanent pin generated message":"Пожалуйста, используйте PIN-код в течение 24 часов для активации.",
     "weekly pin generated message":"Please use PIN within 24 hours from Start Time to activate it.",
     "weekday pin generated message":"Please use PIN within 24 hours from Start Time to activate it.",
     "weekend pin generated message":"Please use PIN within 24 hours from Start Time to activate it.",
     "monthly pin generated message":"Please use PIN within 24 hours from Start Time to activate it.",
     "duration pin generated message":"Пожалуйста, используйте PIN-код в течение 24 часов  с момента старта для активации.",
     "otp pin generated message":"Пожалуйста, используйте PIN-код в течение {{number}} часов до того как он станет недействителен.",
     "duration ekey generated message":"Пожалуйста, имейте ввиду, что код действителен в течение {{number}} часа.",
     "Don't remind me again":"Не напоминать снова",
     "Every Week":"Every Week",
     "Every Month":"Every Month",
     "Every Monday to Friday":"Every Monday to Friday",
     "Every Saturday and Sunday":"Every Saturday and Sunday",
     "Default":"Default",
     "Custom":"Custom",
     "Generate PIN remotely":"Generate PIN remotely",
     "Customize PIN via Bluetooth":"Customize PIN via Bluetooth",
     "Set your own PIN via bluetooth":"Set your own PIN via bluetooth",
     "Protips":"Protips",
     "All key cards look the same":"All key cards look the same so don't forget to label them!",
     "Step 1: Get your key card(s) ready":"Step 1: Get your key card(s) ready",
     "Step 2: Tap key card(s) on lock":"Step 2: Tap key card(s) on lock",
     "Step 3: Hold on to unlock until close sign appears":"Step 3: Hold on to 🔓 until 'CLOSE' sign appears.",
     "Step 4: Press and hold the lock icon until you hear a beep":"Step 4: Press and hold the 'lock' icon until you hear a beep",
     "key card(s) added":"Key card(s) added:",
     "You can add multiple cards at once":"You can add multiple cards at once.",
     "Start":"Start",
     "Ready":"I'm Ready",
     "Enter name":"Enter name",
     "Name X cards":"Name {{number}} card(s)",
     "SMS Pin Code":"Your {{pintype}} code is {{pincode}}.",
     "SMS Pin Validity":"Valid \nFROM {{from}} \nTO {{to}}.",
     "SMS Pin Validity Effective":"Valid \nEFFECTIVE FROM {{effective}} \nEVERY {{every}} \nFROM {{from}} \nTO {{to}}.",
     "SMS Pin Activate":"To Activate, please use once by: {{date}}",
     "SMS Pin Use":"Please use by: {{date}}"
  },
  "lock":{
     "Locks":"Замки",
     "Pair a new lock":"Привязать новый замок",
     "Other igloohome locks":"Другие замки igloohome",
     "Lock paired":"Замок синхронизирован!",
     "Edit lock name":"Изменить имя замка",
     "Enter lock name":"Введите имя замка",
     "Add Key Card":"Добавить ключ-карту",
     "Ensure that your bluetooth is turned on":"Убедитесь, что на вашем устройстве включен Bluetooth",
     "On the lock keypad, enter":"На клавиатуре введите",
     "Tap your key card (s) on the key card reader":"Приложите один или несколько ключей-карт к считывателю.",
     "Enter # on the keypad":"Введите номер на клавиатуре",
     "Press [Sync] below to update":"Нажмите [Синхр.] для синхронизации",
     "Sync":"Синхр.",
     "Unable to Sync":"Ошибка синхронизации",
     "Create permanent PIN":"Создать постоянный ПИН-код",
     "Create duration PIN":"Создать временный ПИН-код",
     "Create one time PIN":"Создать одноразовый ПИН-код",
     "Create Bluetooth key":"Создать Bluetooth-ключ",
     "Create recurring PIN":"Create recurring PIN",
     "Type of recurring PIN":"Type of recurring PIN",
     "other(s)":"другой(ие)",
     "Are you sure you want to delete":"Вы уверены, что хотите удалить {{name}}",
     "Enter a new name for this lock":"Укажите новое имя для этого замка",
     "Status":"Статус",
     "Go near lock":"Пожалуйста, поднесите устройство к замку.",
     "Last updated":"Замок активирован",
     "Lock updated":"Замок активирован",
     "Last synced":"Последняя синхронизация",
     "Unable to check":"Невозможно установить обновление. Пожалуйста, попробуйте снова.",
     "Battery Status Unavailable":"Информация о заряде батареи недоступна",
     "Lock Name":"Имя замка",
     "Associated Property(s)":"Связанный(е) объект(ы)",
     "Unpair lock from phone":"Отвязать замок от телефона",
     "Delete All PINs":"Удалить все ПИН-коды",
     "Delete all PINs except for Master PIN":"Удалить все ПИН-коды за исключением мастер-кода",
     "RESET_LOCK_CONFIRM_TITLE":" Удалить все ПИН-коды?",
     "RESET_LOCK_CONFIRM_MSG":" Это должно быть сделано с помощью Bluetooth. Удалятся все ПИН-коды кроме Мастер-пина.",
     "LOCK_RESET_SUCCESS_MSG":" Настройки замка сброшены. Вы можете ввести новые пин-коды. Старые больше не действуют.",
     "General":"Общие",
     "Bluetooth Settings":"Настройки Bluetooth",
     "Quick Unlock":"Быстрая разблокировка",
     "Auto Relock":"Auto Relock",
     "Sensor Relock Timer":"Время повторной блокировки датчика",
     "Custom Relock Timer":"Custom Relock Timer",
     "Security lockout":"Блокировка в целях безопасности",
     "Volume":"Громкость",
     "Set Volume":"Set Volume",
     "Battery Sync Reminder":"Напоминание о синхронизации аккумулятора",
     "Sync to delete":"Синхронизируйте для удаления",
     "Delete Lock Message":"Place your phone near the lock to complete the deletion process.",
     "CONFIRM_DELETE_TEMPLATE":"Вы уверены, что хотите удалить этот замок?  Обратите внимание, что коды, созданные ранее, могут по-прежнему сохраняться на замке.",
     "Delete Lock Fail Message":"{{lockName}} is connected to {{providerName}} listing and cannot be removed. Please disconnect {{providerName}} listing before deleting {{lockName}}.",
     "Never relock":"Never relock",
     "Always relock":"Always relock",
     "seconds":"seconds",
     "second(s)":"second(s)",
     "second":"second",
     "Set number of seconds":"Set number of seconds",
     "Enter number of seconds":"Enter number of seconds",
     "Apply":"Apply",
     "sec":"Sec",
     "Sensor relock can be customised from 1 to 180 seconds.":"Auto relock can be customised from 1 to 180 seconds.",
     "Not enabled":"Not enabled",
     "Level":"Level",
     "Attempt":"Attempt",
     "Attempts":"Attempts",
     "attempt(s)":"attempt(s)",
     "Deactivate lockout":"Deactivate lockout",
     "On":"On",
     "Off":"Off",
     "No Reminder":"No Reminder",
     "Relock Reminder Alert":"Relock Reminder Alert",
     "Firmware Version":"Firmware Version",
     "Calibrate Lock":"Calibrate Lock",
     "Lock Rotation":"Lock Rotation",
     "Step 1: Manually calibrate lock rotation":"Step 1: Manually calibrate lock rotation",
     "Step 2: Keep your door closed":"Step 2: Keep your door closed",
     "We will attempt the lock rotation you selected to see if it works for your door":"We will attempt the lock rotation you selected to see if it works for your door",
     "Step 3: Lock calibrated":"Step 3: Lock calibrated",
     "Calibration in progress...":"Calibration in progress...",
     "Prepare your lock":"Prepare your lock",
     "Calibrating":"Calibrating",
     "Calibration":"Calibration",
     "This lock rotation doesn’t work for your door.":"This lock rotation doesn’t work for your door."
  },
  "configuration":{
     "List Of Homes":"Список собственности",
     "Which property(s) would you like to pair the lock with?":"К какому объекту вы бы хотели привязать этот замок?",
     "You do not have any properties yet.":"Вы не создали ни одного объекта.",
     "Add property":"Добавить объект",
     "Home(s)":"Собственность",
     "All Properties":"Все объекты",
     "Pinned Locks":"Замки с кодами"
  },
  "alert":{
     "Invalid Selection":"Неправильный выбор",
     "Please select listings that belongs to the same region.":"Пожалуйста, выберите объект, который находится в том же регионе.",
     "Unable to re-associate to a property of different region":"Do note that you are unable to re-associate to a property of different region. Please re-pair to do that.",
     "Unable to Remove Home":"Невозможно убрать элемент",
     "Unable to Remove Home message":"{{listingName}} привязан к {{provider}} и не может быть удален. Пожалуйста, перейдите в раздел бронирований, и отвяжите {{listingName}} перед удалением.",
     "Unable to Remove Home message with lock":"{{listingName}} привязано к замку и не может быть удалено. Пожалуйста, отвяжите {{listingName}} перед удалением {{listingName}}."
  },
  "provider":{
     "Disconnect Listing":"Удаление списка",
     "Disconnect Airbnb Listing Message":"Вы уверены, что хотите отключить список, связанный с Airbnb. Все бронирования будут стерты. Все бронирования на будущее перестанут действовать.",
     "guest(s)":"гость(ие)",
     "Access Methods":"Варианты доступа",
     "listings":"listings",
     "All Connected":"All Connected",
     "All":"All",
     "Generate PIN(s) now":"Generate PIN(s) now"
  },
  "support":{
     "Help & Support":"Помощь и поддержка",
     "Youtube Channel":"Youtube-канал"
  },
  "Managing access on the go":"Управляйте доступом везде и всегда.",
  "Reservation Details":"Детали бронирований",
  "Edit Reservation":"Изменить бронирование",
  "Connect":" соединить ",
  "Disconnect":" Отключить ",
  "Select Listing":"Выбрать список",
  "Select a home to connect":"Выберите собственность для подключения",
  "Guest":"Гость",
  "Timezone":"Часовой пояс",
  "Profile":" Профиль ",
  "External Reservation":"Источник",
  "Update PIN Send Time Message":"Письмо доступа для {{guestName}} будет отправлено на {{sendAccessEmail}} час (ы) до времени прибытия.",
  "Share":"Поделиться",
  "Skip":"Skip",
  "Send PIN Email Now":"Отправить ПИН-код по почте",
  "No Reservation Found":"Это бронирование не найдено или удалено.",
  "PIN Email Sent With Time":" Письмо доступа было отправлено {{time_ago}}",
  "PIN Email Send Time Now":"Отправить письмо доступа сейчас",
  "PIN Email Send Time Future":"Письмо доступа будет отправлено через {{time_future}}",
  "Reservation Share Msg":"Дорогой {{guestName}}, вот ваш достуа к {{listingName}} с {{startDate}} по {{endDate}}.\n{{access_pin_list}}",
  "Reservation Share Msg Access Pin Partial":"Пин-код для{{lockName}}: {{pinCode}}",
  "Name":" Имя",
  "Region":" Регион ",
  "Connect External Providers":" Установка связи ",
  "Listing Details":"Детали списка",
  "Select Your Product":"Выберите свой продукт",
  "Other igloohome locks":"Другие замки igloohome",
  "Select Others":"Выбрать другие",
  "Issue new key for":" Добавить новый ключ для ",
  "Family":" Семьи ",
  "Friends":" Друзей ",
  "Visitors":" Посетителей ",
  "Tenants":" Съемщиков ",
  "Services":"Службы",
  "Staff":" Персонала ",
  "Guests":" Гостей ",
  "Others":" Других ",
  "Key Card Holder":" Держателей карт ",
  "Access Type":" Тип доступа",
  "Repeat this PIN":"Repeat this PIN",
  "Start Time":" Время начала",
  "End Time":" Время окончания ",
  "Start Date":" Дата начала",
  "End Date":" Дата окончания",
  "Now":" Сейчас",
  "Start Day":"Start Day",
  "Start Day of Month":"Start Day of Month",
  "End Day of Month":"End Day of Month",
  "End Day":"End Day",
  "Effective Start Date":"Effective Start Date",
  "PIN":"ПИН",
  "One Time PIN":"Одноразовый ПИН",
  "Permanent PIN":"постоянный ПИН",
  "Duration PIN":"Например, тот для кого код",
  "Weekly PIN":"Weekly PIN",
  "Weekday PIN":"Weekday PIN",
  "Weekend PIN":"Weekend PIN",
  "Monthly PIN":"Monthly PIN",
  "Repeats Sat and Sun":"Repeats Sat and Sun",
  "Repeats Mon to Fri":"Repeats Mon to Fri",
  "Repeats every Week":"Repeats every Week",
  "Repeats every Month":"Repeats every Month",
  "Recurring PIN":"Постоянный PIN",
  "Bluetooth Key":" Ключ Bluetooth ",
  "Guest Bluetooth Keys":"Bluetooth-ключи для гостей",
  "Keycard":"Ключ-карта",
  "Add duration placeholder":"Например, для кого этот код",
  "Lock Owner":"Владелец замка",
  "Master PIN":"Мастер-пин",
  "Master pin never expires":"Срок действия мастер пин-кода никогда не истекает",
  "Remove from List":"Убрать из списка",
  "Add New Home":"Добавить новую собственность",
  "Name your home":"Название вашей собственности",
  "Edit your home":"Редактировать вашу собственность",
  "Edit":"Редактировать",
  "Refreshing":"EN-Refreshing...",
  "Pull to refresh":"EN-Pull to refresh...",
  "Loading more data":"EN-Loading more data...",
  "Enter 7-9 digit PIN":" Введите 7-9 цифр ",
  "Repeat PIN":" Повторите Пин-код ",
  "PIN code placeholder":" Введите Пин-код ",
  "Re-enter PIN code":" Введите Пин-код ",
  "Connect Airbnb Listing":"Подключить объявление Airbnb",
  "Connect Your AirBnb Listing":"Подключите ваше объявление AirBnb",
  "Select Airbnb Listing":"Выбрать объявление Airbnb",
  "Day":"День",
  "Days":"Дни",
  "Month":"Месяц",
  "Months":"Месяцы",
  "Hours":"Часы",
  "Hour":"Час",
  "Minutes":"Минуты",
  "Before":"За",
  "Select send PIN time":"Время по умолчанию для вашего гостя (ов) для получения электронной почты для доступа будет за 1 час до регистрации. Чтобы изменить это, просто выберите число (в часах), которое вы хотите, чтобы гость (ы) получал электронную почту доступа.",
  "Select send PIN time2":"Please select the number of hour(s) before check in time for your guests to receive their access message. The default is 1 hour.",
  "hour(s) before check in time":"час до заезда",
  "No data found":"Данные не найдены",
  "Lock Info":"Информация",
  "Basic Unlock":"Базовая разблокировка",
  "Basic":"Базовый",
  "Logs":"Логи",
  "Settings":"Настройки",
  "Lock Settings":"Настройки замка",
  "Issue Access":"Настройки доступа",
  "Activity Log":"Журнал активности",
  "Igloohome Help Center":"Центр поддержки igloohome",
  "Welcome to igloohome":"Добро пожаловать в igloohome",
  "Receive bluetooth key":"Получить ключ Bluetooth",
  "Pair new lock":"пара новый замок",
  "Request Instant Access":"Request Instant Access",
  "Go to visit page":"Перейти на страницу посещения",
  "Add lock":"Добавить замок",
  "Manage Homes":"Управление собственностью",
  "Claim Bluetooth Key":"Задайте ключ Bluetooth",
  "Manage Locks":"Управление замками",
  "Scan QR code to add key":"Отсканируйте QR код для добавления ключа",
  "Customise email message":"Чтобы проверить приветствие или адрес электронной почты, который будет отправлен вашему гостю, нажмите кнопку «Проверить электронную почту» или «Проверить доступ к электронной почте». Электронная почта будет отправлена ​​на ваш зарегистрированный адрес электронной почты. Чтобы настроить электронную почту для доступа, нажмите кнопку «Поддержка контактов».",
  "BTKEY_UNLOCK":"{{firstName}} {{lastName}} {{ekeyName}} разблокировал замок с помощью ключа Bluetooth.",
  "EASY_UNLOCK":"Вы открыли замок с помощью простой разблокировки.",
  "BASIC_UNLOCK":" Вы открыли замок с помощью обычной разблокировки.",
  "CREATE_PINCODE":"Вы создали пин-код на {{durationCode}}.",
  "CREATE_PINCODE_WITH_PINTYPE":"Вы создали {{pinType}}.",
  "CREATE_PINCODE_WITH_PINTYPE_VIA_BLUETOOTH":"You have created a {{pinType}} via Bluetooth.",
  "CREATE_PINCODE_DURATION":"Вы создали пин-код, который действует с {{start}} по {{end}}.",
  "CREATE_PINCODE_DURATION_VIA_BLUETOOTH":"You have created a PIN code valid from {{start}} to {{end}} via Bluetooth.",
  "PAIR":"Вы синхронизировали замок.",
  "RESET":"Вы сбросили настройки замка и удалили пин-коды.",
  "TODAY":"EN-TODAY",
  "YESTERDAY":"EN-YESTERDAY",
  "LOG_CHANGE_MASTER_PIN":"EN-LOG_CHANGE_MASTER_PIN",
  "LOG_ENABLE_AUTO_RELOCK_VIA_BLUETOOTH_SIMPLE":"EN-LOG_ENABLE_AUTO_RELOCK_VIA_BLUETOOTH_SIMPLE",
  "LOG_ENABLE_AUTO_RELOCK_VIA_BLUETOOTH_EXTENDED":"EN-LOG_ENABLE_AUTO_RELOCK_VIA_BLUETOOTH_EXTENDED",
  "LOG_DISABLE_AUTO_RELOCK_VIA_BLUETOOTH":"EN-LOG_DISABLE_AUTO_RELOCK_VIA_BLUETOOTH",
  "LOG_CHANGE_INCORRECT_PIN_LOCKOUT_COUNT_VIA_BLUETOOTH":"EN-LOG_DISABLE_AUTO_RELOCK_VIA_BLUETOOTH",
  "LOG_DISABLE_INCORRECT_PIN_LOCKOUT_COUNT_VIA_BLUETOOTH":"Security Lockout Attempts has been disabled",
  "LOG_CHANGE_VOL_VIA_BLUETOOTH":"EN-LOG_DISABLE_AUTO_RELOCK_VIA_BLUETOOTH",
  "LOG_PIN_DELETE":"A PIN code \"{{pinDescription}}\" was deleted from the lock.",
  "LOG_PIN_UNLOCK_MASTER":"Замок открыт мастер пин-кодом.",
  "LOG_PIN_UNLOCK_GUEST":"Пин-код {{guestName}} был использован для разблокировки.",
  "LOG_PIN_CHANGE_GUEST_FROM_KEYPAD":"Пин-код {{guestName}} был изменен с помощью клавиатуры замка",
  "LOG_PIN_DELETE_GUEST_FROM_KEYPAD":"Пин-код {{guestName}} был удален с помощью клавиатуры.",
  "LOG_PIN_UNLOCK_NO_PINTYPE":"Пин-код \"{{pinDescription}}\" был использован для разблокировки.",
  "LOG_PIN_UNLOCK":"Пин-код {{pinType}} \"{{pinDescription}}\" был использован для разблокировки.",
  "LOG_PIN_CHANGE_FROM_KEYPAD":"Пин-код \"{{pinDescription}}\" был использован для разблокировки.",
  "LOG_PIN_DELETE_FROM_KEYPAD":"Пин-код \"{{pinDescription}}\" был удален с помощью клавиатуры.",
  "LOG_PIN_UNLOCK_FAILED":" Был введен неверный ПИН \"{{pinCodeNumber}}\".",
  "LOG_DELETE_ALL_PINS_FROM_KEYPAD":"Все пин-коды были удалены с помощью клавиатуры.",
  "LOG_PIN_LOCK_BATTERIES_CHANGED":"Произошла замена батареек. Новый уровень заряда: {{level}}%",
  "LOG_ENABLE_TIME_AUTOLOCK":"Таймер Re-lock был установлен на {{relockTime}}.",
  "LOG_DISABLE_TIME_AUTOLOCK":" Таймер Re-lock был отключен.",
  "LOG_ENABLE_SENSOR_AUTOLOCK":"Сенсор Re-lock был включен.",
  "LOG_DISABLE_SENSOR_AUTOLOCK":" Сенсор Re-lock был отключен.",
  "LOG_LOCK_VOLUME":"Громкость замка была установлена на {{volume}}.",
  "LOG_NFC_PIN_SET":"Был добавлен четырехзначный ПИН безопасности {{nfcPin}}.",
  "LOG_NFC_REGISTERED":"Ключ-карта {{nfcCardId}} был добавлен.",
  "LOG_NFC_REGISTERED_NAME":"Key Card \"{{name}}\" has been added.",
  "LOG_NFC_DEREGISTERED":" Ключ-карта {{nfcCardId}} был удален.",
  "LOG_NFC_DEREGISTERED_NAME":" Ключ-карта \"{{name}}\" был удален.",
  "LOG_NFC_UNLOCK":" Ключ-карта {{nfcCardId}} был использован для разблокировки.",
  "LOG_NFC_UNLOCK_NAME":" Ключ-карта \"{{name}}\" был использован для разблокировки.",
  "AUTO_RELOCK_AFTER_OPENING_AND_CLOSING_LOCK":"Lock has auto-relocked after closing.",
  "AUTO_RELOCK_WITHOUT_FIRST_OPENING_LOCK":"Lock has auto-relocked without opening.",
  "LOCK_VIA_KEYPAD_OR_BUTTON":"You have locked the lock via keypad or function button.",
  "RELOCK_ALARM_DISABLED":"Relock Reminder Alert has been disabled.",
  "RELOCK_ALARM_ENABLED":"Relock Reminder Alert has been set to {{seconds}} seconds.",
  "Attempted_BREAK_IN":"Intrusion detected on the lock. Please check immediately.",
  "DELETE_FINGERPRINT":"Fingerprint \"{{description}}\" has been deleted.",
  "ADD_FINGERPRINT":"Fingerprint \"{{description}}\" has been added.",
  "UNLOCK_VIA_FINGERPRINT":"Fingerprint \"{{description}}\" was used to unlock the lock.",
  "INVALID_FINGERPRINT":"An invalid Fingerprint was attemped.",
  "UNLOCK_VIA_BUTTON":"You have unlocked the lock via the function button.",
  "LINK_FOB":"Key Fob \"{{name}}\" has been added to the lock.",
  "UNLINK_FOB":"Lock has been unlinked from the Key Fob \"{{name}}\"",
  "BLOCK_FOB":"Key Fob \"{{name}}\" has been blocked from the lock.",
  "DELETE_FOB_FROM_LOCK":"Key Fob \"{{name}}\" has been deleted from the lock.",
  "UNLOCK_FOB":"Key Fob \"{{name}}\" was used to unlock the lock.",
  "LOCK_WITH_FOB":"Key Fob \"{{name}}\" was used to lock the lock.",
  "LOCK_VIA_KEY_OR_THUMBTURN":"You have Locked via physical key or thumb turn.",
  "UNLOCK_VIA_KEY_OR_THUMBTURN":"You have Unlocked via physical key or thumb turn.",
  "You have successfully changed your account details":"Вы успешно изменили данные вашей учетной записи",
  "You have successfully changed your password":"Вы успешно изменили ваш пароль",
  "You have successfully changed your settings":"Вы успешно изменили ваши настройки",
  "You have successfully claimed your bluetooth key":"Вы успешно получили ваш Bluetooth-ключи",
  "This lock has been added to favourite list":"Замок был добавлен в избранное",
  "This lock has been removed from favourite list":"Замок был удален из избранного",
  "You have successfully sync the lock":"Вы успешно синхронизировали замок",
  "You have successfully disconnected from Airbnb account":"Вы успешно отключились от учетной записи в Airbnb",
  "Your action was successful":"Ваше действие успешно выполнено",
  "UNLOCK_BY_EKEY_TITLE":"Доступ к замку",
  "UNLOCK_BY_EKEY_MSG":"%1$@ разблокировал %2$@ Bluetooth ключом.",
  "EKEY_CLAIMED_TITLE":"Bluetooth ключ принят",
  "EKEY_CLAIMED_MSG":"%1$@ получил Ваш Bluetooth ключ для %2$@",
  "WELCOME_EMAIL_PUSH_TITLE":"Приветственное Письмо для Гостя",
  "WELCOME_EMAIL_PUSH_MSG":"%1$@ получил Приветственное Письмо для Вашего дома %2$@.",
  "PIN_EMAIL_PUSH_TITLE":"Письмо с кодом доступа для Гостя",
  "PIN_EMAIL_PUSH_MSG":"%1$@ получил письмо с кодом доступа к Вашему дому %2$@.",
  "UNLOCK_BY_EKEY_TOAST":"{{val1}} разблокировал {{val2}} Bluetooth ключом.",
  "EKEY_CLAIMED_TOAST":"{{val1}} получил Ваш Bluetooth ключ для {{val2}}",
  "WELCOME_EMAIL_PUSH_TOAST":"{{val1}} получил Приветственное Письмо для Вашего дома {{val2}}.",
  "PIN_EMAIL_PUSH_TOAST":"{{val1}} получил письмо с кодом доступа к Вашему дому {{val2}}.",
  "Forgot Password Success Title":"Запрос пароля успешно выполнен",
  "Forgot Password Success Message":"Письмо с инструкцией по восстановлению пароля отправлено. Перейдите по ссылке для задания нового пароля.",
  "Register Success Title":"Email Verification",
  "Register Success Message":"A verification email has been sent to {{email}}. Please verify your account and log in.",
  "I have agreed to":"I have agreed to ",
  "terms of Service":"Terms of Service",
  "and":"and ",
  "Privacy Policy":"Privacy Policy",
  "By clicking Sign In, you acknowledge you have agreed to":"By clicking Sign In, you acknowledge you have agreed to ",
  "Pin Copied":"Pin copied",
  "fingerprint":{
     "Fingerprint":"Fingerprint",
     "Unlocks with fingerprint":"Unlocks with fingerprint",
     "Step 1: Get ready to scan":"Step 1: Get ready to scan",
     "Ensure that your finger is clean and dry.":"Ensure that your finger is clean and dry.",
     "Step 3: Scan your fingerprint":"Step 3: Scan your fingerprint",
     "Scan required":"Scan required",
     "Ensure that you press your finger on the scanner firmly":"Ensure that you press your finger on the scanner firmly",
     "I'm Done":"I'm Done",
     "Step 2: Name your fingerprint":"Step 2: Name your fingerprint",
     "There will be 3 scans required to register your fingerprint.":"There will be 3 scans required to register your fingerprint.",
     "Always place your finger at the center of the scanner for optimal perfomance.":"Always place your finger at the center of the scanner for optimal perfomance.",
     "Please try again. Do place your finger at the center firmly.":"Please try again. Do place your finger at the center firmly.",
     "Delete Fingerprint Access":"Delete Fingerprint Access",
     "Edit Fingerprint":"Edit Fingerprint",
     "Add Fingerprint":"Add Fingerprint",
     "Fingerprint ID":"Fingerprint ID",
     "Fingerprint added":"Fingerprint added"
  },
  "fob":{
     "You do not have any paired fobs.":"You do not have any paired {{ecosystemType}}.",
     "Manage fobs":"Manage {{ecosystemType}}",
     "Add Fob":"Add {{ecosystemType}}",
     "step1":"Step 1 : Prepare your {{ecosystemType}} for pairing",
     "step2":"Step 2 : Select Key Fob ID",
     "Enter Fob name":"Enter {{ecosystemType}} name",
     "Fob paired":"Key Fob paired!",
     "Link Fob":"Link {{ecosystemType}}",
     "Would you like to link your Fob to a lock now":"Would you like to link your {{ecosystemType}} to a lock now?",
     "Link lock from Fob":"Link lock from {{ecosystemType}}",
     "step1 link fob":"Step 1 : Get your {{ecosystemType}} ready",
     "step2 link fob":"Step 2 : Select a lock to link",
     "step3 link fob":"Step 3 : Linking your {{ecosystemType}} to {{lockname}}",
     "Linking Fob":"Linking {{ecosystemType}}",
     "Fob Linked":"{{ecosystemType}} Linked",
     "Fob successfully linked with":"{{ecosystemType}} successfully linked with \"{{lockname}}\"",
     "Fob Settings":"{{ecosystemType}} Settings",
     "Are you sure you want to unlink from":"Are you sure you want to unlink {{lock}} from {{fobname}}?",
     "Get your Fob ready":"Get your {{ecosystemType}} ready",
     "Successfully Deleted":"\"{{fobname}}\" Successfully Deleted",
     "Delete Fob":"Delete {{ecosystemType}}",
     "Unpair Fob from phone":"Unpair Key Fob from your phone",
     "Edit Fob Name":"Edit {{ecosystemType}} Name",
     "Fob name":"{{ecosystemType}} name",
     "Are you sure you want to delete Fob_name for all your locks":"Are you sure you want to delete {{fobname}} access for all your locks?",
     "Pair your Fob":"Pair your {{ecosystemType}}",
     "I lost my fob":"I lost my {{ecosystemType}}",
     "Lost your Fob":"Lost your {{ecosystemType}}?",
     "What to do when you have lost your Fob":"What to do when you have lost your {{ecosystemType}}",
     "When you lost your fob, you can revoke access to immediately to secure your place.":"When you lost your Key Fob, you can revoke access to immediately to secure your place.",
     "Revoke Fob access":"Revoke {{ecosystemType}} access",
     "lostFobRevoke":"You will no longer be able to unlock your linked lock(s) using the revoked {{ecosystemType}}.",
     "Step 1: Revoke Fob access":"Step 1: Revoke {{ecosystemType}} access",
     "Step 2: Delete Fob permanently":"Step 2: Delete {{ecosystemType}} permanently",
     "Permanently delete Fob from your account.":"Permanently delete your {{ecosystemType}} from your account.",
     "Are you sure you want revoke fob access for Lock_Name?":"Are you sure you want revoke {{ecosystemType}} access for {{Lock_Name}}?",
     "Remove Lock_Name from your Fob":"Remove {{Lock_Name}} from your Key Fob",
     "Lock successfully removed from your Fob.":"Lock successfully removed from your {{ecosystemType}} .",
     "Delete your Fob":"Delete your {{ecosystemType}}",
     "Your linked access will be removed automatically after you sync these access":"Your linked access will be removed automatically after you sync these access :",
     "Please wait while we remove all your Fob data":"Please wait while we remove all your {{ecosystemType}}’s data.",
     "Fob sucessfully removed":"Key Fob sucessfully removed.",
     "Please wait while we removing your lock from fob":"Please wait while we removing your lock from Key Fob.",
     "fob not found":"Device not found.",
     "fob aleready paired":"This Key Fob has already been paired.",
     "Delete fob alert":"Please unlink your linked lock(s) before deleting your device.",
     "This lock(s) has been deleted":"This lock has been deleted, please unlink it from the {{ecosystemType}}",
     "Fob has been blacklisted from the lock.":"Key Fob \"{{fobs_name}}\" has been blacklisted from the lock.",
     "Make sure your Fob is discoverable":"Make sure your {{ecosystemType}} is discoverable",
     "To start using your Fob, ensure the blue light is no longer flashing by holding onto the settings button":"To start using your Key Fob, ensure the blue light is no longer flashing by holding onto the settings button."
  },
  "bridge":{
     "Manage Bridge":"Manage {{ecosystemType}}",
     "You do not have any paired Bridge":"You do not have any paired {{ecosystemType}}.",
     "Add Bridge":"Add {{ecosystemType}}",
     "Pair your Bridge":"Pair your {{ecosystemType}}",
     "Pairing Bridge":"Pairing Bridge",
     "Step 1 Bridge pairing":"Step 1: Prepare your {{ecosystemType}} for pairing",
     "Bridge pairing message":"Connect your Bridge to power using the provided USB-C cable. \n \nPress the multi-function button once to wake the Bridge up.",
     "Step 2 Bridge pairing":"Step 2: Select Bridge ID",
     "You are connected to wifi":"You are connected to \"{{wifi_ssid}}\"",
     "Your phone is not connected to Wi-Fi":"Your phone is not connected to Wi-Fi",
     "Connected to wifi message":"Please enter your Wi-Fi password. Make sure you use a 2.4Ghz network.",
     "Step 3 Bridge pairing":"Bridge Paired!",
     "Not connected to wifi message":"Please connect your phone to your Wi-Fi to continue pairing.",
     "Incorrect wifi password message":"Incorrect password for \"{{wifi_ssid}}\"",
     "Set-up manually":"Set-up manually",
     "Skip this step":"Skip this step",
     "Skip wifi configuration":"Skip Wi-Fi configuration?",
     "Skip wifi configuration message":"This is an essential step in the Bridge setup process.",
     "Go to settings":"Go to settings",
     "Security":"Security",
     "Private Address":"Private Address",
     "Security types":"Security types",
     "None":"None",
     "WPA Enterprise":"WPA Enterprise",
     "WPA2 Enterprise":"WPA2 Enterprise",
     "WPA3 Enterprise":"WPA3 Enterprise",
     "Enter Bridge name":"Enter {{ecosystemType}} name",
     "Bridge name placeholder":"e.g. Home Bridge",
     "Link bridge to lock message":"Would you like to link your {{ecosystemType}} to a lock now?",
     "Current linked lock":"You currently have \"{{linkedLock}}\" locks linked",
     "Join network":"Join network",
     "Diagnostic":"Diagnostic",
     "wifi connected":"You are connected to \"{{ssid}}\"",
     "configuring wifi":"Configuring WiFi",
     "Step 1 link lock bridge":"Step 1 : Select a lock to link",
     "Step 2 link lock bridge":"Step 2 : Linking your {{ecosystemType}} to {{LockName}}",
     "Bridge successfully linked":"{{ecosystemType}} successfully linked with \"{{lockname}}\"",
     "You now have locks linked":"You now have  {{numberlock}}\/10 locks linked",
     "Diagnostics":"Diagnostics",
     "Check network status":"Check network status",
     "Remove Bridge name":"Remove {{bridgeName}}",
     "What to do when you have lost your Bridge":"What to do when you have lost your {{ecosystemType}}",
     "Remove Bridge from account":"Remove Bridge from account",
     "Allow Bridge to be paired to another account":"Allow Bridge to be paired to another account",
     "Bridge name":"{{ecosystemType}} name",
     "Delete Bridge":"Delete {{ecosystemType}}",
     "Bridge Settings":"{{ecosystemType}} Settings",
     "Delete bridge alert":"Are you sure you want to delete {{acc_name}} access for all your locks?",
     "I lost my bridge":"I lost my {{ecosystemType}}",
     "Unpair bridge from phone":"Unpair Bridge from your phone",
     "Edit Bridge Name":"Edit {{ecosystemType}} Name",
     "Bridge Wi-Fi Configuration":"Bridge Wi-Fi Configuration",
     "Configure Bridge Wi-Fi so you can start using your lock remotely":"Configure Bridge Wi-Fi so you can start using your lock remotely.",
     "Wifi Configuration message":"For some devices, we might ask you to enable location services to identify the SSID of the Wi-Fi that your phone’s connected to.",
     "Start Wi-Fi configuration":"Start Wi-Fi configuration"
  },
  "keypad":{
     "You do not have any paired Keypad.":"You do not have any paired {{ecosystemType}}.",
     "Manage Keypad":"Manage {{ecosystemType}}",
     "Add Keypad":"Add {{ecosystemType}}",
     "pairing step2":"Step 2 : Prepare your {{ecosystemType}} for pairing",
     "pairing step3":"Step 3 : Select Keypad ID",
     "Enter Keypad name":"Enter {{ecosystemType}} name",
     "Keypad paired":"Keypad paired!",
     "Link Keypad":"Link {{ecosystemType}}",
     "Would you like to link your Keypad to a lock now":"Would you like to link your {{ecosystemType}} to a lock now?",
     "Link lock from Keypad":"Link lock from {{ecosystemType}}",
     "step1 link keypad":"Step 1 : Get your {{ecosystemType}} ready",
     "step2 link keypad":"Step 2 : Select a lock to link",
     "step3 link keypad":"Step 3 : Linking your {{ecosystemType}} to {{lockname}}",
     "Linking Keypad":"Linking {{ecosystemType}}",
     "Keypad Linked":"{{ecosystemType}} Linked",
     "Keypad successfully linked with":"{{ecosystemType}} successfully linked with \"{{lockname}}\"",
     "Keypad Settings":"{{ecosystemType}} Settings",
     "Are you sure you want to unlink from":"Are you sure you want to unlink {{lock}} from {{keypadname}}?",
     "Get your Keypad ready":"Get your {{ecosystemType}} ready",
     "Successfully Deleted":"\"{{keypadname}}\" Successfully Deleted",
     "Delete Keypad":"Delete {{ecosystemType}}",
     "Unpair Keypad from phone":"Unpair Keypad from your phone",
     "Edit Keypad Name":"Edit {{ecosystemType}} Name",
     "Keypad name":"{{ecosystemType}} name",
     "Are you sure you want to delete Keypad_name for all your locks":"Are you sure you want to delete {{keypadname}} access for all your locks?",
     "Pair your Keypad":"Pair your {{ecosystemType}}",
     "I lost my keypad":"I lost my {{ecosystemType}}",
     "Lost your Keypad":"Lost your {{ecosystemType}}?",
     "What to do when you have lost your Keypad":"What to do when you have lost your {{ecosystemType}}",
     "When you lost your keypad, you can revoke access to immediately to secure your place.":"When you lost your Keypad, you can revoke access to immediately to secure your place.",
     "Revoke Keypad access":"Revoke {{ecosystemType}} access",
     "lostKeypadRevoke":"You will no longer be able to unlock your linked lock(s) using the revoked {{ecosystemType}}.",
     "Step 1: Revoke Keypad access":"Step 1: Revoke {{ecosystemType}} access",
     "Step 2: Delete Keypad permanently":"Step 2: Delete {{ecosystemType}} permanently",
     "Permanently delete Keypad from your account.":"Permanently delete your {{ecosystemType}} from your account.",
     "Are you sure you want revoke keypad access for Lock_Name?":"Are you sure you want revoke {{ecosystemType}} access for {{Lock_Name}}?",
     "Remove Lock_Name from your Keypad":"Remove {{Lock_Name}} from your Keypad",
     "Lock successfully removed from your Keypad.":"Lock successfully removed from your {{ecosystemType}}.",
     "Delete your Keypad":"Delete your {{ecosystemType}}",
     "Your linked access will be removed automatically after you sync these access":"Your linked access will be removed automatically after you sync these access :",
     "Please wait while we remove all your Keypad data":"Please wait while we remove all your {{ecosystemType}}’s data.",
     "Keypad sucessfully removed":"Keypad sucessfully removed.",
     "Please wait while we removing your lock from keypad":"Please wait while we removing your lock from Keypad.",
     "keypad not found":"Device not found.",
     "keypad aleready paired":"This Keypad has already been paired.",
     "Delete keypad alert":"Please unlink your linked lock(s) before deleting your device.",
     "This lock(s) has been deleted":"This lock has been deleted, please unlink it from the {{ecosystemType}}",
     "Keypad has been blacklisted from the lock.":"Keypad \"{{Keypad_name}}\" has been blacklisted from the lock.",
     "Make sure your Keypad is discoverable":"Make sure your {{ecosystemType}} is discoverable",
     "To start using your Keypad, ensure the blue light is no longer flashing by holding onto the settings button":"To start using your Keypad, ensure the blue light is no longer flashing by holding onto the settings button."
  },
  "accecories":{
     "Link now":"Link now",
     "Link later":"Link later",
     "Select lock":"Select lock",
     "Link more locks":"Link more locks",
     "Linked Lock(s)":"Linked Lock(s)",
     "Linked Locks":"Linked Locks",
     "Unlink Lock":"Unlink Lock?",
     "Unlink":"Unlink",
     "Unlink lock":"Unlink lock",
     "Unlinking":"unlinking \"{{name}}\"",
     "Successfully Unlinked":"\"{{lockname}}\" Successfully Unlinked",
     "Deleting":"Deleting \"{{name}}\"",
     "Linked to multiple locks":"Linked to multiple locks",
     "Linked to lockname":"Linked to \"{{lockname}}\"",
     "Not linked":"Not linked",
     "Open the back cover and hold setting button until blue light flashes":"Open the back cover and hold onto the settings button until the blue light flashes",
     "You have linked number locks":"You have linked ({{number}}\/5) locks",
     "You can link up to 5 locks":"You can link up to 5 locks",
     "Please make sure your lock(s) are nearby to revoke access.":"Please make sure your lock(s) are nearby to revoke access.",
     "Revoke access":"Revoke access",
     "I no longer have this lock":"I no longer have this lock",
     "Please confirm that you no longer have this lock.":"Please confirm that you no longer have this lock.",
     "Remove lock":"Remove lock",
     "Remove Lock_Name":"Remove {{Lock_Name}}",
     "This will permanently remove it from your account":"This will permanently remove it from your account",
     "Delete Permanently":"Delete Permanently",
     "Do you want to unlink lock":"Do you want to unlink lock?",
     "Do you want to unlink your lock":"Do you want to unlink your lock?",
     "Any access granted to linked devices will still persist. Would you like to unlink them now":"Any access granted to linked devices will still persist. Would you like to unlink them now?",
     "Later":"Later",
     "Linked Devices":"Linked Devices",
     "Unlink device":"Unlink device?",
     "lock aleready linked":"This lock already linked to this device."
  },
  "retrofit":{
     "Auto-relock calibration":"Auto-relock calibration",
     "Calibrating auto-relock":"Calibrating auto-relock",
     "Lock position":"Lock position",
     "Calibrate the lock’s magnet sensor to optimize auto-relock performance":"Calibrate the lock’s magnet sensor to optimize auto-relock performance.",
     "Ensure that the door is closed":"Ensure that the door is closed.",
     "Tap next and you should hear a chime":"Tap next and you should hear a chime.",
     "Choose your door lock position":"Choose your door lock position",
     "Calibration in progress":"Calibration in progress...",
     "Calibration complete":"Calibration complete",
     "Start calibration":"Start calibration",
     "Open your door slightly so it’s ajar":"Open your door slightly so it’s ajar.",
     "1 of 2":"1 of 2",
     "2 of 2":"2 of 2",
     "Left":"Left",
     "Right":"Right",
     "Lock rotation":"Lock rotation",
     "Single Lock":"Single Lock",
     "Double Lock":"Double Lock",
     "Auto Unlock":"Auto-Unlock",
     "Location radius":"Location radius",
     "Automatically unlock your lock when you return to your property":"Automatically unlock your lock when you return to your property.",
     "Auto-Unlock is already active for lock_name":"Auto-Unlock is already active for {{lock_name}}. Please disable Auto-Unlock for {{lock_name}} to proceed.",
     "Modify location radius depending on your property scale":"Modify location radius depending on your property scale.",
     "Adjust lock location":"Adjust lock location"
  },
  "Search lock...":"Search lock...",
  "Couldnt find lock":"Couldn't find \"{{lockname}}\"",
  "Try searching again using a different keyword.":"Try searching again using a different keyword.",
  "1.1.403":"Нам не удалось авторизовать вас с помощью указанного имени и пароля. Пожалуйста, попробуйте еще раз.",
  "1.1.409":"Нам не удалось войти в систему. Пожалуйста, перейдите по ссылке в отправленном вам письме для активации учетной записи.",
  "1.1.410":"Ваша учетная запись заблокирована",
  "2.1.403":"Электронный адрес {{email}} уже зарегистрирован в системе.",
  "2.1.409":"Электронный адрес {{email}} уже зарегистрирован в системе.",
  "3.1.403":"Нам не удалось изменить ваши данные из-за ошибки. Пожалуйста, попробуйте еще раз.",
  "4.1.403":"Нам не удалось изменить ваш пароль из-за ошибки. Пожалуйста, попробуйте еще раз.",
  "5.1.403":"При попытке отключения учетной записи Airbnb обнаружена ошибка. Пожалуйста, отвяжите все объявления в системе Airbnb во вкладке БРОНИРОВАНИЯ, после чего повторите попытку.",
  "6.3.803":"Не удалось получить Bluetooth-ключ. Пожалуйста, попробуйте еще раз.",
  "6.3.804":"Invalid QR code",
  "7.1.400":"Невозможно добавить новую собственность. Пожалуйста, попробуйте еще раз.",
  "8.1.403":"{{listingName}} имеет привязанное устройство, и не может быть удалено. Пожалуйста, отвяжите все устройства от {{listingName}} перед удалением {{listingName}}.",
  "8.1.409":"{{listingName}} подключено к {{provider}} и не может быть удалено. Пожалуйста, перейдите в раздел бронирований и отвяжите {{listingName}} перед удалением.",
  "9.1.404":"Нам не удалось определить ваше текущее местонахождение. Пожалуйста, разрешите использование службы местоположений для автоматического определения часового пояса. Кроме того, вы можете выбрать город в ручном режиме.",
  "10.1.400":"Нам не удалось предоставить доступ к вашему замку. Пожалуйста, попробуйте еще раз.",
  "13.2.880":"New PIN is already taken. Please try a different pin",
  "18.1.404":"Нам не удалось удалить этот вариант доступа. Пожалуйста, попробуйте еще раз.",
  "19.1.404":"Нам не удалось отозвать данный вариант доступа. Пожалуйста, попробуйте еще раз.",
  "20.1.404":"Нам не удалось отключить igloohome от объявления в Airbnb. Пожалуйста, попробуйте еще раз.",
  "21.1.404":"Нам не удалось отправить письмо с данными доступа для выбранного гостя. Пожалуйста, попробуйте еще раз.",
  "22.1.404":"Bluetooth-ключ, который вы хотите использовать, истек или был отменен. Пожалуйста, свяжитесь с владельцем для получения нового кода.",
  "22.1.409":"У вас нет прав для получения Bluetooth-ключа.",
  "22.5.1":"Please login to your account before claiming the bluetooth key.",
  "22.5.800":"Please login to your account before claiming the bluetooth key.",
  "47.5.800":"Please login to your account before requesting for instant access.",
  "47.1.409":"You are not allowed to request instant access for your lock.",
  "23.1.404":"The bluetooth key is expired or revoked. Please contact your host.",
  "23.5.703":"Unlock ekey error",
  "24.1.403":"You have reached the maximum of 5 pinned locks. Please unpin a lock and try again.",
  "31.1.404":"Lock not found.",
  "delete_card_error":"Удаленная ключ-карта может всё ещё отображаться в приложении. Пожалуйста, попробуйте еще раз.",
  "add_card_error":"Добавленная ключ-карта может не отображаться в приложении. Пожалуйста, попробуйте еще раз.",
  "unlock_error":"Ошибка соединения с Bluetooth-замком. Убедитесь, что замок активен: Нажмите любую кнопку на цифровой панели замка. Убедитесь, что подсветка кнопок замка активна. Если проблема продолжается, пожалуйста, проверьте что Bluetooth на вашем устройстве активирован, перезапустите Bluetooth, попробуйте добавить устройство снова.",
  "update mastercode error":"We are unable to set an admin password for your lock.  Please try again.",
  "delete lock error":"Произошла ошибка при попытке удаления замка. Пожалуйста, убедитесь что замок и устройство находятся в зоне действия Bluetooth и повторите попытку.",
  "sync lock error":"An error occurred and we are unable to sync lock time at the moment. Please ensure that you are within bluetooth range of the lock and try again later.",
  "sync lock bt in progress error":"Unable to sync the lock. Please try again.",
  "location_permission error":"Please ensure that the Bluetooth and location are turned on, Bluetooth privacy is enabled, then try again.",
  "use pin before":"Please use the PIN code once before proceeding.",
  "update your application":"Пожалуйста, обновите приложение.",
  "edit pincode error":"Ошибка соединения с Bluetooth замком. Убедитесь, что замок активен: Нажмите любую кнопку на цифровой панели замка. Убедитесь, что подсветка кнопок замка активна. Если проблема сохраняется, пожалуйста, проверьте что Bluetooth на вашем устройстве активирован, перезапустите Bluetooth, попробуйте добавить устройство снова.",
  "download":"Загрузить",
  "network_error":"Ошибка сети. Пожалуйста, проверьте соединение с сетью и попробуйте еще раз.",
  "0.1.12":"Network Error",
  "invalid email":"Пожалуйста, укажите корректный e-mail",
  "invalid password":"Пожалуйста, укажите корректный пароль",
  "pin creation limit reached error":"PIN creation limit reached for this hour. Please wait until next hour to create more. Alternatively, you may create PIN codes via Bluetooth.",
  "key card creation limit reached error":"Keycard creation limit reached. No further keycards can be added.",
  "legacy pin creation limit reached error":"PIN creation limit reached. Please delete all PINs to create more.",
  "Instant Access Request invalid. Lock is not paired to any account.":"Instant Access Request invalid. Lock is not paired to any account.",
  "0.0.0":"Error",
  "Note":"Note",
  "Full":"Full",
  "Okay":"Moderate",
  "Low":"Low",
  "Change your battery soon":"Change your battery soon",
  "You haven't add any listing yet.":"You haven't add any listing yet.",
  "You can send a test access message to your email.":"You can send a test access message to your email",
  "The actual access message will be sent to your guest via Airbnb platform before check-in time.":"The actual access message will be sent to your guest via Airbnb platform before check-in time.",
  "To customize the access message, please contact our support.":"To customize the access message, please contact our support.",
  "Add Listing":"Add Listing",
  "Test Access Message":"Test Access Message",
  "Send Access Message Now":"Send Access Message Now",
  "Send Access Message":"Send Access Message",
  "PIN Message Sent With Time":"message sent {{time_ago}}",
  "PIN Message Send Time Future":"message will be sent {{time_future}}",
  "Update PIN Send Time Message2":"Access message for {{guestName}} (containing access methods such as PIN codes and\/or bluetooth keys) will be sent {{sendAccessEmail}} hour(s) before check in time.",
  "Reservation Platform":"Reservation Platform",
  "Property Name":"Property Name",
  "Attention":"Attention",
  "You are making changes to the default listing settings.":"You are making changes to the default listing settings.",
  "Please note that this will not take effect on modified reservations.":"Please note that this will not take effect on modified reservations.",
  "Proceed":"Proceed",
  "The modifications will only affect this reservation. Default settings are unchanged.":"The modifications will only affect this reservation. Default settings are unchanged.",
  "Default Listing Settings":"Default Listing Settings",
  "Reservation Share Msg2":"Hi {{guestName}}, \n\nHere is your igloohome self check-in details at {{listingName}} from {{startDate}} to {{endDate}}.\n\n{{access_pin_list}}\n\n Your PIN is valid only from check-in to check-out time. Please use within 24 hours from your check-in time to activate the PIN.\n\nIf you experience any issues, please contact your host.\n\nEnjoy your stay!\nThe igloohome Team",
  "Reservation Share Msg Access detail":"{{lockName}}:\n{{pinCode}} \n",
  "All Airbnb listing has already been connected.":"All Airbnb listing has already been connected.",
  "PIN Message Send Time Now":"Sending access message now",
  "Are you sure you want to disconnect your Airbnb account? Please make sure all Airbnb listing(s) has already been disconnected.":"Are you sure you want to disconnect your Airbnb account? Please make sure all Airbnb listing(s) has already been disconnected.",
  "Access Message is being sent. Please check back for more details.":"Access Message is being sent. Please check back for more details.",
  "Message Sent":"Message Sent",
  "Template_content_required_error_message":"Please ensure you include these in your message:\n- Access detail\n- Start date\n- End date",
  "Discard_changes?":"Discard changes?",
  "Discard_template_changes_content":"Are you sure you want to discard your changes?\n\nAll changes will not be saved.",
  "Discard_button":"Discard",
  "Automated_Message_for_your_Self_Check-In":"Automated Message for your Self Check-In",
  "Note_Reservation_template":"*Note: This is a preview of your access message. The actual access message will be sent to your guest via Airbnb platform before check-in time.",
  "0.5.703":"Timeout Error",
  "0.2.6":"Unlocking too many times at once Error",
  "0.2.7":"Time Offsync error",
  "0.2.11":"Connect bt failed error",
  "0.2.12":"Unable to connect to lock coz its already connected error",
  "0.2.21":"Enable pin generation failed error",
  "0.2.41":"Retrieve Ekey Error",
  "0.2.61":"Unlock error",
  "0.2.63":"Phone disconnected while unlock error",
  "0.2.64":"Unlock AES key error",
  "0.2.71":"Set Keypad password error",
  "0.2.72":"Keypad Password Digits error",
  "0.2.100":"Network Error",
  "0.2.101":"Bind admin error",
  "0.2.121":"Add admin error",
  "0.2.122":"Add admin settings mode error",
  "0.2.131":"Upload Pincodes error",
  "0.2.141":"Get logs error",
  "0.2.151":"Reset lock error",
  "0.2.161":"NTP check error",
  "0.2.171":"Sync time error",
  "unable to connect":"Unable to connect to the device. Please try again.",
  "51.5.1003":"Please ensure that the lock is unlocked before you proceed.",
  "51.1.100":"Please check your network settings and try again.",
  "51.5.1301":"Unable to connect to the Lock. Please try again.",
  "51.5.703":"Unable to connect to the Lock. Please try again.",
  "51.5.1023":"This lock is not support firmware update.",
  "51.2.708":"Please ensure that the Bluetooth and location are turned on, Bluetooth privacy is enabled, then try again.",
  "51.5.1":"Please ensure that the Bluetooth and location are turned on, Bluetooth privacy is enabled, then try again.",
  "51.5.1303":"Please ensure that the Bluetooth and location are turned on, Bluetooth privacy is enabled, then try again.",
  "51.5.100":"Unable to connect to the Lock. Please try again.",
  "51.5.1002":"Please check your network settings and try again.",
  "51.5.1011":"DFU download error",
  "51.5.1012":"DFU download error",
  "51.5.1013":"DFU download error",
  "51.5.1014":"DFU download error",
  "51.5.1015":"DFU download error",
  "51.5.1016":"DFU download error",
  "51.5.1100":"DFU Error",
  "51.5.1021":"DFU package error",
  "51.5.1022":"DFU package initialitation error",
  "51.5.1024":"Please update your igloohome app to latest version",
  "51.5.1025":"Server bluetooth version error",
  "51.5.1026":"DFU configuration initiation error",
  "51.2.1002":"Unable to connect to the Lock. Please try again.",
  "51.2.1233":"Unable to connect to the Lock. Please try again.",
  "51.2.5206":"Please ensure that the Bluetooth and location are turned on, Bluetooth privacy is enabled, then try again.",
  "51.5.5206":"Please ensure that the Bluetooth and location are turned on, Bluetooth privacy is enabled, then try again.",
  "51.2.5196":"Unable to connect to the Lock. Please try again.",
  "51.4.1":"Please check your network settings and try again.",
  "51.2.12":"Unable to connect to the lock. Please try again.",
  "52.5.1":"Generic Error",
  "53.2.980":"Unable to delete access. Fingerprint UID could not be found. Please sync the lock and try again.",
  "52.2.960":"Fingerprint creation limit reached. Please remove another fingerprint access and try again",
  "52.2.970":"Reading error",
  "52.2.971":"Fingerprint scanning timeout. Please try again.",
  "52.2.972":"You have exceeded the number of attempts. Please make sure the scanner is clean and dry, then try again.",
  "51.1.801":"Please check your network settings and try again.",
  "38.2.860":"Please ensure that the Bluetooth and location are turned on, Bluetooth privacy is enabled, then try again.",
  "33.2.860":"Please ensure that the Bluetooth and location are turned on, Bluetooth privacy is enabled, then try again.",
  "54.2.708":"Please ensure that the Bluetooth and location are turned on, Bluetooth privacy is enabled, then try again.",
  "33.2.708":"Please ensure that the Bluetooth and location are turned on, Bluetooth privacy is enabled, then try again.",
  "airbnbError":"Cannot connect to airbnb",
  "Keycard missing uid":"Unable to delete access. Keycard UID could not be found. Please sync the lock and try again."
}