{
  "actions":{
     "Login":"Đăng nhập",
     "Register":"Đăng ký",
     "Email":"Email",
     "Your email":"email-của-bạn@email.com",
     "Reset Password":"Đặt lại mật khẩu",
     "password":"mật khẩu",
     "Forgot Password":"Quên mật khẩu",
     "Submit":"Gửi",
     "First Name":"Họ",
     "Last Name":"Tên",
     "Mobile":"Số điện thoại di động",
     "Password requirement":"Mật khẩu phải có tối thiểu 8 ký tự",
     "Password match":"Mật khẩu phải khớp",
     "Passwords not matching":"Mật khẩu hiện tại và mật khẩu mới khác nhau",
     "Confirm Password":"Xác nhận mật khẩu",
     "Change Details":"Thay đổi chi tiết",
     "Change Password":"Đổi mật khẩu",
     "Change batteries":"Thay pin",
     "Current Password":"Cmật khẩu hiện tại",
     "New Password":"mật khẩu mới",
     "Edit Account Details":"Chỉnh sửa chi tiết tài khoản",
     "Filter":"Lọc",
     "Check Validity":"Cập nhật",
     "New Key":"Thêm chìa khóa",
     "Update Logs":"Cập nhật lịch sử",
     "Change language":"Thay đổi ngôn ngữ",
     "Select Listing":"Chọn nhà",
     "Select City":"Chọn thành phố",
     "Select One":"Chọn Một",
     "Test Welcome Email":"Gửi Thử Nghiệm Email Chào Mừng",
     "Test Access Email":"Gửi Thử Nghiệm Email Truy Cập",
     "Contact Support":"Liên hệ hỗ trợ",
     "Add":"Thêm vào",
     "Delete":"Xóa",
     "Delete Lock":"Xóa khóa",
     "Delete Home":"Xóa bỏ Tài sản",
     "Create PIN":"Tạo PIN",
     "Create Bluetooth Key":"Tạo chìa khóa",
     "Edit PIN":"Chỉnh sửa PIN",
     "Edit Key Card":"Sửa thẻ chìa khóa",
     "Confirm":"Xác nhận",
     "Edit Master PIN":"Chỉnh sửa PIN chủ",
     "Disconnect Airbnb":"Ngắt kết nối Airbnb",
     "Connect Airbnb":"Kết nối với Airbnb",
     "Connect Airbnb Message":"Vui lòng kết nối igloohome với tài khoản của máy chủ lưu trữ chính Airbnb không phải tài khoản của đồng chủ nhà",
     "Back":"Quay lại",
     "Ok":"Ok",
     "Cancel":"Hủy",
     "Cancel Sync":"Hủy Đồng bộ",
     "Retry":"Thử lại",
     "Done":"Xong",
     "Load More":"Tải thêm",
     "OR":"HOẶC",
     "Send Key":"Gửi chìa khóa",
     "Close":"Đóng",
     "Set Up Now":"Thiết lập bây giờ",
     "Set Up Later":"Thiết lập sau",
     "FingerPrint Message":"Đăng nhập nhanh với cảm biến vân tay Fingerprint. Hoặc, bạn có thể thiết lập sau này trong 'Cài Đặt Tài Khoản'.",
     "Touch Id Message":"Đăng nhập nhanh với cảm biến vân tay Touch ID. Hoặc, bạn có thể thiết lập sau này trong 'Cài Đặt Tài Khoản'.",
     "Face Id Message":"Đăng nhập nhanh bằng Face ID. Ngoài ra, bạn có thể thiết lập trong phần 'Cài đặt tài khoản'.",
     "Press back again to exit App.":"Nhấn Trở lại lần nữa để thoát Ứng dụng.",
     "Accept":"Chấp nhận",
     "Reject":"Từ chối",
     "Yes":"Yes",
     "No":"No"
  },
  "pairing":{
     "Pairing":"Kết nối",
     "Start pairing":"Kết nối khóa của bạn nàox",
     "Step 1":"Đặt tay lên bàn phím số để kích hoạt khóa.",
     "Step 1 padlock":"Nhấn bất kỳ số nào để kích hoạt khóa.",
     "Step 1 euroRetrofit":"Please keep the lock unlocked and hold the multi-function button until the lock is flashing blue.",
     "Step 1 keybox":"Vui lòng giữ khóa mở và đặt lòng bàn tay lên bàn phím để kích hoạt khóa",
     "Keybox warning":"Xin vui lòng đừng đóng keybox lại cho đến khi quá trình đồng bộ kết thúc.",
     "Scan":"Chọn khóa bluetooth để kết nối.",
     "Next":"Tiếp theo",
     "Try Again":"Thử lại",
     "Pairing in progress":"Đang ghép nối...",
     "Please wait":"Please wait...",
     "Almost done":"Almost done...",
     "Step 1: Select Property":"Bước 1: Chọn Tài sản",
     "Step 2: Select Lock Model":"Bước 2: Chọn mẫu khoá",
     "Step 3: Pair your device":"Bước 3: Kết nối thiết bị của bạn",
     "Step 3: Select Product ID":"Bước 3: Chọn ID sản phẩm",
     "PAIRING_STEP_1":"Tháo mặt sau của khóa",
     "PAIRING_STEP_2":"Đặt tay lên bàn phím số để kích hoạt khóa",
     "PAIRING_STEP_2_KEYBOX":"Vui lòng giữ khóa mở và đặt lòng bàn tay lên bàn phím để kích hoạt khóa",
     "PAIRING_STEP_3":"Tháo và lắp lại 1 cục pin",
     "PAIRING_STEP_4_L":"Nhấn và giữ phím mở khóa trong vòng 2 giây",
     "PAIRING_STEP_4_B":"Nhấn và giữ phím # trong vòng 2 giây",
     "PAIRING_STEP_5_L":"Để ý tới âm báo 4 tiếng bíp và 2 tiếng bíp sau đó",
     "PAIRING_STEP_5_B":"Để ý tới âm báo 2 tiếng bíp",
     "I hear the beeps":"Tôi nghe thấy có tiếng bíp",
     "PAIRING_LOCKBOX_STEP_1":"Xoay nắp pin theo chiều kim đồng hồ để mở.",
     "PAIRING_LOCKBOX_STEP_2":"Dùng vật nhọn để nhấn nút reset ở giữa khe pin thứ ba và thứ tư. Nhấn giữ trong vòng 2 giây.",
     "PAIRING_LOCKBOX_STEP_3":"Nhấn Tiếp theo sau khi hoàn thành thao tác.",
     "PAIRING_BOLT2_NON_FACTORY_STEP_1":"Xác định vị trí của nút reset được đặt ở lỗ phía trên bên phải của mặt sau của bàn phím số.",
     "PAIRING_BOLT2_NON_FACTORY_STEP_2":"Giữ nút reset bằng cách sử dụng một vật nhọn để nhấn và giữ nó trong vòng 20 giây.",
     "PAIRING_BOLT2_NON_FACTORY_STEP_3":"Nếu bạn cần những hỗ trợ khác, xin vui lòng truy cập trung tâm trợ giúp của igloohome tại trang hỗ trợ.",
     "PAIRING_MORTISE_NON_FACTORY_STEP_1":"Tìm nút Reset ở phía dưới bên phải của chỗ để pin.",
     "PAIRING_MORTISE_NON_FACTORY_STEP_2":"Ấn và giữ nút Reset đồng thời với phím '#' trên bàn phím đến khi bạn nghe thấy tiếng beep.",
     "PAIRING_KEYBOX_2_STEP_1":"Mở Hộp khóa 2 và vặn mở nắp pin.",
     "PAIRING_KEYBOX_2_STEP_2":"Sử dụng một vật sắc nhọn để nhấn nút thiết lập lại nằm giữa khe pin thứ 2 và 3. Giữ nút đó trong 2 giây.",
     "PAIRING_PADLOCK_RESET_STEP_1":"Xác định vị trí nút thiết lập lại ở lỗ phía sau sau khi tháo nắp pin.",
     "PAIRING_PADLOCK_RESET_STEP_2":"Kích hoạt nút thiết lập lại bằng một vật mỏng và giữ nó trong 3 giây và bạn sẽ nghe thấy âm xác nhận.",
     "PAIRING_BOLT2S_IGB4_RESET_STEP_1":"Giữ nút [XÓA] và nút thân sau có thể được tìm thấy bên dưới núm vặn trong 3 giây và bạn sẽ nghe thấy âm xác nhận.",
     "PAIRING_MORTISE_IGM2_RESET_STEP_1":"Giữ nút [XÓA] và nút [R] sau khi tháo nắp pin trong 3 giây và bạn sẽ nghe thấy âm xác nhận.",
     "errors":{
        "There are no bluetooth devices detected in your network.":"Không tìm thấy thiết bị bluetooth nào trong phạm vi mạng của bạn.",
        "Try to turn bluetooth off and then on again.":"Hãy thử tắt đi bật lại bluetooth.",
        "We are unable to connect to the device selected.":"Không thể kết nối với thiết bị đã chọn.",
        "The lock that you are trying to add has already been claimed by another user.":"Khóa mà bạn đang thêm đã được nhận bởi người dùng khác.",
        "Please get the previous owner to delete the lock. The delete lock option can be found under the 'Set Up Home' menu.":"Hãy nhờ chủ khóa trước đó xóa khóa. Tùy chọn xóa khóa có trong menu 'Thiết lập nhà'.",
        "If you believe this to be in error, please contact Igloohome at support@igloohome.co":"Nếu bạn cho rằng đã xảy ra lỗi, xin vui lòng truy cập trung tâm trợ giúp của igloohome tại trang hỗ trợ.",
        "NOT_IGLOOHOME":"Đây không phải là thiết bị của igloohome do đó không thể kết nối với ứng dụng igloohome.",
        "Please try again.":"Vui lòng thử lại.",
        "Lock deactivated during pairing":"Khóa đã bị vô hiệu hóa trong quá trình kết nối",
        "Place palm over keypad to reactivate it":"Đặt tay lên bàn phím số để kích hoạt lại khóa",
        "NETWORK_ERROR_MSG":"Đã xảy ra lỗi. Vui lòng kiểm tra thiết lập mạng và thử lại.",
        "ENSURE_LOCK_ON":"Vui lòng thử lại và chắc chắn đèn trên khóa đã bật sáng.",
        "OWN_LOCK_ALREADY_PAIRED":"Khóa này đã được kết nối với một tài khoản khác.",
        "UNABLE_TO_COMPLETE_PAIRING_ERROR":"Đã có lỗi xảy ra trong quá trình kết nối.",
        "The lock that you are trying to add has already been blocked.":"Khóa bạn đang thêm đã bị chặn."
     }
  },
  "tabs":{
     "Active":"Hoạt động",
     "Valid Keys":"Tất cả khóa hợp lệ",
     "Valid Keys New":"Mọi truy cập hợp lệ",
     "Inactive":"Hết hạn",
     "Invalid Keys":"Tất cả mã PIN hết hạn và đã sử dụng",
     "Invalid Keys New":"Mọi truy cập đã sử dụng và hết hạn",
     "Pending":"Đang xử lý",
     "Pending Keys":"Tất cả mã PIN về thời lượng trong tương lai, khóa bluetooth đang chờ xử lý chưa được xác nhận và mã PIN không được cập nhật. Vui lòng nhấp vào 'Kiểm tra tính hợp lệ' để cập nhật trạng thái mã PIN",
     "Pending Keys New":"Mọi truy cập tương lai và không xác nhận"
  },
  "settings":{
     "My Account":"Tài khoản của tôi",
     "My Preferences":"Thiết lập tùy chọn của tôi",
     "Notification Settings":"Thiết lập thông báo",
     "Bluetooth Key Claimed":"Chìa khóa Bluetooth đã được nhận",
     "Bluetooth Key Used":"Chìa khóa Bluetooth đã được sử dụng",
     "Vibration Feedback":"Phản hồi rung",
     "Fingerprint Login":"Đăng nhập vân tay",
     "Face Id Login":"Đăng nhập nhận dạng khuôn mặt",
     "Touch Id Login":"Đăng nhập cảm biến vân tay Touch ID",
     "Language":"Ngôn ngữ",
     "Connect External Providers":"Kết nối với nhà cung cấp",
     "Reservation Welcome Email":"Email Chào mừng Đặt chỗ",
     "Reservation Access Email":"Email Truy cập Đặt chỗ",
     "Airbnb Connect Email Notifications":"Airbnb Connect Email Notifications",
     "hi":"Hi,",
     "My Details":"Thông tin của tôi",
     "Name, Contact":"Tên, Số Liên lạc",
     "Battery Sync Reminder":"Nhắc nhở đồng bộ hóa pin",
     "Every X month":"Mỗi X tháng"
  },
  "checkbox":{
     "Unlock":"Mở khóa",
     "Pairing":"Kết nối",
     "Reset":"Cài đặt lại",
     "Description: A - Z":"Mô tả mã PIN: Theo thứ tự tăng dần",
     "Description: Z - A":"Mô tả mã PIN: Thứ tự giảm dần",
     "Created: Earliest First":"Đã tạo mã PIN: Theo thứ tự tăng dần",
     "Created: Latest First":"Đã tạo mã PIN: Thứ tự giảm dần",
     "Bluetooth Key":"Chìa khóa Bluetooth",
     "Key Card":"Thẻ chìa khóa"
  },
  "menu":{
     "Home":"Nhà của bạn",
     "Reservations":"Lịch đặt phòng",
     "Visits":"Chuyến thăm",
     "Configuration":"Thiết lập",
     "Account Settings":"Cài đặt tài khoản",
     "Support":"Trợ giúp",
     "FAQ":"Các câu hỏi thường gặp",
     "Logout":"Đăng xuất"
  },
  "reserveDetail":{
     "Check In Time":"Thời gian nhận phòng",
     "Check Out Time":"Thời gian trả phòng",
     "Send Access Email":"Gửi Email Truy Cập"
  },
  "firmware":{
     "The update can take up to 10 minutes.":"The update can take up to 10 minutes.",
     "Please keep your internet connected with the app open and place your phone near your lock":"Please keep your internet connected with the app open and place your phone near your lock",
     "Please keep your internet connected with the app open and place your phone near your fob":"Please keep your internet connected with the app open and place your phone near your {{ecosystemType}}",
     "Please keep your internet connected with the app open and place your phone near your bridge":"Please keep your internet connected with the app open and place your phone near your {{ecosystemType}}",
     "Do not remove the batteries.":"Do not remove the batteries.",
     "Do not close your app.":"Do not close your app.",
     "If there is an error during update, please remove the batteries and put them back into the fob":"If there is an error during update, please remove the batteries and put them back into the {{ecosystemType}}.",
     "Unlock your lock and keep it open":"Unlock your lock and keep it open",
     "Please place your phone near your lock":"Please place your phone near your lock.",
     "Please place your phone near your fob":"Please place your phone near your {{ecosystemType}}.",
     "Please place your phone near your bridge":"Please place your phone near your {{ecosystemType}}.",
     "Updating Firmware":"Updating Firmware",
     "Firmware is up to date!":"Firmware is up to date!",
     "Current Firmware Version":"Current Firmware Version",
     "Update available!":"Update available!",
     "Firmware downloaded!":"Firmware downloaded!",
     "New Firmware Version":"New Firmware Version",
     "New Firmware available. Update Now.":"New Firmware available. Update Now.",
     "Please ensure that the lock is unlocked before you proceed.":"Please ensure that the lock is unlocked before you proceed.",
     "Step 1: Download Firmware":"Step 1: Download Firmware",
     "Step 2: Prepare your lock":"Step 2: Prepare your lock",
     "Step 3: Updating Firmware":"Step 3: Updating Firmware",
     "Step 2: Updating Firmware":"Step 2: Updating Firmware",
     "Step 1: Firmware Downloaded":"Step 1: Firmware Downloaded",
     "Step 3: Firmware Updated":"Step 3 : Firmware Updated",
     "IMPORTANT":"IMPORTANT",
     "update now":"Update Now",
     "Firmware update is not available yet":"Firmware update is not available yet.",
     "Do check again later":"Do check again later.",
     "firmware update":"firmware update",
     "Make sure the blue light on your Fob is flashing":"Make sure the blue light on your Key Fob is flashing.",
     "Please hold onto the settings button":"Please hold onto the settings button if the blue light on your Key Fob stops flashing."
  },
  "access":{
     "Access":"Quyền ra vào",
     "Access Summary":"Tóm tắt Truy cập",
     "keycard issued":"Thẻ khoá được cấp",
     "ekey issued":"khóa bluetooth được cấp",
     "exclude unclaimed ekey":"Không bao gồm khoá chưa được xác nhận",
     "pincode created":"Mã PIN được tạo",
     "exclude deleted pincode":"Không bao gồm mã PIN đã xoá",
     "End time should be after start time":"Thời gian kết thúc phải sau thời gian bắt đầu",
     "Start should be before end":"Ngày bắt đầu phải trước ngày kết thúc",
     "The end date should not exceed one year from the start date":"Ngày hết hạn không nên vượt quá một năm kể từ ngày bắt đầu",
     "End date time should be current":"Thời gian ngày kết thúc nên là hiện tại.",
     "Start date time should be current":"Thời gian ngày bắt đầu nên là hiện tại",
     "Start date time should be before end date time":"Thời gian ngày bắt đầu phải trước thời gian ngày kết thúc",
     "End day must be within same week":"Ngày kết thúc phải trong cùng một tuần",
     "End date\/time must be after start date\/time":"Ngày\/thời gian kết thúc phải sau ngày\/giờ bắt đầu",
     "The PIN code should be between 4 and 7 digits":"Mã PIN phải có từ 4 đến 7 chữ số",
     "The PIN code should be between 7 and 9 digits":"Mã PIN phải có từ 7 đến 9 chữ số.",
     "The PIN codes do not match":"Mã PIN không khớp.",
     "Please fill in both PIN codes":"Hãy điền vào cả hai mã PIN.",
     "Who is this key card for":"Thẻ chìa khóa này dành cho ai",
     "Card ID":"Thẻ ID",
     "Card added":"Thẻ đã được thêm vào",
     "Ekey Details":"Thông tin Khóa Bluetooth",
     "Pending start time":"Thời gian bắt đầu đang chờ",
     "View all durations":"Xem tất cả thời hạn",
     "All durations":"Tất cả thời hạn",
     "Duration":"Thời hạn",
     "received pin code for certain duration":"Bạn đã nhận mã PIN {{code}}. Mã hoạt động trong vòng {{duration}}.",
     "received permanent or otp":"Bạn đã nhận được một mã {{pinType}} {{code}}",
     "Enter a new name for this PIN":"Nhập tên mới cho mã PIN này:",
     "LIMITED_ACCESS_VIEW":"Do kết nối Internet không ổn định, chúng tôi không thể tải danh sách truy cập. Xin vui lòng tải lại trang.",
     "Select an access type":"Chọn loại truy cập",
     "Works forever":"Hoạt động mãi mãi",
     "Works for a period":"Hoạt động trong một thời hạn",
     "Repeats forever":"Lặp lại mãi mãi",
     "Repeat Every":"Repeat Every",
     "Works only once":"Hoạt động chỉ một lần",
     "Unlocks with phone":"Mở khoá bằng điện thoại",
     "Unlocks with keycard":"Mở khoá bằng thẻ khoá",
     "Action Required":"Bắt buộc",
     "Please update activity log before registering key card.":"Vui lòng cập nhật lịch sử hoạt động trước khi đăng ký thẻ chìa khóa",
     "no access":"Không có truy cấp {{statusAccess}} cho khoá này.",
     "Sync to update status":"Đồng bộ trạng thái cập nhật",
     "Revoke":"Hủy bỏ",
     "Clear":"Xóa sạch",
     "Revoke bluetooth key":"Thu hồi chìa khóa Bluetooth?",
     "Delete Bluetooth Key Access":"Xoá Khoá Truy Cập Bluetooth",
     "Clear Pin Access":"Xóa Truy cập PIN",
     "Delete Pin Access":"Xoá truy cập PIN",
     "Delete Keycard Access":"Delete Keycard Access",
     "Delete Access Message":"Bạn có chắc bạn muốn xoá {{name}} {{accessType}}.",
     "Clear Access Message":"Bạn có chắc chắn muốn dọn {{name}} {{accessType}}?",
     "Revoke Access Message":"Bạn có chắc chắn muốn hủy {{name}} {{accessType}}?",
     "PIN not synced":"PIN chưa được đồng bộ",
     "Please Sync Status to update":"PIN chưa được đồng bộ. Hãy Đồng bộ trạng thái để cập nhật.",
     "Share Bluetooth Key":"Chia sẻ chìa khóa Bluetooth",
     "Share Key":"Chia sẻ chìa khóa",
     "Scan key":"Quét bằng máy quét QR của người nhận để nhận chìa khóa",
     "pincodes":"Mã pin",
     "out of 285 PINs created":"{{number}} trên 285 PIN đã được sử dụng",
     "Bluetooth keys and PIN codes issued":"Khoá Bluetooth và mã PIN được cấp",
     "Delete key card":"Xoá thẻ khoá",
     "Share ekey message":"Tôi đã gửi cho bạn một khóa bluetooth igloohome. Để xác nhận khoá bluetooth, nhấp vào URL sau. ",
     "permanent pin generated":"Đã tạo PIN vĩnh viễn",
     "duration pin generated":"Đã tạo PIN thời lượng",
     "otp pin generated":"Đã tạo PIN dùng một lần",
     "duration ekey generated":"Đã tạo Khóa Bluetooth",
     "weekly pin generated":"Đã tạo mã PIN hàng tuần",
     "weekend pin generated":"Đã tạo mã PIN ngày cuối tuần",
     "weekday pin generated":"Đã tạo mã PIN ngày thường",
     "monthly pin generated":"Đã tạo mã PIN hàng tháng",
     "permanent nfc generated message":"Key card(s) added",
     "permanent pin generated message":"Vui lòng dùng PIN trong vòng 24 giờ để kích hoạt.",
     "weekly pin generated message":"Vui lòng dùng PIN trong vòng 24 giờ kể từ Thời điểm Bắt đầu để kích hoạt.",
     "weekday pin generated message":"Vui lòng dùng PIN trong vòng 24 giờ kể từ Thời điểm Bắt đầu để kích hoạt.",
     "weekend pin generated message":"Vui lòng dùng PIN trong vòng 24 giờ kể từ Thời điểm Bắt đầu để kích hoạt.",
     "monthly pin generated message":"Vui lòng dùng PIN trong vòng 24 giờ kể từ Thời điểm Bắt đầu để kích hoạt.",
     "duration pin generated message":"Vui lòng dùng PIN trong vòng 24 giờ kể từ Thời điểm Bắt đầu để kích hoạt.",
     "otp pin generated message":" Vui lòng dùng PIN trong vòng {{number}} giờ trước khi hết hạn.",
     "duration ekey generated message":"Vui lòng đảm bảo bạn nhận Khóa Bluetooth trong vòng {{number}} giờ.",
     "Don't remind me again":"Không nhắc tôi nữa",
     "Every Week":"Mỗi Tuần",
     "Every Month":"Mỗi Tháng",
     "Every Monday to Friday":"Mỗi Thứ Hai đến Thứ Sáu",
     "Every Saturday and Sunday":"Mối Thứ Bảy đến Chủ Nhật",
     "Default":"Mặc định",
     "Custom":"Tùy chọn",
     "Generate PIN remotely":"Tạo PIN từ xa",
     "Customize PIN via Bluetooth":"Tùy chọn PIN qua Bluetooth",
     "Set your own PIN via bluetooth":"Thiết lập PIN riêng của bạn qua Bluetooth",
     "Protips":"Protips",
     "All key cards look the same":"All key cards look the same so don't forget to label them!",
     "Step 1: Get your key card(s) ready":"Step 1: Get your key card(s) ready",
     "Step 2: Tap key card(s) on lock":"Step 2: Tap key card(s) on lock",
     "Step 3: Hold on to unlock until close sign appears":"Step 3: Hold on to 🔓 until 'CLOSE' sign appears.",
     "Step 4: Press and hold the lock icon until you hear a beep":"Step 4: Press and hold the 'lock' icon until you hear a beep",
     "key card(s) added":"Key card(s) added:",
     "You can add multiple cards at once":"You can add multiple cards at once.",
     "Start":"Start",
     "Ready":"I'm Ready",
     "Enter name":"Enter name",
     "Name X cards":"Name {{number}} card(s)",
     "SMS Pin Code":"Your {{pintype}} code is {{pincode}}.",
     "SMS Pin Validity":"Valid \nFROM {{from}} \nTO {{to}}.",
     "SMS Pin Validity Effective":"Valid \nEFFECTIVE FROM {{effective}} \nEVERY {{every}} \nFROM {{from}} \nTO {{to}}.",
     "SMS Pin Activate":"To Activate, please use once by: {{date}}",
     "SMS Pin Use":"Please use by: {{date}}"
  },
  "lock":{
     "Locks":"Khóa",
     "Pair a new lock":"Kết nối một khóa mới",
     "Other igloohome locks":"Khoá igloohome khác",
     "Lock paired":"Khóa đã được kết nối!",
     "Edit lock name":"Chỉnh sửa Tên khoá",
     "Enter lock name":"Nhập tên khóa",
     "Add Key Card":"Thêm thẻ chìa khóa",
     "Ensure that your bluetooth is turned on":"Đảm bảo rằng bluetooth được bật",
     "On the lock keypad, enter":"Trên bàn phím, ấn",
     "Tap your key card (s) on the key card reader":"Chạm thẻ chìa khóa lên đầu đọc thẻ.",
     "Enter # on the keypad":"Nhập # trên bàn phím",
     "Press [Sync] below to update":"Nhấp vào nút [Sync] bên dưới để cập nhật",
     "Sync":"Đồng bộ",
     "Unable to Sync":"Không thể Đồng bộ",
     "Create permanent PIN":"Tạo PIN vĩnh viễn",
     "Create duration PIN":"Tạo PIN thời hạn",
     "Create one time PIN":"Tạo PIN một lần",
     "Create Bluetooth key":"Tạo khoá Bluetooth",
     "Create recurring PIN":"Tạo PIN lặp lại",
     "Type of recurring PIN":"Loại PIN lặp lại",
     "other(s)":"khác",
     "Are you sure you want to delete":"Bạn có chắc bạn muốn xoá {{name}}",
     "Enter a new name for this lock":"Nhập tên mới cho khóa này",
     "Status":"Trạng thái",
     "Go near lock":"Vui lòng đặt điện thoại của bạn gần khóa.",
     "Last updated":"Cập nhật mới nhất",
     "Lock updated":"Khóa đã được cập nhật",
     "Last synced":"Đồng bộ lần cuối",
     "Unable to check":"Đã có lỗi xảy ra trong quá trình cập nhật khóa. Xin vui lòng thử lại.",
     "Battery Status Unavailable":"Tính năng kiểm tra dung lương pin (battery) của thiết bị không khả dụng.",
     "Lock Name":"Lock Name",
     "Associated Property(s)":"Tài sản Đi cùng",
     "Unpair lock from phone":"Ngừng kết nối khoá với điện thoại",
     "Delete All PINs":"Xoá tất cả PIN",
     "Delete all PINs except for Master PIN":"Xoá tất cả PINs trừ mã PIN chủ",
     "RESET_LOCK_CONFIRM_TITLE":"Xóa toàn bộ mã PIN?",
     "RESET_LOCK_CONFIRM_MSG":"Bạn phải đứng trong phạm vi bluetooth của khóa để thực hiện thao tác này. Toàn bộ mã PIN đã tạo sẽ bị xóa khỏi khóa. Riêng mã PIN chủ (master) sẽ không bị xóa.",
     "LOCK_RESET_SUCCESS_MSG":"Khóa đã được cài đặt lại để nhận mã PIN mới. Các mã PIN đã tạo trước đây không còn hợp lệ.",
     "General":"Chung",
     "Bluetooth Settings":"Cài đặt Bluetooth",
     "Quick Unlock":"Mở khoá nhanh",
     "Auto Relock":"Tự động Khóa lại",
     "Sensor Relock Timer":"Bộ đếm Thời gian Tự động Khóa lại",
     "Custom Relock Timer":"Bộ đếm Thời gian Tự động Khóa lại Tùy chỉnh",
     "Security lockout":"Khóa bảo mật",
     "Volume":"Âm lượng",
     "Set Volume":"Chỉnh Âm lượng",
     "Battery Sync Reminder":"Nhắc nhở đồng bộ hoá Pin",
     "Sync to delete":"Đồng bộ hóa để xóa",
     "Delete Lock Message":"Place your phone near the lock to complete the deletion process.",
     "CONFIRM_DELETE_TEMPLATE":"Bạn có chắc bạn muốn xóa khóa này không? Lưu ý, các mã khóa được tạo trước đó có thể vẫn được lưu trong khóa.",
     "Delete Lock Fail Message":"{{lockName}} được kết nối với danh mục {{CarrierName}} và không thể xóa được. Vui lòng ngắt kết nối danh sách {{CarrierName}} trước khi xóa {{lockName}}.",
     "Never relock":"Không bao giờ khóa lại",
     "Always relock":"Luôn luôn khóa lại",
     "seconds":"giây",
     "second(s)":"giây",
     "second":"giây",
     "Set number of seconds":"Đặt số giây",
     "Enter number of seconds":"Nhập số giây",
     "Apply":"Áp dụng",
     "sec":"Giây",
     "Sensor relock can be customised from 1 to 180 seconds.":"Tự động khóa lại có thể được tùy chỉnh từ 1 đến 180 giây.",
     "Not enabled":"Không được bật",
     "Level":"Cấp độ",
     "Attempt":"Lần thử",
     "Attempts":"Các Lần thử",
     "attempt(s)":"(các) lần thử",
     "Deactivate lockout":"Vô hiệu hóa khóa",
     "On":"Bật",
     "Off":"Tắt",
     "No Reminder":"No Reminder",
     "Relock Reminder Alert":"Relock Reminder Alert",
     "Firmware Version":"Firmware Version",
     "Calibrate Lock":"Calibrate Lock",
     "Lock Rotation":"Lock Rotation",
     "Step 1: Manually calibrate lock rotation":"Step 1: Manually calibrate lock rotation",
     "Step 2: Keep your door closed":"Step 2: Keep your door closed",
     "We will attempt the lock rotation you selected to see if it works for your door":"We will attempt the lock rotation you selected to see if it works for your door",
     "Step 3: Lock calibrated":"Step 3: Lock calibrated",
     "Calibration in progress...":"Calibration in progress...",
     "Prepare your lock":"Prepare your lock",
     "Calibrating":"Calibrating",
     "Calibration":"Calibration",
     "This lock rotation doesn’t work for your door.":"This lock rotation doesn’t work for your door."
  },
  "configuration":{
     "List Of Homes":"Danh sách Tài sản",
     "Which property(s) would you like to pair the lock with?":"Bạn muốn ghép khóa với (các) tài sản nào?",
     "You do not have any properties yet.":"Bạn chưa có bất kỳ tài sản nào.",
     "Add property":"Thêm tài sản",
     "Home(s)":"(Các) Tài sản",
     "All Properties":"Mọi tài sản",
     "Pinned Locks":"Khoá được gắn vào"
  },
  "alert":{
     "Invalid Selection":"Lựa chọn không hợp lệ",
     "Please select listings that belongs to the same region.":"Vui lòng chọn (các) tài sản thuộc cùng một vùng.",
     "Unable to re-associate to a property of different region":"Do note that you are unable to re-associate to a property of different region. Please re-pair to do that.",
     "Unable to Remove Home":"Không thể Xóa Tài sản",
     "Unable to Remove Home message":"{{listingName}} được kết nối với {{provider}} và không thể loại bỏ. Vui lòng chuyển đến phần đặt chỗ và ngắt kết nối {{listingName}} trước khi xoá.",
     "Unable to Remove Home message with lock":"{{listingName}} có thiết bị được ghép và không thể loại bỏ được. Vui lòng ngắt kết nối thiết bị của bạn khỏi {{listingName}} trước khi xoá {{listingName}}."
  },
  "provider":{
     "Disconnect Listing":"Ngắt kết nối với Airbnb",
     "Disconnect Airbnb Listing Message":"Bạn có chắc ngừng kết nối danh sách nhà đã được liên kết với danh sách nhà Airbnb. Tất cả các lịch đặt phòng sẽ bị hủy bỏ. Mọi lịch đặt phòng trong tương lai sẽ không được xử lý.",
     "guest(s)":"khách",
     "Access Methods":"Phương pháp truy cập",
     "listings":"các danh mục",
     "All Connected":"Tất cả đã được kết nối",
     "All":"Tất cả",
     "Generate PIN(s) now":"Generate PIN(s) now"
  },
  "support":{
     "Help & Support":"Giúp đỡ & Hỗ trợ",
     "Youtube Channel":"Kênh Youtube"
  },
  "Managing access on the go":"Quản lý truy cập khi đang di chuyển.",
  "Reservation Details":"Thông tin đặt phòng",
  "Edit Reservation":"Chỉnh sửa đặt trước",
  "Connect":"Kết nối",
  "Disconnect":"Hủy",
  "Select Listing":"Chọn nhà",
  "Select a home to connect":"Chọn Tài sản để kết nối",
  "Guest":"Khách",
  "Timezone":"Múi giờ",
  "Profile":"Hồ sơ",
  "External Reservation":"Nhà cung cấp",
  "Update PIN Send Time Message":"Quyền truy cập email cho {{guestName}} sẽ được gửi {{sendAccessEmail}} giờ trước khi đăng ký.",
  "Share":"Chia sẻ",
  "Skip":"Skip",
  "Send PIN Email Now":"Gửi mã PIN qua Email ngay bây giờ",
  "No Reservation Found":"Không thể tìm thấy lịch đặt phòng này hoặc có thể lịch đặt phòng này đã bị xóa.",
  "PIN Email Sent With Time":"Email mã ra vào đã được gửi {{time_ago}} trước",
  "PIN Email Send Time Now":"Đang gửi email truy cập",
  "PIN Email Send Time Future":"Email quyền truy cập sẽ được gửi vào {{time_future}}",
  "Reservation Share Msg":"Kính gửi {{guestName}}, đây là mã ra vào của bạn cho {{listingName}} từ {{startDate}} đến {{endDate}}.\n{{access_pin_list}}",
  "Reservation Share Msg Access Pin Partial":"Mã PIN cho {{lockName}}: {{pinCode}}",
  "Name":"Tên",
  "Region":"Khu vực",
  "Connect External Providers":"Kết nối với nhà cung cấp",
  "Listing Details":"Thông tin danh sách",
  "Select Your Product":"Chọn sản phẩm",
  "Other igloohome locks":"Các khoá igloohome khác",
  "Select Others":"Chọn cái Khác",
  "Issue new key for":"Thêm khóa mới cho",
  "Family":"Gia đình",
  "Friends":"Bạn bè",
  "Visitors":"Khách đến thăm",
  "Tenants":"Người thuê nhà",
  "Services":"Dịch vụ",
  "Staff":"Nhân viên",
  "Guests":"Khách",
  "Others":"Khác",
  "Key Card Holder":"Thẻ chìa khóa",
  "Access Type":"Loại khóa",
  "Repeat this PIN":"Lặp lại PIN này",
  "Start Time":"Thời gian bắt đầu",
  "End Time":"Thời gian kết thúc",
  "Start Date":"Ngày bắt đầu",
  "End Date":"Ngày kết thúc",
  "Now":"Ngay bây giờ",
  "Start Day":"Ngày Bắt đầu",
  "Start Day of Month":"Ngày Bắt đầu của Tháng",
  "End Day of Month":"Ngày Kết thúc của tháng",
  "End Day":"Ngày Kết thúc",
  "Effective Start Date":"Ngày Bắt đầu Hiệu lực",
  "PIN":"PIN",
  "One Time PIN":"PIN dùng một lần",
  "Permanent PIN":"PIN vĩnh viễn",
  "Duration PIN":"PIN thời hạn",
  "Weekly PIN":"PIN Hàng tuần",
  "Weekday PIN":"PIN Ngày thường",
  "Weekend PIN":"PIN Ngày cuối tuần",
  "Monthly PIN":"PIN Hàng tháng",
  "Repeats Sat and Sun":"Repeats Sat and Sun",
  "Repeats Mon to Fri":"Repeats Mon to Fri",
  "Repeats every Week":"Repeats every Week",
  "Repeats every Month":"Repeats every Month",
  "Recurring PIN":"PIN định kỳ",
  "Bluetooth Key":"Chìa khóa Bluetooth",
  "Guest Bluetooth Keys":"Chìa khóa Bluetooth cho Khách",
  "Keycard":"Thẻ chìa khóa",
  "Add duration placeholder":"Ví dụ, Mã này dành cho ai",
  "Lock Owner":"Chủ sở hữu khóa",
  "Master PIN":"PIN chủ",
  "Master pin never expires":"PIN chủ không có hạn sử dụng",
  "Remove from List":"Xóa khỏi danh sách",
  "Add New Home":"Thêm Tài sản mới",
  "Name your home":"Đặt tên Tài sản của bạn",
  "Edit your home":"Chỉnh sửa Tài sản của bạn",
  "Edit":"Chỉnh sửa",
  "Refreshing":"Đang làm mới...",
  "Pull to refresh":"Kéo để làm mới...",
  "Loading more data":"Đang tải thêm dữ liệu...",
  "Enter 7-9 digit PIN":"Nhập PIN 7-9 chữ số",
  "Repeat PIN":"Nhập lại PIN",
  "PIN code placeholder":"Nhập mã PIN",
  "Re-enter PIN code":"Nhập lại mã PIN",
  "Connect Airbnb Listing":"Kết nối Danh sách Airbnb",
  "Connect Your AirBnb Listing":"Kết nối Danh sách Airbnb của bạn'",
  "Select Airbnb Listing":"Chọn Danh sách Airbnb",
  "Day":"Ngày",
  "Days":"Ngày",
  "Month":"Tháng",
  "Months":"Tháng",
  "Hours":"Giờ",
  "Hour":"Giờ",
  "Minutes":"Phút",
  "Before":"vi-trước",
  "Select send PIN time":"Thời gian mặc định cho (các) khách của bạn để nhận được email truy cập sẽ là 1 giờ trước khi làm thủ tục nhận phòng. Để thay đổi điều này, chỉ cần chọn số (theo giờ) mà bạn muốn khách mời nhận email truy cập.",
  "Select send PIN time2":"Please select the number of hour(s) before check in time for your guests to receive their access message. The default is 1 hour.",
  "hour(s) before check in time":"giờ trước giờ nhận phòng",
  "No data found":"Không tìm thấy dữ liệu nào",
  "Lock Info":"Thông tin khóa",
  "Basic Unlock":"Mở khóa Cơ bản",
  "Basic":"Cơ bản",
  "Logs":"Nhật ký",
  "Settings":"Tùy chỉnh",
  "Lock Settings":"Cài đặt khoá",
  "Issue Access":"Tạo khóa",
  "Activity Log":"Lịch sử hoạt động",
  "Igloohome Help Center":"Trung tâm trợ giúp igloohome",
  "Welcome to igloohome":"Chào mừng bạn đến với Igloohom",
  "Receive bluetooth key":"Nhận khóa bluetooth",
  "Pair new lock":"Ghép nối khóa mới",
  "Request Instant Access":"Request Instant Access",
  "Go to visit page":"Truy cập trang truy cập",
  "Add lock":"Thêm khóa",
  "Manage Homes":"Quản lý Tài sản",
  "Claim Bluetooth Key":"Nhận chìa khóa Bluetooth",
  "Manage Locks":"Quản lý khóa",
  "Scan QR code to add key":"Quét mã QR để thêm chìa khóa",
  "Customise email message":"Nếu bạn muốn kiểm tra email chào mừng sẽ được gửi đến cho khách của bạn, vui lòng nhấp vào nút 'Gửi Thử Nghiệm Email Chào Mừng'. Email sẽ được gửi đến địa chỉ email của bạn. Nếu bạn muốn kiểm tra email truy cập sẽ được gửi đến cho khách của bạn, vui lòng nhấp vào nút 'Gửi Thử nghiệm Email Truy Cập'. Email thử nghiệm sẽ được gửi đến địa chỉ email của bạn. Để tùy chỉnh email truy cập theo thông số của bạn, vui lòng nhấp vào nút 'Hỗ trợ Liên hệ'. Thủ tục tuỳ chỉnh cho email sẽ được hiển thị.",
  "BTKEY_UNLOCK":"{{firstName}} {{lastName}} ({{ekeyName}}) đã mở khóa khóa thông qua Khóa Bluetooth.",
  "EASY_UNLOCK":"Bạn đã mở khóa bằng tính năng Mở khóa Nhanh.",
  "BASIC_UNLOCK":"Bạn đã mở khóa.",
  "CREATE_PINCODE":"Bạn đã tạo mã PIN hoạt động trong vòng {{durationCode}}.",
  "CREATE_PINCODE_WITH_PINTYPE":"Bạn đã tạo {{pinType}}.",
  "CREATE_PINCODE_WITH_PINTYPE_VIA_BLUETOOTH":"Bạn đã tạo {{pinType}} qua Bluetooth.",
  "CREATE_PINCODE_DURATION":"Bạn đã tạo mã PIN hoạt động từ {{start}} đến {{end}}.",
  "CREATE_PINCODE_DURATION_VIA_BLUETOOTH":"Bạn đã tạo mã PIN có hiệu lực từ {{start}} đến {{end}} qua Bluetooth.",
  "PAIR":"Bạn đã kết nối khóa.",
  "RESET":"Bạn đã cài đặt lại khóa và xóa PIN",
  "TODAY":"Hôm nay",
  "YESTERDAY":"Hôm qua",
  "LOG_CHANGE_MASTER_PIN":"Bạn đã chỉnh sửa mã PIN Chính.",
  "LOG_ENABLE_AUTO_RELOCK_VIA_BLUETOOTH_SIMPLE":"Tự động Khóa lại đã được kích hoạt.",
  "LOG_ENABLE_AUTO_RELOCK_VIA_BLUETOOTH_EXTENDED":"Tự động Khóa lại đã được bật và được đặt ở giá trị {{newValue}}s.",
  "LOG_DISABLE_AUTO_RELOCK_VIA_BLUETOOTH":"Tự động Khóa lại đã bị vô hiệu hóa.",
  "LOG_CHANGE_INCORRECT_PIN_LOCKOUT_COUNT_VIA_BLUETOOTH":"Số lần thử Khóa Bảo mật đã được đặt thành {{newValue}}",
  "LOG_DISABLE_INCORRECT_PIN_LOCKOUT_COUNT_VIA_BLUETOOTH":"Nỗ lực Khóa Bảo mật đã bị vô hiệu hóa",
  "LOG_CHANGE_VOL_VIA_BLUETOOTH":"Khối lượng khóa đã được đặt thành Cấp {{newValue}}",
  "LOG_PIN_DELETE":"Mã PIN {{pinDescription}} đã bị xóa khỏi khóa.",
  "LOG_PIN_UNLOCK_MASTER":"Mã PIN chủ (master) đã được sử dụng để mở khóa.",
  "LOG_PIN_UNLOCK_GUEST":"{{guestName}} đã sử dụng mã PIN để mở khóa.",
  "LOG_PIN_CHANGE_GUEST_FROM_KEYPAD":"{{guestName}} đã thay đổi mã PIN bằng bàn phím số trên khóa.",
  "LOG_PIN_DELETE_GUEST_FROM_KEYPAD":"{{guestName}} đã xóa mã PIN bằng bàn phím số trên khóa.",
  "LOG_PIN_UNLOCK_NO_PINTYPE":"Mã PIN \"{{pinDescription}}\" đã được sử dụng để mở khóa.",
  "LOG_PIN_UNLOCK":"Mã {{pinType}} \"{{pinDescription}}\" đã được sử dụng để mở khóa.",
  "LOG_PIN_CHANGE_FROM_KEYPAD":"Mã PIN \"{{pinDescription}}\" đã bị thay đổi bằng bàn phím số trên khóa.",
  "LOG_PIN_DELETE_FROM_KEYPAD":"Mã PIN \"{{pinDescription}}\" đã bị xóa bằng bàn phím số trên khóa.",
  "LOG_PIN_UNLOCK_FAILED":"Ai đó đã cố gắng nhập mã PIN \"{{pinCodeNumber}}\" không hợp lệ.",
  "LOG_DELETE_ALL_PINS_FROM_KEYPAD":"Toàn bộ mã PIN đã bị xóa bằng bàn phím số trên khóa.",
  "LOG_PIN_LOCK_BATTERIES_CHANGED":"Khóa đã được thay pin. Mức pin mới: {{level}}%",
  "LOG_ENABLE_TIME_AUTOLOCK":"Khóa hẹn giờ đã được cài đặt trong {{relockTime}}s.",
  "LOG_DISABLE_TIME_AUTOLOCK":"Khóa hẹn giờ đã được tắt.",
  "LOG_ENABLE_SENSOR_AUTOLOCK":"Tự động Khóa lại đã được bật.",
  "LOG_DISABLE_SENSOR_AUTOLOCK":"Tự động Khóa lại đã được tắt.",
  "LOG_LOCK_VOLUME":"Âm báo của khóa đã được đặt ở mức {{volume}}.",
  "LOG_NFC_PIN_SET":"4 chữ số quản lý đã được đặt là {{nfcPin}}.",
  "LOG_NFC_REGISTERED":"Thẻ chìa khóa {{nfcCardId}} đã được thêm vào.",
  "LOG_NFC_REGISTERED_NAME":"Key Card \"{{name}}\" has been added.",
  "LOG_NFC_DEREGISTERED":"Thẻ chìa khóa {{nfcCardId}} đã được xóa.",
  "LOG_NFC_DEREGISTERED_NAME":"Thẻ chìa khóa \"{{name}}\" đã được xóa.",
  "LOG_NFC_UNLOCK":"Thẻ chìa khóa {{nfcCardId}} đã được dùng để mở khóa.",
  "LOG_NFC_UNLOCK_NAME":"Thẻ chìa khóa \"{{name}}\" đã được dùng để mở khóa này.",
  "AUTO_RELOCK_AFTER_OPENING_AND_CLOSING_LOCK":"Lock has auto-relocked after closing.",
  "AUTO_RELOCK_WITHOUT_FIRST_OPENING_LOCK":"Lock has auto-relocked without opening.",
  "LOCK_VIA_KEYPAD_OR_BUTTON":"You have locked the lock via keypad or function button.",
  "RELOCK_ALARM_DISABLED":"Relock Reminder Alert has been disabled.",
  "RELOCK_ALARM_ENABLED":"Relock Reminder Alert has been set to {{seconds}} seconds.",
  "Attempted_BREAK_IN":"Intrusion detected on the lock. Please check immediately.",
  "DELETE_FINGERPRINT":"Fingerprint \"{{description}}\" has been deleted.",
  "ADD_FINGERPRINT":"Fingerprint \"{{description}}\" has been added.",
  "UNLOCK_VIA_FINGERPRINT":"Fingerprint \"{{description}}\" was used to unlock the lock.",
  "INVALID_FINGERPRINT":"An invalid Fingerprint was attemped.",
  "UNLOCK_VIA_BUTTON":"You have unlocked the lock via the function button.",
  "LINK_FOB":"Key Fob \"{{name}}\" has been added to the lock.",
  "UNLINK_FOB":"Lock has been unlinked from the Key Fob \"{{name}}\"",
  "BLOCK_FOB":"Key Fob \"{{name}}\" has been blocked from the lock.",
  "DELETE_FOB_FROM_LOCK":"Key Fob \"{{name}}\" has been deleted from the lock.",
  "UNLOCK_FOB":"Key Fob \"{{name}}\" was used to unlock the lock.",
  "LOCK_WITH_FOB":"Key Fob \"{{name}}\" was used to lock the lock.",
  "LOCK_VIA_KEY_OR_THUMBTURN":"You have Locked via physical key or thumb turn.",
  "UNLOCK_VIA_KEY_OR_THUMBTURN":"You have Unlocked via physical key or thumb turn.",
  "You have successfully changed your account details":"Bạn đã thay đổi thành công thông tin tài khoản của mình",
  "You have successfully changed your password":"Bạn đã thay đổi thành công mật khẩu của mình",
  "You have successfully changed your settings":"Bạn đã thay đổi thành công cài đặt của mình",
  "You have successfully claimed your bluetooth key":"Bạn đã xác nhận thành công khoá bluetooth của mình",
  "This lock has been added to favourite list":"Khóa này đã được thêm vào danh sách khóa được ghim",
  "This lock has been removed from favourite list":"Khóa này đã được xóa khỏi danh sách khóa được ghim",
  "You have successfully sync the lock":"Bạn đã đồng bộ hóa khóa thành công",
  "You have successfully disconnected from Airbnb account":"Bạn đã ngắt kết nối khỏi tài khoản Airbnb thành công",
  "Your action was successful":"Hành động của bạn đã thành công",
  "UNLOCK_BY_EKEY_TITLE":"Truy cập vào khóa",
  "UNLOCK_BY_EKEY_MSG":"%1$@ đã mở khóa %2$@ với một chìa khóa Bluetooth",
  "EKEY_CLAIMED_TITLE":"Chìa khóa Bluetooth được chấp nhận",
  "EKEY_CLAIMED_MSG":"%1$@ đã chấp nhận chìa khóa Bluetooth của bạn cho %2$@",
  "WELCOME_EMAIL_PUSH_TITLE":"Nhà Email Chào Mừng",
  "WELCOME_EMAIL_PUSH_MSG":"%1$@ đã nhận được email chào mừng cho nhà %2$@.",
  "PIN_EMAIL_PUSH_TITLE":"Email Mã Ra Vào",
  "PIN_EMAIL_PUSH_MSG":"%1$@ đã nhận được Email mã ra vào cho nhà %2$@.",
  "UNLOCK_BY_EKEY_TOAST":"{{val1}} đã mở khóa {{val2}} với một chìa khóa Bluetooth",
  "EKEY_CLAIMED_TOAST":"{{val1}} đã chấp nhận chìa khóa Bluetooth của bạn cho {{val2}}",
  "WELCOME_EMAIL_PUSH_TOAST":"{{val1}} đã nhận được email chào mừng cho nhà {{val2}}.",
  "PIN_EMAIL_PUSH_TOAST":"{{val1}} đã nhận được Email mã ra vào cho nhà {{val2}}.",
  "Forgot Password Success Title":"Đã Gửi Email Thiết lập lại Mật khẩu",
  "Forgot Password Success Message":"Một email thiết lập lại mật khẩu đã được gửi đến địa chỉ email của bạn. Nhấp vào liên kết để thiết lập lại mật khẩu của bạn.",
  "Register Success Title":"Xác nhận địa chỉ Email",
  "Register Success Message":"Thông báo xác nhận địa chỉ Email đã được gửi đến {{email}}. Xin vui lòng xác nhận tài khoản của bạn và đăng nhập.",
  "I have agreed to":"I have agreed to ",
  "terms of Service":"Terms of Service",
  "and":"and ",
  "Privacy Policy":"Privacy Policy",
  "By clicking Sign In, you acknowledge you have agreed to":"By clicking Sign In, you acknowledge you have agreed to ",
  "Pin Copied":"Pin copied",
  "fingerprint":{
     "Fingerprint":"Fingerprint",
     "Unlocks with fingerprint":"Unlocks with fingerprint",
     "Step 1: Get ready to scan":"Step 1: Get ready to scan",
     "Ensure that your finger is clean and dry.":"Ensure that your finger is clean and dry.",
     "Step 3: Scan your fingerprint":"Step 3: Scan your fingerprint",
     "Scan required":"Scan required",
     "Ensure that you press your finger on the scanner firmly":"Ensure that you press your finger on the scanner firmly",
     "I'm Done":"I'm Done",
     "Step 2: Name your fingerprint":"Step 2: Name your fingerprint",
     "There will be 3 scans required to register your fingerprint.":"There will be 3 scans required to register your fingerprint.",
     "Always place your finger at the center of the scanner for optimal perfomance.":"Always place your finger at the center of the scanner for optimal perfomance.",
     "Please try again. Do place your finger at the center firmly.":"Please try again. Do place your finger at the center firmly.",
     "Delete Fingerprint Access":"Delete Fingerprint Access",
     "Edit Fingerprint":"Edit Fingerprint",
     "Add Fingerprint":"Add Fingerprint",
     "Fingerprint ID":"Fingerprint ID",
     "Fingerprint added":"Fingerprint added"
  },
  "fob":{
     "You do not have any paired fobs.":"You do not have any paired {{ecosystemType}}.",
     "Manage fobs":"Manage {{ecosystemType}}",
     "Add Fob":"Add {{ecosystemType}}",
     "step1":"Step 1 : Prepare your {{ecosystemType}} for pairing",
     "step2":"Step 2 : Select Key Fob ID",
     "Enter Fob name":"Enter {{ecosystemType}} name",
     "Fob paired":"Key Fob paired!",
     "Link Fob":"Link {{ecosystemType}}",
     "Would you like to link your Fob to a lock now":"Would you like to link your {{ecosystemType}} to a lock now?",
     "Link lock from Fob":"Link lock from {{ecosystemType}}",
     "step1 link fob":"Step 1 : Get your {{ecosystemType}} ready",
     "step2 link fob":"Step 2 : Select a lock to link",
     "step3 link fob":"Step 3 : Linking your {{ecosystemType}} to {{lockname}}",
     "Linking Fob":"Linking {{ecosystemType}}",
     "Fob Linked":"{{ecosystemType}} Linked",
     "Fob successfully linked with":"{{ecosystemType}} successfully linked with \"{{lockname}}\"",
     "Fob Settings":"{{ecosystemType}} Settings",
     "Are you sure you want to unlink from":"Are you sure you want to unlink {{lock}} from {{fobname}}?",
     "Get your Fob ready":"Get your {{ecosystemType}} ready",
     "Successfully Deleted":"\"{{fobname}}\" Successfully Deleted",
     "Delete Fob":"Delete {{ecosystemType}}",
     "Unpair Fob from phone":"Unpair Key Fob from your phone",
     "Edit Fob Name":"Edit {{ecosystemType}} Name",
     "Fob name":"{{ecosystemType}} name",
     "Are you sure you want to delete Fob_name for all your locks":"Are you sure you want to delete {{fobname}} access for all your locks?",
     "Pair your Fob":"Pair your {{ecosystemType}}",
     "I lost my fob":"I lost my {{ecosystemType}}",
     "Lost your Fob":"Lost your {{ecosystemType}}?",
     "What to do when you have lost your Fob":"What to do when you have lost your {{ecosystemType}}",
     "When you lost your fob, you can revoke access to immediately to secure your place.":"When you lost your Key Fob, you can revoke access to immediately to secure your place.",
     "Revoke Fob access":"Revoke {{ecosystemType}} access",
     "lostFobRevoke":"You will no longer be able to unlock your linked lock(s) using the revoked {{ecosystemType}}.",
     "Step 1: Revoke Fob access":"Step 1: Revoke {{ecosystemType}} access",
     "Step 2: Delete Fob permanently":"Step 2: Delete {{ecosystemType}} permanently",
     "Permanently delete Fob from your account.":"Permanently delete your {{ecosystemType}} from your account.",
     "Are you sure you want revoke fob access for Lock_Name?":"Are you sure you want revoke {{ecosystemType}} access for {{Lock_Name}}?",
     "Remove Lock_Name from your Fob":"Remove {{Lock_Name}} from your Key Fob",
     "Lock successfully removed from your Fob.":"Lock successfully removed from your {{ecosystemType}} .",
     "Delete your Fob":"Delete your {{ecosystemType}}",
     "Your linked access will be removed automatically after you sync these access":"Your linked access will be removed automatically after you sync these access :",
     "Please wait while we remove all your Fob data":"Please wait while we remove all your {{ecosystemType}}’s data.",
     "Fob sucessfully removed":"Key Fob sucessfully removed.",
     "Please wait while we removing your lock from fob":"Please wait while we removing your lock from Key Fob.",
     "fob not found":"Device not found.",
     "fob aleready paired":"This Key Fob has already been paired.",
     "Delete fob alert":"Please unlink your linked lock(s) before deleting your device.",
     "This lock(s) has been deleted":"This lock has been deleted, please unlink it from the {{ecosystemType}}",
     "Fob has been blacklisted from the lock.":"Key Fob \"{{fobs_name}}\" has been blacklisted from the lock.",
     "Make sure your Fob is discoverable":"Make sure your {{ecosystemType}} is discoverable",
     "To start using your Fob, ensure the blue light is no longer flashing by holding onto the settings button":"To start using your Key Fob, ensure the blue light is no longer flashing by holding onto the settings button."
  },
  "bridge":{
     "Manage Bridge":"Manage {{ecosystemType}}",
     "You do not have any paired Bridge":"You do not have any paired {{ecosystemType}}.",
     "Add Bridge":"Add {{ecosystemType}}",
     "Pair your Bridge":"Pair your {{ecosystemType}}",
     "Pairing Bridge":"Pairing Bridge",
     "Step 1 Bridge pairing":"Step 1: Prepare your {{ecosystemType}} for pairing",
     "Bridge pairing message":"Connect your Bridge to power using the provided USB-C cable. \n \nPress the multi-function button once to wake the Bridge up.",
     "Step 2 Bridge pairing":"Step 2: Select Bridge ID",
     "You are connected to wifi":"You are connected to \"{{wifi_ssid}}\"",
     "Your phone is not connected to Wi-Fi":"Your phone is not connected to Wi-Fi",
     "Connected to wifi message":"Please enter your Wi-Fi password. Make sure you use a 2.4Ghz network.",
     "Step 3 Bridge pairing":"Bridge Paired!",
     "Not connected to wifi message":"Please connect your phone to your Wi-Fi to continue pairing.",
     "Incorrect wifi password message":"Incorrect password for \"{{wifi_ssid}}\"",
     "Set-up manually":"Set-up manually",
     "Skip this step":"Skip this step",
     "Skip wifi configuration":"Skip Wi-Fi configuration?",
     "Skip wifi configuration message":"This is an essential step in the Bridge setup process.",
     "Go to settings":"Go to settings",
     "Security":"Security",
     "Private Address":"Private Address",
     "Security types":"Security types",
     "None":"None",
     "WPA Enterprise":"WPA Enterprise",
     "WPA2 Enterprise":"WPA2 Enterprise",
     "WPA3 Enterprise":"WPA3 Enterprise",
     "Enter Bridge name":"Enter {{ecosystemType}} name",
     "Bridge name placeholder":"e.g. Home Bridge",
     "Link bridge to lock message":"Would you like to link your {{ecosystemType}} to a lock now?",
     "Current linked lock":"You currently have \"{{linkedLock}}\" locks linked",
     "Join network":"Join network",
     "Diagnostic":"Diagnostic",
     "wifi connected":"You are connected to \"{{ssid}}\"",
     "configuring wifi":"Configuring WiFi",
     "Step 1 link lock bridge":"Step 1 : Select a lock to link",
     "Step 2 link lock bridge":"Step 2 : Linking your {{ecosystemType}} to {{LockName}}",
     "Bridge successfully linked":"{{ecosystemType}} successfully linked with \"{{lockname}}\"",
     "You now have locks linked":"You now have  {{numberlock}}\/10 locks linked",
     "Diagnostics":"Diagnostics",
     "Check network status":"Check network status",
     "Remove Bridge name":"Remove {{bridgeName}}",
     "What to do when you have lost your Bridge":"What to do when you have lost your {{ecosystemType}}",
     "Remove Bridge from account":"Remove Bridge from account",
     "Allow Bridge to be paired to another account":"Allow Bridge to be paired to another account",
     "Bridge name":"{{ecosystemType}} name",
     "Delete Bridge":"Delete {{ecosystemType}}",
     "Bridge Settings":"{{ecosystemType}} Settings",
     "Delete bridge alert":"Are you sure you want to delete {{acc_name}} access for all your locks?",
     "I lost my bridge":"I lost my {{ecosystemType}}",
     "Unpair bridge from phone":"Unpair Bridge from your phone",
     "Edit Bridge Name":"Edit {{ecosystemType}} Name",
     "Bridge Wi-Fi Configuration":"Bridge Wi-Fi Configuration",
     "Configure Bridge Wi-Fi so you can start using your lock remotely":"Configure Bridge Wi-Fi so you can start using your lock remotely.",
     "Wifi Configuration message":"For some devices, we might ask you to enable location services to identify the SSID of the Wi-Fi that your phone’s connected to.",
     "Start Wi-Fi configuration":"Start Wi-Fi configuration"
  },
  "keypad":{
     "You do not have any paired Keypad.":"You do not have any paired {{ecosystemType}}.",
     "Manage Keypad":"Manage {{ecosystemType}}",
     "Add Keypad":"Add {{ecosystemType}}",
     "pairing step2":"Step 2 : Prepare your {{ecosystemType}} for pairing",
     "pairing step3":"Step 3 : Select Keypad ID",
     "Enter Keypad name":"Enter {{ecosystemType}} name",
     "Keypad paired":"Keypad paired!",
     "Link Keypad":"Link {{ecosystemType}}",
     "Would you like to link your Keypad to a lock now":"Would you like to link your {{ecosystemType}} to a lock now?",
     "Link lock from Keypad":"Link lock from {{ecosystemType}}",
     "step1 link keypad":"Step 1 : Get your {{ecosystemType}} ready",
     "step2 link keypad":"Step 2 : Select a lock to link",
     "step3 link keypad":"Step 3 : Linking your {{ecosystemType}} to {{lockname}}",
     "Linking Keypad":"Linking {{ecosystemType}}",
     "Keypad Linked":"{{ecosystemType}} Linked",
     "Keypad successfully linked with":"{{ecosystemType}} successfully linked with \"{{lockname}}\"",
     "Keypad Settings":"{{ecosystemType}} Settings",
     "Are you sure you want to unlink from":"Are you sure you want to unlink {{lock}} from {{keypadname}}?",
     "Get your Keypad ready":"Get your {{ecosystemType}} ready",
     "Successfully Deleted":"\"{{keypadname}}\" Successfully Deleted",
     "Delete Keypad":"Delete {{ecosystemType}}",
     "Unpair Keypad from phone":"Unpair Keypad from your phone",
     "Edit Keypad Name":"Edit {{ecosystemType}} Name",
     "Keypad name":"{{ecosystemType}} name",
     "Are you sure you want to delete Keypad_name for all your locks":"Are you sure you want to delete {{keypadname}} access for all your locks?",
     "Pair your Keypad":"Pair your {{ecosystemType}}",
     "I lost my keypad":"I lost my {{ecosystemType}}",
     "Lost your Keypad":"Lost your {{ecosystemType}}?",
     "What to do when you have lost your Keypad":"What to do when you have lost your {{ecosystemType}}",
     "When you lost your keypad, you can revoke access to immediately to secure your place.":"When you lost your Keypad, you can revoke access to immediately to secure your place.",
     "Revoke Keypad access":"Revoke {{ecosystemType}} access",
     "lostKeypadRevoke":"You will no longer be able to unlock your linked lock(s) using the revoked {{ecosystemType}}.",
     "Step 1: Revoke Keypad access":"Step 1: Revoke {{ecosystemType}} access",
     "Step 2: Delete Keypad permanently":"Step 2: Delete {{ecosystemType}} permanently",
     "Permanently delete Keypad from your account.":"Permanently delete your {{ecosystemType}} from your account.",
     "Are you sure you want revoke keypad access for Lock_Name?":"Are you sure you want revoke {{ecosystemType}} access for {{Lock_Name}}?",
     "Remove Lock_Name from your Keypad":"Remove {{Lock_Name}} from your Keypad",
     "Lock successfully removed from your Keypad.":"Lock successfully removed from your {{ecosystemType}}.",
     "Delete your Keypad":"Delete your {{ecosystemType}}",
     "Your linked access will be removed automatically after you sync these access":"Your linked access will be removed automatically after you sync these access :",
     "Please wait while we remove all your Keypad data":"Please wait while we remove all your {{ecosystemType}}’s data.",
     "Keypad sucessfully removed":"Keypad sucessfully removed.",
     "Please wait while we removing your lock from keypad":"Please wait while we removing your lock from Keypad.",
     "keypad not found":"Device not found.",
     "keypad aleready paired":"This Keypad has already been paired.",
     "Delete keypad alert":"Please unlink your linked lock(s) before deleting your device.",
     "This lock(s) has been deleted":"This lock has been deleted, please unlink it from the {{ecosystemType}}",
     "Keypad has been blacklisted from the lock.":"Keypad \"{{Keypad_name}}\" has been blacklisted from the lock.",
     "Make sure your Keypad is discoverable":"Make sure your {{ecosystemType}} is discoverable",
     "To start using your Keypad, ensure the blue light is no longer flashing by holding onto the settings button":"To start using your Keypad, ensure the blue light is no longer flashing by holding onto the settings button."
  },
  "accecories":{
     "Link now":"Link now",
     "Link later":"Link later",
     "Select lock":"Select lock",
     "Link more locks":"Link more locks",
     "Linked Lock(s)":"Linked Lock(s)",
     "Linked Locks":"Linked Locks",
     "Unlink Lock":"Unlink Lock?",
     "Unlink":"Unlink",
     "Unlink lock":"Unlink lock",
     "Unlinking":"unlinking \"{{name}}\"",
     "Successfully Unlinked":"\"{{lockname}}\" Successfully Unlinked",
     "Deleting":"Deleting \"{{name}}\"",
     "Linked to multiple locks":"Linked to multiple locks",
     "Linked to lockname":"Linked to \"{{lockname}}\"",
     "Not linked":"Not linked",
     "Open the back cover and hold setting button until blue light flashes":"Open the back cover and hold onto the settings button until the blue light flashes",
     "You have linked number locks":"You have linked ({{number}}\/5) locks",
     "You can link up to 5 locks":"You can link up to 5 locks",
     "Please make sure your lock(s) are nearby to revoke access.":"Please make sure your lock(s) are nearby to revoke access.",
     "Revoke access":"Revoke access",
     "I no longer have this lock":"I no longer have this lock",
     "Please confirm that you no longer have this lock.":"Please confirm that you no longer have this lock.",
     "Remove lock":"Remove lock",
     "Remove Lock_Name":"Remove {{Lock_Name}}",
     "This will permanently remove it from your account":"This will permanently remove it from your account",
     "Delete Permanently":"Delete Permanently",
     "Do you want to unlink lock":"Do you want to unlink lock?",
     "Do you want to unlink your lock":"Do you want to unlink your lock?",
     "Any access granted to linked devices will still persist. Would you like to unlink them now":"Any access granted to linked devices will still persist. Would you like to unlink them now?",
     "Later":"Later",
     "Linked Devices":"Linked Devices",
     "Unlink device":"Unlink device?",
     "lock aleready linked":"This lock already linked to this device."
  },
  "retrofit":{
     "Auto-relock calibration":"Auto-relock calibration",
     "Calibrating auto-relock":"Calibrating auto-relock",
     "Lock position":"Lock position",
     "Calibrate the lock’s magnet sensor to optimize auto-relock performance":"Calibrate the lock’s magnet sensor to optimize auto-relock performance.",
     "Ensure that the door is closed":"Ensure that the door is closed.",
     "Tap next and you should hear a chime":"Tap next and you should hear a chime.",
     "Choose your door lock position":"Choose your door lock position",
     "Calibration in progress":"Calibration in progress...",
     "Calibration complete":"Calibration complete",
     "Start calibration":"Start calibration",
     "Open your door slightly so it’s ajar":"Open your door slightly so it’s ajar.",
     "1 of 2":"1 of 2",
     "2 of 2":"2 of 2",
     "Left":"Left",
     "Right":"Right",
     "Lock rotation":"Lock rotation",
     "Single Lock":"Single Lock",
     "Double Lock":"Double Lock",
     "Auto Unlock":"Auto-Unlock",
     "Location radius":"Location radius",
     "Automatically unlock your lock when you return to your property":"Automatically unlock your lock when you return to your property.",
     "Auto-Unlock is already active for lock_name":"Auto-Unlock is already active for {{lock_name}}. Please disable Auto-Unlock for {{lock_name}} to proceed.",
     "Modify location radius depending on your property scale":"Modify location radius depending on your property scale.",
     "Adjust lock location":"Adjust lock location"
  },
  "Search lock...":"Search lock...",
  "Couldnt find lock":"Couldn't find \"{{lockname}}\"",
  "Try searching again using a different keyword.":"Try searching again using a different keyword.",
  "1.1.403":"Chúng tôi không thể đăng nhập với tên người dùng\/mật khẩu. Xin hãy thử lại.",
  "1.1.409":"Chúng tôi không thể đăng nhập. Xin hãy xác minh tài khoản của bạn bằng cách nhấp vào link trong email của bạn và thử lại.",
  "1.1.410":"Tài khoản của bạn đã bị chặn",
  "2.1.403":"Email {{email}} đã được đăng ký.",
  "2.1.409":"Email {{email}} đã được đăng ký.",
  "3.1.403":"Chúng tôi không thể thay đổi chi tiết người dùng của bạn do có lỗi xảy ra. Xin hãy thử lại.",
  "4.1.403":"Chúng tôi không thể thay đổi mật khẩu của bạn do có lỗi xảy ra. Xin hãy thử lại.",
  "5.1.403":"Chúng tôi đã gặp lỗi xảy ra khi ngắt kết nối tài khoản Airbnb của bạn, xin hãy ngắt kết nối tất cả danh sách được ghép với tài khoản Airbnb của bạn trong tab đặt phòng và thử lại.",
  "6.3.803":"Không thể xác nhận khóa bluetooth. Xin hãy thử lại.",
  "6.3.804":"Invalid QR code",
  "7.1.400":"Chúng tôi không thể thêm tài sản mới. Vui lòng thử lại.",
  "8.1.403":"{{listingName}} có thiết bị được kết nối và không thể loại bỏ. Xin hãy ngắt kết nối thiết bị của bạn khỏi {{listingName}} trước khi xoá {{listingName}}.",
  "8.1.409":"{{listingName}} được kết nối với {{provider}} và không thể loại bỏ. Xin hãy chuyển đến phần đặt chỗ và ngắt kết nối {{listingName}} trước khi xoá.",
  "9.1.404":"Chúng tôi không thể xác định vị trí hiện tại của bạn. Xin hãy bật Dịch vụ Định vị để tự động xác định vị trí nhà và múi giờ của bạn. Ngoài ra, bạn có thể tự chọn thành phố của mình.",
  "10.1.400":"Chúng tôi không thể tạo quyền truy cập cho chìa khóa của bạn. Xin hãy thử lại.",
  "13.2.880":"PIN mới đã được sử dụng. Vui lòng thử PIN khác",
  "18.1.404":"Chúng tôi không thể huỷ quyền truy cập này. Xin hãy thử lại.",
  "19.1.404":"Chúng tôi không thể thu hồi quyền truy cập này. Xin hãy thử lại.",
  "20.1.404":"Chúng tôi không thể ngắt kết nối tài sản igloohome khỏi danh sách Airbnb. Xin hãy thử lại.",
  "21.1.404":"Chúng tôi không thể gửi email truy cập cho vị khách của bạn. Xin hãy thử lại.",
  "22.1.404":"Khoá bluetooth bạn đang cố xác nhận đã được xác nhận hoặc đã hết hạn. Xin hãy liên hệ với chủ nhà của bạn để có khóa mới.",
  "22.1.409":"Bạn không được phép xác nhận khóa bluetooth của mình.",
  "22.5.1":"Vui lòng đăng nhập vào tài khoản của bạn trước khi yêu cầu khóa bluetooth.",
  "22.5.800":"Vui lòng đăng nhập vào tài khoản của bạn trước khi yêu cầu khóa bluetooth.",
  "47.5.800":"Please login to your account before requesting for instant access.",
  "47.1.409":"You are not allowed to request instant access for your lock.",
  "23.1.404":"Khóa bluetooth đã hết hạn hoặc bị thu hồi. Vui lòng liên hệ với host của bạn.",
  "23.5.703":"Lỗi Mở khóa bluetooth",
  "24.1.403":"Bạn đã đạt tối đa 5 khóa được ghim. Vui lòng mở khóa và thử lại.",
  "31.1.404":"Không tìm thấy khóa.",
  "delete_card_error":"Thẻ khóa đã xóa có khả năng vẫn còn hiển thị trong ứng dụng. Vui lòng thử lại.",
  "add_card_error":"Thẻ khóa đã thêm có thể không hiển thị trong ứng dụng. Vui lòng thử lại.",
  "unlock_error":"Không thể kết nối với khóa. Vui lòng đảm bảo rằng bàn phím đang hoạt động và thử lại. Nếu Bluetooth đang 'Bật', hãy khởi động lại Bluetooth của bạn.",
  "update mastercode error":"Không thể kết nối với Khóa. Vui lòng đảm bảo rằng bàn phím đang hoạt động và thử lại. Nếu Bluetooth đang 'Bật', hãy khởi động lại Bluetooth của bạn.",
  "delete lock error":"Không thể tháo khóa. Vui lòng đảm bảo rằng bạn đang ở trong phạm vi bluetooth của khóa và thử lại.",
  "sync lock error":"Không thể đồng bộ hóa khóa. Vui lòng đảm bảo rằng bạn đang ở trong phạm vi bluetooth của khóa và thử lại.",
  "sync lock bt in progress error":"Không thể đồng bộ hóa khóa. Vui lòng thử lại.",
  "location_permission error":"Please ensure that the Bluetooth and location are turned on, Bluetooth privacy is enabled, then try again.",
  "use pin before":"Vui lòng sử dụng mã PIN một lần trước khi tiếp tục.",
  "update your application":"Vui lòng cập nhật ứng dụng của bạn.",
  "edit pincode error":"Không thể kết nối với Khóa. Vui lòng đảm bảo rằng bàn phím đang hoạt động và thử lại. Nếu Bluetooth đang 'Bật', hãy khởi động lại Bluetooth của bạn.",
  "download":"Tải về",
  "network_error":"Vui lòng kiểm tra cài đặt mạng của bạn và thử lại.",
  "0.1.12":"Network Error",
  "invalid email":"Vui lòng nhập email hợp lệ",
  "invalid password":"Vui lòng nhập mật khẩu hợp lệ",
  "pin creation limit reached error":"PIN generation limit reached for this hour. Please wait till the next hour to generate more remotely. Alternatively, you may create PIN codes via Bluetooth.",
  "key card creation limit reached error":"Keycard creation limit reached. No further keycards can be added.",
  "legacy pin creation limit reached error":"PIN creation limit reached. Please delete all PINs to create more.",
  "Instant Access Request invalid. Lock is not paired to any account.":"Instant Access Request invalid. Lock is not paired to any account.",
  "0.0.0":"Error",
  "Note":"Note",
  "Full":"Full",
  "Okay":"Moderate",
  "Low":"Low",
  "Change your battery soon":"Change your battery soon",
  "You haven't add any listing yet.":"You haven't add any listing yet.",
  "You can send a test access message to your email.":"You can send a test access message to your email",
  "The actual access message will be sent to your guest via Airbnb platform before check-in time.":"The actual access message will be sent to your guest via Airbnb platform before check-in time.",
  "To customize the access message, please contact our support.":"To customize the access message, please contact our support.",
  "Add Listing":"Add Listing",
  "Test Access Message":"Test Access Message",
  "Send Access Message Now":"Send Access Message Now",
  "Send Access Message":"Send Access Message",
  "PIN Message Sent With Time":"message sent {{time_ago}}",
  "PIN Message Send Time Future":"message will be sent {{time_future}}",
  "Update PIN Send Time Message2":"Access message for {{guestName}} (containing access methods such as PIN codes and\/or bluetooth keys) will be sent {{sendAccessEmail}} hour(s) before check in time.",
  "Reservation Platform":"Reservation Platform",
  "Property Name":"Property Name",
  "Attention":"Attention",
  "You are making changes to the default listing settings.":"You are making changes to the default listing settings.",
  "Please note that this will not take effect on modified reservations.":"Please note that this will not take effect on modified reservations.",
  "Proceed":"Proceed",
  "The modifications will only affect this reservation. Default settings are unchanged.":"The modifications will only affect this reservation. Default settings are unchanged.",
  "Default Listing Settings":"Default Listing Settings",
  "Reservation Share Msg2":"Hi {{guestName}}, \n\nHere is your igloohome self check-in details at {{listingName}} from {{startDate}} to {{endDate}}.\n\n{{access_pin_list}}\n\n Your PIN is valid only from check-in to check-out time. Please use within 24 hours from your check-in time to activate the PIN.\n\nIf you experience any issues, please contact your host.\n\nEnjoy your stay!\nThe igloohome Team",
  "Reservation Share Msg Access detail":"{{lockName}}:\n{{pinCode}} \n",
  "All Airbnb listing has already been connected.":"All Airbnb listing has already been connected.",
  "PIN Message Send Time Now":"Sending access message now",
  "Are you sure you want to disconnect your Airbnb account? Please make sure all Airbnb listing(s) has already been disconnected.":"Are you sure you want to disconnect your Airbnb account? Please make sure all Airbnb listing(s) has already been disconnected.",
  "Access Message is being sent. Please check back for more details.":"Access Message is being sent. Please check back for more details.",
  "Message Sent":"Message Sent",
  "Template_content_required_error_message":"Please ensure you include these in your message:\n- Access detail\n- Start date\n- End date",
  "Discard_changes?":"Discard changes?",
  "Discard_template_changes_content":"Are you sure you want to discard your changes?\n\nAll changes will not be saved.",
  "Discard_button":"Discard",
  "Automated_Message_for_your_Self_Check-In":"Automated Message for your Self Check-In",
  "Note_Reservation_template":"*Note: This is a preview of your access message. The actual access message will be sent to your guest via Airbnb platform before check-in time.",
  "0.5.703":"Timeout Error",
  "0.2.6":"Unlocking too many times at once Error",
  "0.2.7":"Time Offsync error",
  "0.2.11":"Connect bt failed error",
  "0.2.12":"Unable to connect to lock coz its already connected error",
  "0.2.21":"Enable pin generation failed error",
  "0.2.41":"Retrieve Ekey Error",
  "0.2.61":"Unlock error",
  "0.2.63":"Phone disconnected while unlock error",
  "0.2.64":"Unlock AES key error",
  "0.2.71":"Set Keypad password error",
  "0.2.72":"Keypad Password Digits error",
  "0.2.100":"Network Error",
  "0.2.101":"Bind admin error",
  "0.2.121":"Add admin error",
  "0.2.122":"Add admin settings mode error",
  "0.2.131":"Upload Pincodes error",
  "0.2.141":"Get logs error",
  "0.2.151":"Reset lock error",
  "0.2.161":"NTP check error",
  "0.2.171":"Sync time error",
  "unable to connect":"Unable to connect to the device. Please try again.",
  "51.5.1003":"Please ensure that the lock is unlocked before you proceed.",
  "51.1.100":"Please check your network settings and try again.",
  "51.5.1301":"Unable to connect to the Lock. Please try again.",
  "51.5.703":"Unable to connect to the Lock. Please try again.",
  "51.5.1023":"This lock is not support firmware update.",
  "51.2.708":"Please ensure that the Bluetooth and location are turned on, Bluetooth privacy is enabled, then try again.",
  "51.5.1":"Please ensure that the Bluetooth and location are turned on, Bluetooth privacy is enabled, then try again.",
  "51.5.1303":"Please ensure that the Bluetooth and location are turned on, Bluetooth privacy is enabled, then try again.",
  "51.5.100":"Unable to connect to the Lock. Please try again.",
  "51.5.1002":"Please check your network settings and try again.",
  "51.5.1011":"DFU download error",
  "51.5.1012":"DFU download error",
  "51.5.1013":"DFU download error",
  "51.5.1014":"DFU download error",
  "51.5.1015":"DFU download error",
  "51.5.1016":"DFU download error",
  "51.5.1100":"DFU Error",
  "51.5.1021":"DFU package error",
  "51.5.1022":"DFU package initialitation error",
  "51.5.1024":"Please update your igloohome app to latest version",
  "51.5.1025":"Server bluetooth version error",
  "51.5.1026":"DFU configuration initiation error",
  "51.2.1002":"Unable to connect to the Lock. Please try again.",
  "51.2.1233":"Unable to connect to the Lock. Please try again.",
  "51.2.5206":"Please ensure that the Bluetooth and location are turned on, Bluetooth privacy is enabled, then try again.",
  "51.5.5206":"Please ensure that the Bluetooth and location are turned on, Bluetooth privacy is enabled, then try again.",
  "51.2.5196":"Unable to connect to the Lock. Please try again.",
  "51.4.1":"Please check your network settings and try again.",
  "51.2.12":"Unable to connect to the lock. Please try again.",
  "52.5.1":"Generic Error",
  "53.2.980":"Unable to delete access. Fingerprint UID could not be found. Please sync the lock and try again.",
  "52.2.960":"Fingerprint creation limit reached. Please remove another fingerprint access and try again",
  "52.2.970":"Reading error",
  "52.2.971":"Fingerprint scanning timeout. Please try again.",
  "52.2.972":"You have exceeded the number of attempts. Please make sure the scanner is clean and dry, then try again.",
  "51.1.801":"Please check your network settings and try again.",
  "38.2.860":"Please ensure that the Bluetooth and location are turned on, Bluetooth privacy is enabled, then try again.",
  "33.2.860":"Please ensure that the Bluetooth and location are turned on, Bluetooth privacy is enabled, then try again.",
  "54.2.708":"Please ensure that the Bluetooth and location are turned on, Bluetooth privacy is enabled, then try again.",
  "33.2.708":"Please ensure that the Bluetooth and location are turned on, Bluetooth privacy is enabled, then try again.",
  "airbnbError":"Cannot connect to airbnb",
  "Keycard missing uid":"Unable to delete access. Keycard UID could not be found. Please sync the lock and try again."
}