[
  "your@email.com",
  "FAQ",
  "Please keep your internet connected with the app open and place your phone near your lock",
  "New Firmware Version",
  "IMPORTANT",
  "firmware update",
  "Make sure the blue light on your Key Fob is flashing.",
  "Please hold onto the settings button if the blue light on your Key Fob stops flashing.",
  "Calibrate Lock",
  "Lock Rotation",
  "Visitors",
  "You have paired the lock.",
  "Key Fob \"{{name}}\" has been added to the lock.",
  "Lock has been unlinked from the Key Fob \"{{name}}\"",
  "Key Fob \"{{name}}\" has been blocked from the lock.",
  "Key Fob \"{{name}}\" has been deleted from the lock.",
  "Key Fob \"{{name}}\" was used to unlock the lock.",
  "Key Fob \"{{name}}\" was used to lock the lock.",
  "You have successfully changed your account details",
  "PIN copied",
  "Ensure that you press your finger on the scanner firmly",
  "Key Fob paired!",
  "Unpair Key Fob from your phone",
  "When you lost your Key Fob, you can revoke access to immediately to secure your place.",
  "Remove {{Lock_Name}} from your Key Fob",
  "Key Fob sucessfully removed.",
  "Please wait while we removing your lock from Key Fob.",
  "This Key Fob has already been paired.",
  "Key Fob \"{{fobs_name}}\" has been blacklisted from the lock.",
  "Connect your Bridge to power using the provided USB-C cable. \n \nPress the multi-function button once to wake the Bridge up.",
  "You are connected to \"{{wifi_ssid}}\"",
  "You currently have \"{{linkedLock}}\" locks linked",
  "Diagnostic",
  "You are connected to \"{{ssid}}\"",
  "Keypad \"{{Keypad_name}}\" has been blacklisted from the lock.",
  "\"{{lockname}}\" Successfully Unlinked",
  "Linked to \"{{lockname}}\"",
  "Ensure that the door is closed.",
  "Open your door slightly so it’s ajar.",
  "Single Lock",
  "Double Lock",
  "Your Account has been blocked",
  "You can send a test access message to your email",
  "Hi {{guestName}}, \n\nHere is your igloohome self check-in details at {{listingName}} from {{startDate}} to {{endDate}}.\n\n{{access_pin_list}} Your PIN is valid only from check-in to check-out time. Please use within 24 hours from your check-in time to activate the PIN.\n\nIf you experience any issues, please contact your host.\n\nEnjoy your stay!\nThe igloohome Team",
  "Message Sent",
  "Are you sure you want to discard your changes?\n\nAll changes will not be saved.",
  "Fingerprint creation limit reached. Please remove another fingerprint access and try again"
]