[
  "New Firmware available. Update Now.",
  "Firmware Version",
  "Firmware update is not available yet. Do check again later.",
  "Current Firmware Version",
  "Update available!",
  "Firmware is up to date!",
  "Firmware update",
  "Step 1: Download Firmware",
  "Important",
  "The update can take up to 10 minutes.",
  "Please keep your internet connected with the app open and place your phone near your lock.",
  "Do not remove the batteries.",
  "If there is an error during update, please remove the batteries and put back into the lock.",
  "Download",
  "Firmware downloaded!",
  "Please press Next.",
  "Next",
  "Step 2: Prepare your lock",
  "Unlock your lock and keep it open",
  "Please place your phone near your lock.",
  "Update Now",
  "Error",
  "Please ensure that the lock is unlocked before you proceed.",
  "OK",
  "Step 3: Updating Firmware",
  "Do not close your app.",
  "New Firmware Version:",
  "Done",
  "Updating Firmware",
  "Firmware update is not available yet.",
  "Protips",
  "DFU download error",
  "Unable to connect to the Lock. Please try again.",
  "Please ensure that the Bluetooth and location are turned on, Bluetooth privacy is enabled, then try again.",
  "DFU Error",
  "DFU package error",
  "DFU package initialitation error",
  "Server bluetooth version error",
  "DFU configuration initiation error",
  "Your {{pintype}} code is {{pincode}}.",
  "Valid \nFROM {{from}} \nTO {{to}}.",
  "Valid EFFECTIVE \nFROM {{effective}} \nEVERY {{every}} \nFROM {{from}} \nTO {{to}}.",
  "To Activate, please use once by: {{date}}",
  "Please use by: {{date}}",
  "Firmware not available yet",
  "Checking firmware...",
  "Current Version",
  "Update available",
  "Downloaded",
  "Less than {{number}}KB",
  "This update includes improvements and bug fixes.",
  "Install update",
  "Downloading...",
  "Download update",
  "Unknown version",
  "Step 1: Prepare Your Lock",
  "Step 2: Updating Firmware",
  "Step 3: Firmware updated!",
  "Please ensure that the lock is unlocked before proceeding",
  "Device Firmware error, please retry to download firmware",
  "Please ensure that the Bluetooth and location are turned on and try again.",
  "Please ensure that the location permission has been granted.",
  "Please wait until check lock status complete",
  "Please wait until update progress complete",
  "Please press and hold on the settings button if the blue light on your Key Fob stops flashing.",
  "Unable to connect to the device. Please try again.",
  "Please keep your internet connected with the app open and place your phone near your {{type}}",
  "If there is an error during update, please remove the batteries and put back into the {{type}}.",
  "Please place your phone near your {{type}}.",
  "This lock is not support firmware update.",
  "Step 3 : Firmware Updated",
  "Ensure that your {{ecosystemType}} is discoverable",
  "Ensure that the blue light on your Key Fob is flashing.",
  "Start",
  "Open the back cover and hold onto the settings button until the blue light flashes",
  "Step 1 : Prepare your Key Fob",
  "Activity Logs",
  "Select Listing",
  "Reservations",
  "Try searching again using a different keyword.",
  "Couldn't find  \"{{word}}\"",
  "Fingerprint Access(s) issued",
  "Access Issued",
  "Summary",
  "User guide",
  "You can add multiple keycards at once.",
  "All key cards look the same so don't forget to label them!",
  "I'm Ready",
  "Keycard(s) added!",
  "Ensure that your bluetooth is turned on",
  "On the lock keypad, enter",
  "Tap your keycard(s) on the keycard reader",
  "Enter # on the keypad",
  "Press [Sync] below to update",
  "Keycard(s) added:",
  "Keycard {{indexCount}}",
  "Name {{number}} keycard(s)",
  "Keycard # {{indexCount}}",
  "Step 1: Get your keycard(s) ready",
  "Step 2: Tap keycard(s) on the lock",
  "Please use the PIN code once before proceeding.",
  "Fingerprint creation limit reached. Please remove another fingerprint access and try again.",
  "Unable to sync the lock. Please ensure that you are within Bluetooth range of the lock and try again.",
  "Fingerprint scanning timeout. Please try again.",
  "You have exceeded the number of attempts. Please make sure the scanner is clean and dry, then try again.",
  "Network timeout error.",
  "Attempt limit exceeded, please try after some time.",
  "You have reached the maximum forgot password attempt limit. Please try again later.",
  "User is not authenticated. Wrong current password",
  "Current Password is invalid",
  "{{listingName}} is connected to {{provider}} and cannot be removed. Please go to the reservations page and disconnect {{listingName}} before deleting.",
  "This Airbnb account has been connected. Please use another account",
  "{{lockName}} is connected to {{providerName}} listing and cannot be removed. Please disconnect {{providerName}} listing before deleting {{lockName}}.",
  "Step 1 : Get ready to scan",
  "Step 2 : Name your fingerprint",
  "Step 3 : Scan your fingerprint",
  "There will be 3 scans required to register your fingerprint.",
  "Ensure that your finger is clean and dry.",
  "Always place your finger at the center of the scanner for optimal performance.",
  "Add Fingerprint",
  "Please fill Fingerprint Name",
  "Start",
  "Ensure that you press your finger on the scanner firmly.",
  "Always place your finger at the center of the scanner for optimal performance.",
  "I'm Done",
  "Scans required:",
  "Submiting new access",
  "Please try again. Do place your finger at the center firmly.",
  "Select",
  "No Item Selected",
  "Preview",
  "Access Message Template",
  "Discard changes?",
  "Discard",
  "Are you sure you want to discard your changes?",
  "All your changes will not be saved.",
  "Please ensure you include these in your message.",
  "Access detail",
  "Guest Name",
  "Airbnb listing",
  "Are you sure you would like to disconnect this listing? This will remove all reservations associated with the listing from the igloohome app and prevent us from processing future reservations for this listing.",
  "Disconnect",
  "You have not added a listing",
  "Add Listing",
  "Attention",
  "All Airbnb listings have already been connected.",
  "{{number}} hours before",
  "1 hour before",
  "Property Name",
  "Select A Listing",
  "Please select how early in advance you would like your guests to receive their access message. The default is 1 hour before check-in time.",
  "Send Access Message",
  "Connect Airbnb Listing",
  "Edit Reservation",
  "This modification will only affect this reservation. Default settings are unchanged.",
  "{{guestName}} Guest(s)",
  "Timezone: {{timezone}}",
  "Guest: {{guest}}",
  "External Reservation: Airbnb",
  "Check-in time",
  "Check-out time",
  "Access message for {{guestName}} (containing their PIN code) will be sent {{selectedAccessTimeId}} hour(s) before check in time.",
  "Preview Access Message",
  "*Note: This is a preview of your access message. The actual access message will be sent to your guest via Airbnb before check-in time.",
  "Reservation Details",
  "date not found",
  "Access message sent on {{time}}",
  "Access message will be sent on {{time}}",
  "(empty)",
  "UTC{{utcTimezone}}",
  "Send Access Message Now",
  "Access Methods",
  "Pincode: {{pincode}}",
  "Connect",
  "Select a property to connect",
  "You can send a test access message to your email.",
  "The actual access message will be sent to your guest via Airbnb before check-in time.",
  "To customize the access message, please contact our support.",
  "Test Access Message",
  "Contact Support",
  "Not you?",
  "Delete",
  "Change your battery soon",
  "in {{number}} months",
  "No Reminder",
  "Silent",
  "Fingerprint ID",
  "Fingerprint added",
  "Keycard ID",
  "Press the multi-function button once to wake the lock.",
  "Start calibration",
  "Calibrate the lock’s magnet sensor to optimize auto-relock performance.",
  "Calibration",
  "Auto-relock calibration",
  "Calibrating auto-relock",
  "Lock position",
  "1 of 2",
  "Ensure that the door is closed.\nTap next and you should hear a chime.",
  "2 of 2",
  "Open your door slightly so it’s ajar.\nTap next and you should hear a chime.",
  "Left",
  "Right",
  "Choose your door lock position",
  "Calibration complete",
  "Complete calibration",
  "Calibrate lock",
  "Lock rotation",
  "Single lock",
  "Double lock",
  "Step 1 : Select Property",
  "Step 2 : Prepare your Keypad for pairing",
  "Step 3 : Select Keypad ID",
  "Keypad paired!",
  "Step 1 : Prepare your Bridge for pairing",
  "Step 2 : Select Bridge ID",
  "Your phone is not connected to Wi-Fi",
  "Your are connected to {{wifiName}}",
  "Bridge paired!",
  "Step 1 : Get your {{ecosystemType}} ready",
  "Step 2 : Select a lock to link",
  "Step 3 : Linking your {{ecosystemType}} to {{lockname}}",
  "Step 1 : Prepare your {{ecosystemType}}",
  "Step 1 : Select a lock to link",
  "Step 2 : Linking your {{ecosystemType}} to {{lockname}}",
  "Set {{ecosystemType}} name",
  "{{ecosystemType}} name cannot be empty",
  "Enter {{ecosystemType}} name",
  "Link {{ecosystemType}}",
  "Would you like to link your {{ecosystemType}} to a lock now?",
  "You currently have {{current/total}} locks linked",
  "Link now",
  "Link later",
  "Press any button on the Keypad to wake it",
  "Connect your Bridge to power using the provided USB-C cable.\n\n Press the multi-function button once to wake the Bridge up.",
  "Pair your {{ecosystemType}}",
  "Select Property",
  "Bridge Wi-Fi Configuration",
  "Configure Bridge Wi-Fi so you can start using your lock remotely.",
  "For some phones, we might ask you to enable location services to identify the SSID of the Wi-Fi that your phone’s connected to.",
  "Start Wi-Fi configuration",
  "Skip Wi-Fi configuration?",
  "This is an essential step in the Bridge setup process.",
  "Skip",
  "Skip this step",
  "Configure Wi-Fi",
  "You are connected to {{wifiName}}",
  "Your phone is not connected to Wi-Fi",
  "Go to settings",
  "Set-up manually",
  "Please enter your Wi-Fi password. Make sure you use a 2.4Ghz network.",
  "Please connect your phone to your Wi-Fi to continue pairing.",
  "Join network",
  "Other network",
  "Network name must be not empty",
  "Network name",
  "Diagnostics",
  "Keypad Settings",
  "Linked Lock(s)",
  "Delete Keypad",
  "Are you sure you want to delete {{keypad_name}} access for all your locks?",
  "Delete",
  "I no longer own this Keypad",
  "Select an access type for your linked lock(s)",
  "Link lock from {{ecosystemType}}",
  "Would you like to link your Bridge to a lock?",
  "{{ecosystemType}} successfully linked to {{lockName}}",
  "Link more locks",
  "Linking {{ecosystemType}}",
  "{{ecosystemType}} Linked",
  "Search lock here...",
  "Couldn't find {{searchQuery}}",
  "Try searching again using a different keyword.",
  "Select lock",
  "Delete {{ecosystemType}}",
  "Delete your {{ecosystemType}}",
  "This will permanently remove it from your account",
  "Delete Permanently",
  "Yes",
  "No",
  "Remove {{bridgeName}}",
  "What to do when you have lost your Bridge",
  "Remove Bridge from account",
  "Allow Bridge to be paired to another account",
  "Lost your {{ecosystemType}}?",
  "What to do when you have lost your {{ecosystemType}}",
  "Linked to {{number}} locks",
  "Step 1: Revoke {{ecosystemType}} access",
  "You will no longer be able to unlock your linked lock(s) using the revoked {{ecosystemType}}.",
  "Step 2: Delete {{ecosystemType}} permanently",
  "Permanently delete your {{ecosystemType}} from your account.",
  "Remove {{lockName}}",
  "Remove {{lockName}} from servers",
  "Please confirm that you no longer have this lock. This will remove all data associated with this lock from our servers.",
  "Remove lock",
  "Revoke {{ecosystemType}} access",
  "Please make sure your lock(s) are nearby to revoke access.",
  "Revoke",
  "Are you sure you want revoke {{ecosystemType}} access for {{lockName}}?",
  "I no longer have this lock",
  "Unlink Lock",
  "Get your {{ecosystemType}} ready",
  "Edit {{ecosystemType}} Name",
  "{{ecosystemType}} Name",
  "Check network status",
  "Delete Bridge?",
  "Are you sure you want to delete {{bridgeName}} access for all your locks?",
  "I no longer own this Bridge",
  "Delete Bridge",
  "{{ecosystemType}} Settings",
  "Unlink device?",
  "Are you sure you want to unlink {{lockName}} from {{ecosystemName}}?",
  "Unlink",
  "Linked Devices",
  "Unlink Lock?",
  "I lost my {{ecosystemType}}",
  "Linked Locks",
  "You do not have any paired {{ecosystemType}}.",
  "Add {{ecosystemType}}",
  "Manage {{ecosystemType}}",
  "Make sure your {{ecosystemType}} is discoverable",
  "Please keep your internet connected with the app open and place your phone near your {{ecosystemType}}.",
  "If there is an error during update, please remove the batteries and put them back into the {{ecosystemType}}.",
  "Please place your phone near your {{ecosystemType}}.",
  "Current Wi-Fi",
  "Change Wi-Fi Network",
  "To change your Bridge’s Wi-Fi configuration, please navigate to your phone’s settings menu and choose a new Wi-Fi Network.",
  "Change Wi-Fi configuration",
  "Wi-Fi network status",
  "Wi-Fi SSID",
  "Wi-Fi IP Address",
  "Wi-Fi DNS Address",
  "Wi-Fi Signal Strength",
  "Internet connection status",
  "Internet connection status (MQTT)",
  "Last checked {{time}}",
  "Locks",
  "Status:",
  "Last online:",
  "Current time:",
  "Change Wi-Fi",
  "No last known diagnostics status.",
  "Connected",
  "Connecting",
  "Disconnected",
  "No internet",
  "Tap and hold to unlock remotely",
  "Later",
  "Do you want to unlink your lock?",
  "Any access granted to linked devices will still persist. Would you like to unlink them now?",
  "“{{ecosystemName}}” Successfully Deleted",
  "Deleting “{{ecosystemName}}”",
  "Unlinking “{{lockName}}”",
  "“{{lockName}}” Successfully Unlinked",
  "Pairing in progress…",
  "Linked to “{{lockName}}”",
  "Linked to multiple locks",
  "Not Linked",
  "Access successfully revoked.",
  "Please wait while we remove all your {{ecosystemType}} data.",
  "{{ecosystemType}} successfully removed.",
  "Lock successfully removed from your {{ecosystemType}}.",
  "This lock has been deleted, please unlink it from the {{ecosystemType}}",
  "Configuring Wi-Fi…",
  "Bridge disconnected",
  "Auto-Unlock",
  "Disabled",
  "Enabled",
  "Automatically unlock your lock when you return to your property.",
  "Auto-Unlock is already active for {{lockName}}. Please disable Auto-Unlock for {{lockName}} to proceed.",
  "Location radius",
  "Modify location radius depending on your property scale.",
  "Adjust lock location",
  "{{distance}} m",
  "Active.",
  "Performing Auto-Unlock.",
  "Standby.",
  "Paused: Bluetooth is disabled. Tap to turn Bluetooth on.",
  "Paused: Location is disabled. Tap to turn location on.",
  "An invalid PIN “{{pin}}” was attempted.",
  "An invalid PIN “{{pin}}” was attempted.",
  "A Master PIN was used on the Keypad.",
  "A Permanent/Duration/Weekly PIN “{{pin_name}}” was used on the Keypad.",
  "A One-Time PIN “{{pin_name}}” was used on the Keypad.",
  "A Permanent PIN “{{pin_name}}” was registered and used on the Keypad.",
  "A Duration PIN “{{pin_name}}” was registered and used on the Keypad.",
  "A Weekly PIN “{{pin_name}}” was registered and used on the Keypad.",
  "You have created a Permanent/Duration/etc PIN  \"{{pin_name}}\" via Bluetooth.",
  "A PIN “{{pin_name}}” was deleted from the Keypad.",
  "You have edited the Master PIN.",
  "Keypad was linked to “{{lock_name}}”.",
  "Keypad successfully unlocked  \"{{lock_1}}\" but failed to unlock  \"{{lock_2}}\".",
  "Keypad successfully unlocked  \"{{lock_1}}\",  \"{{lock_2}}\".",
  "Keypad failed to unlock  \"{{lock_1}}\",  \"{{lock_2}}\".",
  "“{{keypad_name}}” was linked to the lock.",
  "“{{keypad_name}}” was used to unlock the lock.",
  "Link between “{{keypad_name}}” and lock was revoked.",
  "“{{keypad_name}}” was unlinked from lock.",
  "Link between Keypad and “{{lock_name}}” was revoked.",
  "{{lock_name}} has been removed."
]