{
  "actions":{
     "Login":"Einloggen",
     "Register":"Anmelden",
     "Email":"E-Mail",
     "Your email":"Ihre@email.de",
     "Reset Password":"Passwort zurücksetzen",
     "password":"Passwort",
     "Forgot Password":"Passwort vergessen",
     "Submit":"Absenden",
     "First Name":"Vorname",
     "Last Name":"Nachname",
     "Mobile":"Handy",
     "Password requirement":"Passwort mind. 8 Zeichen",
     "Password match":"Die Passwörter müssen übereinstimmen",
     "Passwords not matching":"Das aktuelle und das neue Passwort stimmen nicht überein",
     "Confirm Password":"Passwort bestätigen",
     "Change Details":"Angaben ändern",
     "Change Password":"Passwort ändern",
     "Change batteries":"Batterien welchseln",
     "Current Password":"Aktuelles Passwort",
     "New Password":"Neues Passwort",
     "Edit Account Details":"Kontodaten bearbeiten",
     "Filter":"Filter",
     "Check Validity":"Gültigkeit überprüfen",
     "New Key":"Neuer Schlüssel",
     "Update Logs":"Protokolle aktualisieren",
     "Change language":"Sprache ändern",
     "Select Listing":"Bitte Auflistung wählen",
     "Select City":"Select City",
     "Select One":"Select One",
     "Test Welcome Email":"Willkommens-E-Mail testen",
     "Test Access Email":"Zugangs-E-Mail testen",
     "Contact Support":"Kundendienst kontaktieren",
     "Add":"Hinzufügen",
     "Delete":"Löschen",
     "Delete Lock":"Schloss löschen",
     "Delete Home":"Unterkunft löschen",
     "Create PIN":"PIN erstellen",
     "Create Bluetooth Key":"Bluetooth-Schlüssel erstellen",
     "Edit PIN":"PIN bearbeiten",
     "Edit Key Card":"Schlüsselkarte bearbeiten",
     "Confirm":"Bestätigen",
     "Edit Master PIN":"Master-PIN bearbeiten",
     "Disconnect Airbnb":"Verbindung mit Airbnb trennen",
     "Connect Airbnb":"Verbindung mit Airbnb herstellen",
     "Connect Airbnb Message":"Bitte verbinden Sie igloohome mit dem primären Host-Konto von Airbnb, nicht mit dem Konto des Co-Hosts.",
     "Back":"Zurück",
     "Ok":"Ok",
     "Cancel":"Abbrechen",
     "Cancel Sync":"Synchronisierung abbrechen",
     "Retry":"Erneut versuchen",
     "Done":"Fertig",
     "Load More":"Mehr laden",
     "OR":"ODER",
     "Send Key":"Schlüssel senden",
     "Close":"Schließen",
     "Set Up Now":"Jetzt einrichten",
     "Set Up Later":"Später einrichten",
     "FingerPrint Message":"Schnelle Anmeldung per Fingerabdruck. Alternativ können Sie diese Funktion später in den 'Kontoeinstellungen' einrichten.",
     "Touch Id Message":"Schnelle Anmeldung per Touch-ID. Alternativ können Sie diese Funktion später in den 'Kontoeinstellungen' einrichten.",
     "Face Id Message":"Quick-Login per Gesichtserkennung. Alternativ können Sie diese Einstellung später in den 'Kontoeinstellungen' einrichten.",
     "Press back again to exit App.":"Zum Verlassen bitte auf Zurück drücken.",
     "Accept":"Accept",
     "Reject":"Reject",
     "Yes":"Yes",
     "No":"No"
  },
  "pairing":{
     "Pairing":"Kopplung",
     "Start pairing":"Lassen Sie uns mit der Kopplung Ihres Schlosses beginnen",
     "Step 1":"Legen Sie die Handfläche auf das Keypad, um das Schloss zu aktivieren.",
     "Step 1 padlock":"Press any number to activate lock.",
     "Step 1 euroRetrofit":"Please keep the lock unlocked and hold the multi-function button until the lock is flashing blue.",
     "Step 1 keybox":"Bitte halten Sie das Schloss offen und legen Sie Ihre Handfläche auf das Keypad, um das Schloss zu aktivieren",
     "Keybox warning":"Bitte schließen Sie die Keybox nicht, bevor sie gekoppelt wurde.",
     "Scan":"Wählen Sie das Bluetooth-Schloss, zu dem verbunden werden soll.",
     "Next":"Weiter",
     "Try Again":"Erneut versuchen",
     "Pairing in progress":"Koppelung wird erstellt...",
     "Please wait":"Please wait...",
     "Almost done":"Almost done...",
     "Step 1: Select Property":"Schritt 1: Wählen Sie eine Unterkunft",
     "Step 2: Select Lock Model":"Schritt 2: Wählen Sie ein Schlossmodell",
     "Step 3: Pair your device":"Schritt 3: Koppeln Sie Ihr Gerät",
     "Step 3: Select Product ID":"Schritt 3: Wählen Sie Ihre Produkt-ID",
     "PAIRING_STEP_1":"Entfernen Sie die Gehäuserückwand von der Vorderseite des Türschlosses",
     "PAIRING_STEP_2":"Legen Sie Ihre Handfläche auf das Keypad, um das Schloss zu aktivieren",
     "PAIRING_STEP_2_KEYBOX":"Bitte halten Sie das Schloss offen und legen Sie Ihre Handfläche auf das Keypad, um das Schloss zu aktivieren",
     "PAIRING_STEP_3":"Eine Batterie auswechseln",
     "PAIRING_STEP_4_L":"Halten Sie die Entsperrtaste 2 Sekunden lang gedrückt",
     "PAIRING_STEP_4_B":"Halten Sie die Taste # 2 Sekunden lang gedrückt",
     "PAIRING_STEP_5_L":"Achten Sie auf 4 Signaltöne gefolgt von 2 Signaltönen",
     "PAIRING_STEP_5_B":"Achten Sie auf 2 Pieptöne",
     "I hear the beeps":"Ich höre die Pieptöne",
     "PAIRING_LOCKBOX_STEP_1":"Drehen Sie die Batterieabdeckung zum Öffnen im Uhrzeigersinn.",
     "PAIRING_LOCKBOX_STEP_2":"Drücken Sie mit einem spitzen Gegenstand auf den Reset-Knopf, der zwischen dem 3. und 4. Batteriefach liegt. Halten Sie ihn für 2 Sekunden gedrückt.",
     "PAIRING_LOCKBOX_STEP_3":"Drücken Sie danach auf Weiter.",
     "PAIRING_BOLT2_NON_FACTORY_STEP_1":"Finden Sie den Reset-Knopf in der oberen rechten Öffnung der Rückwand des Schlosses.",
     "PAIRING_BOLT2_NON_FACTORY_STEP_2":"Halten Sie den Reset-Knopf mit einem scharfen Gegenstand für 20 Sekunden gedrückt.",
     "PAIRING_BOLT2_NON_FACTORY_STEP_3":"Bei weiteren Fragen besuchen Sie bitte das igloohome Help Center auf der Kundendienstseite.",
     "PAIRING_MORTISE_NON_FACTORY_STEP_1":"Finden Sie den Reset-Knopf unten rechts im Batteriefach.",
     "PAIRING_MORTISE_NON_FACTORY_STEP_2":"Drücken Sie den Reset-Knopf zusammen mit der Rautetaste auf dem Keypad, bis Sie einen Signalton hören.",
     "PAIRING_KEYBOX_2_STEP_1":"Open the Keybox 2 and unscrew the battery cover.",
     "PAIRING_KEYBOX_2_STEP_2":"Use a sharp object to press the reset button which falls between the 2nd and 3rd battery slots. Hold it for 2 seconds.",
     "PAIRING_PADLOCK_RESET_STEP_1":"Locate the reset button in the hole at the back after removing the battery cover.",
     "PAIRING_PADLOCK_RESET_STEP_2":"Trigger the reset button using a thin object and hold it for 3 seconds and you will hear a confirmation tone.",
     "PAIRING_BOLT2S_IGB4_RESET_STEP_1":"Hold on to [CLEAR] button and back body button that can be found below the thumbturn for 3 seconds and you will hear a confirmation tone.",
     "PAIRING_MORTISE_IGM2_RESET_STEP_1":"Hold on to [CLEAR] button and [R] button after removing the battery cover for 3 seconds and you will hear a confirmation tone.",
     "errors":{
        "There are no bluetooth devices detected in your network.":"In Ihrem Netzwerk sind keine Bluetooth-Geräte erkannt worden.",
        "Try to turn bluetooth off and then on again.":"Versuchen Sie, das Bluetooth aus- und wieder einzuschalten.",
        "We are unable to connect to the device selected.":"Wir können keine Verbindung zum ausgewählten Gerät herstellen.",
        "The lock that you are trying to add has already been claimed by another user.":"Das Türschloss, die Sie hinzufügen möchten, wird bereits von einem anderen Benutzer verwendet.",
        "Please get the previous owner to delete the lock. The delete lock option can be found under the 'Set Up Home' menu.":"Bitten Sie den vorherigen Besitzer, das Schloss zu löschen. Die Option zum Löschen finden Sie im Menü 'Haus einrichten'",
        "If you believe this to be in error, please contact Igloohome at support@igloohome.co":"Wenn Sie glauben, dass es sich um einen Fehler handelt, besuchen Sie bitte das igloohome Help Center auf der Kundendienstseite",
        "NOT_IGLOOHOME":"Dies ist kein Igluhome-Gerät und kann nicht mit der Iglohome-App gekoppelt werden.",
        "Please try again.":"Bitte erneut versuchen.",
        "Lock deactivated during pairing":"Das Schloss ist während der Kopplung deaktiviert",
        "Place palm over keypad to reactivate it":"Legen Sie die Handfläche auf das Keypad, um es zu reaktivieren",
        "NETWORK_ERROR_MSG":"Ein Fehler ist aufgetreten. Bitte überprüfen Sie Ihre Netzwerkeinstellungen und versuchen Sie es erneut.",
        "ENSURE_LOCK_ON":"Bitte versuchen Sie es erneut und stellen Sie sicher, dass die Lichter am Schloss leuchten.",
        "OWN_LOCK_ALREADY_PAIRED":"Dieses Schloss wurde bereits mit Ihrem Konto verknüpft.",
        "UNABLE_TO_COMPLETE_PAIRING_ERROR":"Bei der Kopplung ist ein Fehler aufgetreten.",
        "The lock that you are trying to add has already been blocked.":"Das Schloss, dass Sie hinzufügen möchten, ist bereits blockiert."
     }
  },
  "tabs":{
     "Active":"Aktiv",
     "Valid Keys":"Alle gültigen Schlüssel",
     "Valid Keys New":"Alle gültigen Zugriffe",
     "Inactive":"Inaktiv",
     "Invalid Keys":"Alle abgelaufenen und verwendeten PIN-Codes",
     "Invalid Keys New":"Alle abgelaufenen und verwendeten Zugriffe",
     "Pending":"Ausstehend",
     "Pending Keys":"Alle zukünftigen PIN-Codes und ausstehenden Bluetooth-Schlüssel, die noch nicht beansprucht wurden. Bitte klicken Sie auf 'Gültigkeit prüfen', um den Status der PIN-Codes zu aktualisieren",
     "Pending Keys New":"Alle zukünftigen und nicht beanspruchten Zugriffe"
  },
  "settings":{
     "My Account":"Mein Konto",
     "My Preferences":"Meine Einstellungen",
     "Notification Settings":"Benachrichtigungseinstellungen",
     "Bluetooth Key Claimed":"Bluetooth-Schlüssel beansprucht",
     "Bluetooth Key Used":"Bluetooth-Schlüssel verwendet",
     "Vibration Feedback":"Vibrations-Feedback",
     "Fingerprint Login":"Anmeldung mit Fingerabdruck",
     "Face Id Login":"Anmeldung mit Face-ID",
     "Touch Id Login":"Anmeldung mit Touch-ID",
     "Language":"Sprache",
     "Connect External Providers":"Externe Provider verbinden",
     "Reservation Welcome Email":"Reservierung Willkommens-E-Mail",
     "Reservation Access Email":"Reservierung Zugangs-E-Mail",
     "Airbnb Connect Email Notifications":"Airbnb Connect Email Notifications",
     "hi":"Hi,",
     "My Details":"Meine Angaben",
     "Name, Contact":"Name, Kontakt",
     "Battery Sync Reminder":"Batterie Sync-Erinnerung",
     "Every X month":"Alle X Monate"
  },
  "checkbox":{
     "Unlock":"Entsperren",
     "Pairing":"Koppeln",
     "Reset":"Zurücksetzen",
     "Description: A - Z":"Beschreibung: A - Z",
     "Description: Z - A":"Beschreibung: Z - A",
     "Created: Earliest First":"Erstellt: Erste zuerst",
     "Created: Latest First":"Erstellt: Letzte zuerst",
     "Bluetooth Key":"Bluetooth-Schlüssel",
     "Key Card":"Schlüsselkarte"
  },
  "menu":{
     "Home":"Home",
     "Reservations":"Reservierungen",
     "Visits":"Aufrufe",
     "Configuration":"Konfiguration",
     "Account Settings":"Kontoeinstellungen",
     "Support":"Kundendienst",
     "FAQ":"FAQ (Häufig gestellte Fragen)",
     "Logout":"Abmelden"
  },
  "reserveDetail":{
     "Check In Time":"Anmeldezeitpunkt",
     "Check Out Time":"Abmeldezeitpunkt",
     "Send Access Email":"Zugangs-E-Mail senden"
  },
  "firmware":{
     "The update can take up to 10 minutes.":"The update can take up to 10 minutes.",
     "Please keep your internet connected with the app open and place your phone near your lock":"Please keep your internet connected with the app open and place your phone near your lock",
     "Please keep your internet connected with the app open and place your phone near your fob":"Please keep your internet connected with the app open and place your phone near your {{ecosystemType}}",
     "Please keep your internet connected with the app open and place your phone near your bridge":"Please keep your internet connected with the app open and place your phone near your {{ecosystemType}}",
     "Do not remove the batteries.":"Do not remove the batteries.",
     "Do not close your app.":"Do not close your app.",
     "If there is an error during update, please remove the batteries and put them back into the fob":"If there is an error during update, please remove the batteries and put them back into the {{ecosystemType}}.",
     "Unlock your lock and keep it open":"Unlock your lock and keep it open",
     "Please place your phone near your lock":"Please place your phone near your lock.",
     "Please place your phone near your fob":"Please place your phone near your {{ecosystemType}}.",
     "Please place your phone near your bridge":"Please place your phone near your {{ecosystemType}}.",
     "Updating Firmware":"Updating Firmware",
     "Firmware is up to date!":"Firmware is up to date!",
     "Current Firmware Version":"Current Firmware Version",
     "Update available!":"Update available!",
     "Firmware downloaded!":"Firmware downloaded!",
     "New Firmware Version":"New Firmware Version",
     "New Firmware available. Update Now.":"New Firmware available. Update Now.",
     "Please ensure that the lock is unlocked before you proceed.":"Please ensure that the lock is unlocked before you proceed.",
     "Step 1: Download Firmware":"Step 1: Download Firmware",
     "Step 2: Prepare your lock":"Step 2: Prepare your lock",
     "Step 3: Updating Firmware":"Step 3: Updating Firmware",
     "Step 2: Updating Firmware":"Step 2: Updating Firmware",
     "Step 1: Firmware Downloaded":"Step 1: Firmware Downloaded",
     "Step 3: Firmware Updated":"Step 3 : Firmware Updated",
     "IMPORTANT":"IMPORTANT",
     "update now":"Update Now",
     "Firmware update is not available yet":"Firmware update is not available yet.",
     "Do check again later":"Do check again later.",
     "firmware update":"firmware update",
     "Make sure the blue light on your Fob is flashing":"Make sure the blue light on your Key Fob is flashing.",
     "Please hold onto the settings button":"Please hold onto the settings button if the blue light on your Key Fob stops flashing."
  },
  "access":{
     "Access":"Zugriff",
     "Access Summary":"Zugriffsübersicht",
     "keycard issued":"Schlüsselkarte(n) ausgestellt",
     "ekey issued":"Bluetooth-Schlüssel ausgestellt",
     "exclude unclaimed ekey":"nicht beanspruchte Schlüssel ausblenden",
     "pincode created":"Erstellte PIN-Code(s)",
     "exclude deleted pincode":"Gelöschte PIN-Codes ausblenden",
     "End time should be after start time":"End time should be after start time",
     "Start should be before end":"Das Startdatum muss vor dem Enddatum liegen.",
     "The end date should not exceed one year from the start date":"Das Enddatum kann nicht ein Jahr nach dem Startdatum überschreiten.",
     "End date time should be current":"Das Enddatums muss aktuell sein.",
     "Start date time should be current":"Das Anfangsdatum muss aktuell sein",
     "Start date time should be before end date time":"Das Startdatum muss vor dem Enddatum liegen",
     "End day must be within same week":"End day must be within same week",
     "End date\/time must be after start date\/time":"End date\/time must be after start date\/time",
     "The PIN code should be between 4 and 7 digits":"The PIN code should be between 4 and 7 digits",
     "The PIN code should be between 7 and 9 digits":"Der PIN-Code sollte zwischen 7 und 9 Ziffern lang sein.",
     "The PIN codes do not match":"Die PIN-Codes stimmen nicht überein.",
     "Please fill in both PIN codes":"Bitte beide PIN-Codes eingeben.",
     "Who is this key card for":"Für wen ist diese Schlüsselkarte?",
     "Card ID":"Karten-ID",
     "Card added":"Karte hinzugefügt",
     "Ekey Details":"Angaben zum Bluetooth-Schlüssel",
     "Pending start time":"Ausstehende Startzeit",
     "View all durations":"Alle Zeiträume ansehen",
     "All durations":"Alle Zeiträume",
     "Duration":"Zeitraum",
     "received pin code for certain duration":"Sie haben einen PIN-Code erhalten {{code}}. Er gilt für {{duration}}.",
     "received permanent or otp":"Sie haben einen {{pinType}} Code {{code}} erhalten",
     "Enter a new name for this PIN":"Geben Sie einen neuen Namen für diese PIN ein:",
     "LIMITED_ACCESS_VIEW":"Aufgrund einer schlechten Internetverbindung können wir die Zugriffsliste nicht abrufen. Bitte aktualisieren Sie die Seite, wenn eine Internetverbindung verfügbar ist.",
     "Select an access type":"Wählen Sie einen Zugriffstyp",
     "Works forever":"Funktioniert für immer",
     "Works for a period":"Funktioniert für einen Zeitraum",
     "Repeats forever":"Wiederholt sich für immer",
     "Repeat Every":"Repeat Every",
     "Works only once":"Funktioniert nur einmal",
     "Unlocks with phone":"Entperrungen per Handy",
     "Unlocks with keycard":"Entsperrungen per Schlüsselkarte",
     "Action Required":"Handlung erforderlich",
     "Please update activity log before registering key card.":"Bitte aktualisieren Sie das Aktivitätsprotokoll, bevor Sie die Schlüsselkarte registrieren.",
     "no access":"Kein {{statusAccess}} Zugriff für dieses Türschloss.",
     "Sync to update status":"Zur Statusaktualisierung synchronisieren",
     "Revoke":"Aufheben",
     "Clear":"Löschen",
     "Revoke bluetooth key":"Bluetooth-Key zurückziehen",
     "Delete Bluetooth Key Access":"Bluetooth-Schlüsselzugriff löschen",
     "Clear Pin Access":"PIN-Zugriff entfernen",
     "Delete Pin Access":"PIN-Zugriff löschen",
     "Delete Keycard Access":"Delete Keycard Access",
     "Delete Access Message":"Sind Sie sicher, dass Sie {{name}} {{accessType}} löschen wollen?",
     "Clear Access Message":"Sind Sie sicher, dass Sie {{name}} {{accessType}} entfernen wollen?",
     "Revoke Access Message":"Sind Sie sicher, dass Sie {{name}} {{accessType}} aufheben wollen?",
     "PIN not synced":"Der PIN ist nicht synchronisiert",
     "Please Sync Status to update":"Der PIN ist nicht synchronisiert. Zur Statusaktualisierung bitte synchronisieren.",
     "Share Bluetooth Key":"Bluetooth-Schlüssel teilen",
     "Share Key":"Schlüssel teilen",
     "Scan key":"Bitte mit dem QR-Scanner des Empfängers scannen, um den Schlüssel zu erhalten",
     "pincodes":"Pincodes",
     "out of 285 PINs created":"{{number}} von 285 PINs erstellt",
     "Bluetooth keys and PIN codes issued":"Ausgegebene Bluetooth-Schlüssel und PIN-codes",
     "Delete key card":"Schlüsselkarte löschen",
     "Share ekey message":"Ich habe Ihnen einen Iglohome-Bluetooth-Schlüssel zugeschickt. Um den Bluetooth-Schlüssel zu beanspruchen, bitte auf die folgende URL klicken.",
     "permanent pin generated":"Dauerhafter PIN wurde generiert",
     "duration pin generated":"Kurzzeitiger PIN wurde generiert",
     "otp pin generated":"Einmaliger PIN wurde generiert",
     "duration ekey generated":"Bluetooth-Schlüssel wurde generiert",
     "weekly pin generated":"Weekly PIN generated",
     "weekend pin generated":"Weekend PIN generated",
     "weekday pin generated":"Weekday PIN generated",
     "monthly pin generated":"Monthly PIN generated",
     "permanent nfc generated message":"Key card(s) added",
     "permanent pin generated message":"Bitte nutzen Sie den PIN zur Aktivierung innerhalb von 24 Stunden.",
     "weekly pin generated message":"Please use PIN within 24 hours from Start Time to activate it.",
     "weekday pin generated message":"Please use PIN within 24 hours from Start Time to activate it.",
     "weekend pin generated message":"Please use PIN within 24 hours from Start Time to activate it.",
     "monthly pin generated message":"Please use PIN within 24 hours from Start Time to activate it.",
     "duration pin generated message":"Bitte nutzen Sie den PIN zur Aktivierung innerhalb von 24 Stunden ab der Startzeit.",
     "otp pin generated message":"Bitte nutzen Sie den PIN innerhalb von {{number}} Stunden, bevor er ungültig wird.",
     "duration ekey generated message":"Bitte gehen Sie sicher, dass der Bluetooth-Schlüssel innerhalb {{number}} Stunde beansprucht wird.",
     "Don't remind me again":"Nicht erneut erinnern",
     "Every Week":"Every Week",
     "Every Month":"Every Month",
     "Every Monday to Friday":"Every Monday to Friday",
     "Every Saturday and Sunday":"Every Saturday and Sunday",
     "Default":"Default",
     "Custom":"Custom",
     "Generate PIN remotely":"Generate PIN remotely",
     "Customize PIN via Bluetooth":"Customize PIN via Bluetooth",
     "Set your own PIN via bluetooth":"Set your own PIN via bluetooth",
     "Protips":"Protips",
     "All key cards look the same":"All key cards look the same so don't forget to label them!",
     "Step 1: Get your key card(s) ready":"Step 1: Get your key card(s) ready",
     "Step 2: Tap key card(s) on lock":"Step 2: Tap key card(s) on lock",
     "Step 3: Hold on to unlock until close sign appears":"Step 3: Hold on to 🔓 until 'CLOSE' sign appears.",
     "Step 4: Press and hold the lock icon until you hear a beep":"Step 4: Press and hold the 'lock' icon until you hear a beep",
     "key card(s) added":"Key card(s) added:",
     "You can add multiple cards at once":"You can add multiple cards at once.",
     "Start":"Start",
     "Ready":"I'm Ready",
     "Enter name":"Enter name",
     "Name X cards":"Name {{number}} card(s)",
     "SMS Pin Code":"Your {{pintype}} code is {{pincode}}.",
     "SMS Pin Validity":"Valid \nFROM {{from}} \nTO {{to}}.",
     "SMS Pin Validity Effective":"Valid \nEFFECTIVE FROM {{effective}} \nEVERY {{every}} \nFROM {{from}} \nTO {{to}}.",
     "SMS Pin Activate":"To Activate, please use once by: {{date}}",
     "SMS Pin Use":"Please use by: {{date}}"
  },
  "lock":{
     "Locks":"Türschlösser",
     "Pair a new lock":"Ein neues Türschloss kuppeln",
     "Other igloohome locks":"Weitere Türschlösser von igloohome",
     "Lock paired":"Türschloss wurde gekoppelt!",
     "Edit lock name":"Name des Schlosses bearbeiten",
     "Enter lock name":"Name des Schlosses eingeben",
     "Add Key Card":"Schlüsselkarte hinzufügen",
     "Ensure that your bluetooth is turned on":"Gehen Sie sicher, dass Ihr Bluetooth eingeschaltet ist",
     "On the lock keypad, enter":"Geben Sie auf dem Keypad des Schlosses ein",
     "Tap your key card (s) on the key card reader":"Halten Sie Ihre Schlüsselkarte(n) an den Kartenleser",
     "Enter # on the keypad":"Drücken Sie # auf dem Keypad",
     "Press [Sync] below to update":"Drücken Sie zur Aktualisierung unten auf [Sync]",
     "Sync":"Synchronisieren",
     "Unable to Sync":"Synchronisierung nicht möglich",
     "Create permanent PIN":"Permanente PIN erstellen",
     "Create duration PIN":"Zeitlich begrenzte PIN erstellen",
     "Create one time PIN":"Einmalige PIN erstellen",
     "Create Bluetooth key":"Bluetooth-Schlüssel erstellen",
     "Create recurring PIN":"Create recurring PIN",
     "Type of recurring PIN":"Type of recurring PIN",
     "other(s)":"Weitere",
     "Are you sure you want to delete":"Sind Sie sicher, dass Sie {{name}} löschen wollen?",
     "Enter a new name for this lock":"Bitte einen Namen für dieses Schloss eingeben",
     "Status":"Status",
     "Go near lock":"Bitte halten Sie Ihr Handy nah an das Schloss.",
     "Last updated":"Letzte Aktualisierung",
     "Lock updated":"Schloss aktualisiert",
     "Last synced":"Letzte Synchronisierung",
     "Unable to check":"Kann nicht überprüft werden",
     "Battery Status Unavailable":"Batteriestatus nicht verfügbar",
     "Lock Name":"Name des Schlosses",
     "Associated Property(s)":"Zugehörige Unterkünfte",
     "Unpair lock from phone":"Türschloss vom Handy aus entkoppeln",
     "Delete All PINs":"Alle PINs löschen",
     "Delete all PINs except for Master PIN":"Alle PINs außer dem Master-PIN löschen",
     "RESET_LOCK_CONFIRM_TITLE":"Remove all PIN codes?",
     "RESET_LOCK_CONFIRM_MSG":"This must be done within bluetooth range of the lock. All generated PIN codes will be removed from the lock. The master PIN code will not be removed.",
     "LOCK_RESET_SUCCESS_MSG":"The lock has been reset to accept new PIN codes.  Previous PIN codes generated are no longer valid.",
     "General":"Allgemein",
     "Bluetooth Settings":"Bluetooth-Einstellungen",
     "Quick Unlock":"Schnell-Entsperrung",
     "Auto Relock":"Auto Relock",
     "Sensor Relock Timer":"Sensor Wiederverschluss-Timer",
     "Custom Relock Timer":"Custom Relock Timer",
     "Security lockout":"Sicherheitsausschluss",
     "Volume":"Lautstärke",
     "Set Volume":"Set Volume",
     "Battery Sync Reminder":"Batterie Sync-Erinnerung",
     "Sync to delete":"Synchronisation zum löschen",
     "Delete Lock Message":"Place your phone near the lock to complete the deletion process.",
     "CONFIRM_DELETE_TEMPLATE":"Are you sure you want to delete this lock?  Please note that the lock codes generated earlier may still reside on the lock.",
     "Delete Lock Fail Message":"{{lockName}} is connected to {{providerName}} listing and cannot be removed. Please disconnect {{providerName}} listing before deleting {{lockName}}.",
     "Never relock":"Never relock",
     "Always relock":"Always relock",
     "seconds":"seconds",
     "second(s)":"second(s)",
     "second":"second",
     "Set number of seconds":"Set number of seconds",
     "Enter number of seconds":"Enter number of seconds",
     "Apply":"Apply",
     "sec":"Sec",
     "Sensor relock can be customised from 1 to 180 seconds.":"Auto relock can be customised from 1 to 180 seconds.",
     "Not enabled":"Not enabled",
     "Level":"Level",
     "Attempt":"Attempt",
     "Attempts":"Attempts",
     "attempt(s)":"attempt(s)",
     "Deactivate lockout":"Deactivate lockout",
     "On":"On",
     "Off":"Off",
     "No Reminder":"No Reminder",
     "Relock Reminder Alert":"Relock Reminder Alert",
     "Firmware Version":"Firmware Version",
     "Calibrate Lock":"Calibrate Lock",
     "Lock Rotation":"Lock Rotation",
     "Step 1: Manually calibrate lock rotation":"Step 1: Manually calibrate lock rotation",
     "Step 2: Keep your door closed":"Step 2: Keep your door closed",
     "We will attempt the lock rotation you selected to see if it works for your door":"We will attempt the lock rotation you selected to see if it works for your door",
     "Step 3: Lock calibrated":"Step 3: Lock calibrated",
     "Calibration in progress...":"Calibration in progress...",
     "Prepare your lock":"Prepare your lock",
     "Calibrating":"Calibrating",
     "Calibration":"Calibration",
     "This lock rotation doesn’t work for your door.":"This lock rotation doesn’t work for your door."
  },
  "configuration":{
     "List Of Homes":"Liste aller Unterkünfte",
     "Which property(s) would you like to pair the lock with?":"Welche Unterkunft\/Unterkünfte möchten Sie mit dem Schloss verbinden?",
     "You do not have any properties yet.":"Sie haben noch keine Eigentümer gewählt.",
     "Add property":"Unterkunft hinzufügen",
     "Home(s)":"Unterkunft\/Unterkünfte",
     "All Properties":"Alle Anwesen",
     "Pinned Locks":"Fixe Türschlösser"
  },
  "alert":{
     "Invalid Selection":"Ungültige Auswahl",
     "Please select listings that belongs to the same region.":"Bitte Eigentümer wählen, die zur selben Region gehören.",
     "Unable to re-associate to a property of different region":"Do note that you are unable to re-associate to a property of different region. Please re-pair to do that.",
     "Unable to Remove Home":"Unterkunft konnte nicht entfernt werden",
     "Unable to Remove Home message":"{{listingName}} ist mit {{provider}} verbunden und kann nicht entfernt werden. Bitte gehen Sie zu Reservierungen und trennen Sie {{listingName}} vor dem Löschvorgang.",
     "Unable to Remove Home message with lock":"{{listingName}} ist mit einem Gerät verbunden und kann nicht entfernt werden. Bitte trennen Sie Ihr Gerät von {{listingName}} vor der Löschung von {{listingName}}."
  },
  "provider":{
     "Disconnect Listing":"Auflistung trennen",
     "Disconnect Airbnb Listing Message":"Sind Sie sicher, dass Sie den Link zu Airbnb entfernen möchten? Dies entfernt alle Reservierungen, die mit dem Eintrag verknüpft sind. Alle zukünftigen Reservierungen werden nicht bearbeitet.",
     "guest(s)":"Gast \/ Gäste",
     "Access Methods":"Zugriffsmethoden",
     "listings":"listings",
     "All Connected":"All Connected",
     "All":"All",
     "Generate PIN(s) now":"Generate PIN(s) now"
  },
  "support":{
     "Help & Support":"Hilfe & Support",
     "Youtube Channel":"Youtube Channel"
  },
  "Managing access on the go":"Zugriff unterwegs verwalten.",
  "Reservation Details":"Reservierungsangaben",
  "Edit Reservation":"Reservierung bearbeiten",
  "Connect":"Verbinden",
  "Disconnect":"Trennen",
  "Select Listing":"Auflistung auswählen",
  "Select a home to connect":"Wählen Sie eine Unterkunft für die Verbindung",
  "Guest":"Gast",
  "Timezone":"Zeitzone",
  "Profile":"Profil",
  "External Reservation":"Externe Reservierung",
  "Update PIN Send Time Message":"Zugangs-E-Mail für {{guestName}} (mit Zugriffsmethoden wie PIN-Codes und\/oder Bluetooth-Schlüssel) wird {{sendAccessEmail}} Stunde(n) vor dem Einchecken versendet.",
  "Share":"Teilen",
  "Skip":"Skip",
  "Send PIN Email Now":"Jetzt PIN-E-Mail senden",
  "No Reservation Found":"Diese Reservierung konnte nicht gefunden werden oder wurde gelöscht.",
  "PIN Email Sent With Time":"Zugangs-E-Mail wurde vor {{time_ago}} versendet",
  "PIN Email Send Time Now":"Jetzt Zugangs-E-Mail versenden",
  "PIN Email Send Time Future":"Zugangs-E-Mail wird in {{time_future}} versendet",
  "Reservation Share Msg":"Sehr geehrte\/r {{guestName}}, hier ist Ihr Zugriff für {{listingName}} vom {{startDate}} bis {{endDate}}.\n{{access_pin_list}}",
  "Reservation Share Msg Access Pin Partial":"PIN-Code für {{lockName}}: {{pinCode}}",
  "Name":"Name",
  "Region":"Region",
  "Connect External Providers":"Externe Provider verbinden",
  "Listing Details":"Auflistungsdetails",
  "Select Your Product":"Wählen Sie Ihr Produkt",
  "Other igloohome locks":"Weitere Schlösser von igloohome",
  "Select Others":"Weitere wählen",
  "Issue new key for":"Neuen Schlüssel ausgeben für",
  "Family":"Familie",
  "Friends":"Freunde",
  "Visitors":"Besucher",
  "Tenants":"Mieter",
  "Services":"Dienste",
  "Staff":"Mitarbeiter",
  "Guests":"Gäste",
  "Others":"Andere",
  "Key Card Holder":"Schlüsselkartenbesitzer",
  "Access Type":"Zugriffstyp",
  "Repeat this PIN":"Repeat this PIN",
  "Start Time":"Startzeit",
  "End Time":"Endzeit",
  "Start Date":"Startdatum",
  "End Date":"Enddatum",
  "Now":"Jetzt",
  "Start Day":"Start Day",
  "Start Day of Month":"Start Day of Month",
  "End Day of Month":"End Day of Month",
  "End Day":"End Day",
  "Effective Start Date":"Effective Start Date",
  "PIN":"PIN",
  "One Time PIN":"Einmalige PIN",
  "Permanent PIN":"Permanente PIN",
  "Duration PIN":"Zeitlich begrenzte PIN",
  "Weekly PIN":"Weekly PIN",
  "Weekday PIN":"Weekday PIN",
  "Weekend PIN":"Weekend PIN",
  "Monthly PIN":"Monthly PIN",
  "Repeats Sat and Sun":"Repeats Sat and Sun",
  "Repeats Mon to Fri":"Repeats Mon to Fri",
  "Repeats every Week":"Repeats every Week",
  "Repeats every Month":"Repeats every Month",
  "Recurring PIN":"Wiederkehrende PIN",
  "Bluetooth Key":"Bluetooth-Schlüssel",
  "Guest Bluetooth Keys":"Gast-Bluetooth-Schlüssel",
  "Keycard":"Keycard",
  "Add duration placeholder":"z.B. Für wen ist dieser Code",
  "Lock Owner":"Schlossbesitzer",
  "Master PIN":"Master-PIN",
  "Master pin never expires":"Der Master-PIN läuft nie ab",
  "Remove from List":"Aus Liste entfernen",
  "Add New Home":"Neue Unterkunft hinzufügen",
  "Name your home":"Unterkunft benennen",
  "Edit your home":"Unterkunft bearbeiten",
  "Edit":"Bearbeiten",
  "Refreshing":"Refreshing...",
  "Pull to refresh":"Pull to refresh...",
  "Loading more data":"Loading more data...",
  "Enter 7-9 digit PIN":"Bitte 7-9 stellige PIN eingeben",
  "Repeat PIN":"PIN wiederholen",
  "PIN code placeholder":"Bitte PIN-Code eingeben",
  "Re-enter PIN code":"PIN-Code wiederholen",
  "Connect Airbnb Listing":"Airbnb-Auflistung verbinden",
  "Connect Your AirBnb Listing":"Verbinden Sie Ihre AirBnb-Auflistung'",
  "Select Airbnb Listing":"Airbnb-Auflistung wählen",
  "Day":"Tag",
  "Days":"Tage",
  "Month":"Monath",
  "Months":"Monate",
  "Hours":"Stunden",
  "Hour":"Stunde",
  "Minutes":"Minute",
  "Before":"vor",
  "Select send PIN time":"Bitte wählen Sie die Anzahl der Stunde(n) vor dem Einchecken, damit Ihre Gäste ihre Zugangs-E-Mail erhalten. Der Standardwert ist 1 Stunde.",
  "Select send PIN time2":"Please select the number of hour(s) before check in time for your guests to receive their access message. The default is 1 hour.",
  "hour(s) before check in time":"Stunde(n) vor dem Einchecken",
  "No data found":"Keine Daten gefunden",
  "Lock Info":"Schloss-Info",
  "Basic Unlock":"Einfache Entsperrung",
  "Basic":"Einfach",
  "Logs":"Protokolle",
  "Settings":"Einstellungen",
  "Lock Settings":"Schloss-Einstellungen",
  "Issue Access":"Zugriff ausgeben",
  "Activity Log":"Aktivitätsprotokoll",
  "Igloohome Help Center":"Igloohome Help Center",
  "Welcome to igloohome":"Willkommen bei igloohome",
  "Receive bluetooth key":"Bluetooth-Schlüssel erhalten",
  "Pair new lock":"Neues Schloss koppeln",
  "Request Instant Access":"Request Instant Access",
  "Go to visit page":"Zur Website",
  "Add lock":"Schloss hinzufügen",
  "Manage Homes":"Unterkünfte verwalten",
  "Claim Bluetooth Key":"Bluetooth-Schlüssel beanspruchen",
  "Manage Locks":"Schlösser verwalten",
  "Scan QR code to add key":"Bitte den QR-Code scannen, um den Schlüssel hinzuzufügen",
  "Customise email message":"Um die Willkommens- oder Zugangs-E-Mail zu überprüfen, die an Ihren Gast gesendet wird, klicken Sie bitte auf 'Willkommens-E-Mail testen' oder 'Zugangs-E-Mail testen'. Die E-Mail wird an Ihre registrierte E-Mail-Adresse gesendet. Um die Zugangs-E-Mail anzupassen, klicken Sie bitte auf 'Kundendienst kontaktieren'.",
  "BTKEY_UNLOCK":"{{firstName}} {{lastName}} {{ekeyName}} hat das Türschloss per Bluetooth-Schlüssel entsperrt.",
  "EASY_UNLOCK":"Sie haben das Schloss per Easy Unlock entsperrt.",
  "BASIC_UNLOCK":"Sie haben das Scfhloss per Basic Unlock entsperrt.",
  "CREATE_PINCODE":"Sie haben einen PIN-Code für {{durationCode}} erstellt.",
  "CREATE_PINCODE_WITH_PINTYPE":"Sie haben einen {{pinType}} erstellt.",
  "CREATE_PINCODE_WITH_PINTYPE_VIA_BLUETOOTH":"Sie haben ein {{pinType}} über Bluetooth erstellt.",
  "CREATE_PINCODE_DURATION":"Sie haben einen PIN-Code mit einer Gültigkeit von {{start}} bis {{end}} erstellt.",
  "CREATE_PINCODE_DURATION_VIA_BLUETOOTH":"Sie haben über Bluetooth einen PIN-Code erstellt, der von {{start}} bis {{end}} gültig ist.",
  "PAIR":"Sie haben das Schloss gekoppelt.",
  "RESET":"Sie haben das Schloss zurückgesetzt und die PINs entfernt.",
  "TODAY":"Heute",
  "YESTERDAY":"Gestern",
  "LOG_CHANGE_MASTER_PIN":"Sie haben die Master-PIN bearbeitet..",
  "LOG_ENABLE_AUTO_RELOCK_VIA_BLUETOOTH_SIMPLE":"Die autom. Verriegelung wurde aktiviert.",
  "LOG_ENABLE_AUTO_RELOCK_VIA_BLUETOOTH_EXTENDED":"Die autom. Verriegelung wurde aktiviert und auf {{newValue}} eingestellt.",
  "LOG_DISABLE_AUTO_RELOCK_VIA_BLUETOOTH":"Die autom. Verriegelung wurde deaktiviert.",
  "LOG_CHANGE_INCORRECT_PIN_LOCKOUT_COUNT_VIA_BLUETOOTH":"Die Sicherheitsverriegelungsversuche wurden auf {{newValue}} eingestellt",
  "LOG_DISABLE_INCORRECT_PIN_LOCKOUT_COUNT_VIA_BLUETOOTH":"Sicherheitsverriegelungsversuche wurden deaktiviert",
  "LOG_CHANGE_VOL_VIA_BLUETOOTH":"Die Schlosslautstärke wurde auf {{newValue}}  eingestellt",
  "LOG_PIN_DELETE":"Ein PIN-Code \"{{pinDescription}}\" wurde vom Schloss entfernt.",
  "LOG_PIN_UNLOCK_MASTER":"Ein Master-PIN-Code wurde zum Entsperren dieses Schlosses verwendet.",
  "LOG_PIN_UNLOCK_GUEST":"Ein PIN-Code von {{guestName}} wurde verwendet, um das Türschloss zu entsperren.",
  "LOG_PIN_CHANGE_GUEST_FROM_KEYPAD":"Ein PIN-Code von {{guestName}} wurde vom Keypad am Türschloss geändert.",
  "LOG_PIN_DELETE_GUEST_FROM_KEYPAD":"Ein PIN-Code von {{guestName}} wurde vom Keypad am Türschloss gelöscht.",
  "LOG_PIN_UNLOCK_NO_PINTYPE":"Ein PIN-Code \"{{pinDescription}}\" wurde verwendet, um das Türschloss zu entsperren.",
  "LOG_PIN_UNLOCK":"Ein {{pinType}} Code \"{{pinDescription}}\" wurde verwendet, um das Türschloss zu entsperren.",
  "LOG_PIN_CHANGE_FROM_KEYPAD":"Ein PIN-Code \"{{pinDescription}}\" wurde vom Keypad am Türschloss geändert.",
  "LOG_PIN_DELETE_FROM_KEYPAD":"Ein PIN-Code \"{{pinDescription}}\" wurde vom Keypad am Türschloss gelöscht.",
  "LOG_PIN_UNLOCK_FAILED":"Ein ungültiger PIN-Code \"{{pinCodeNumber}}\" wurde eingegeben.",
  "LOG_DELETE_ALL_PINS_FROM_KEYPAD":"Alle PIN-Codes wurden vom Keypad am Türschloss gelöscht.",
  "LOG_PIN_LOCK_BATTERIES_CHANGED":"Am Türschloss wurde ein Batteriewechsel durchgeführt.  Neuer Batteriestatus: {{level}}%",
  "LOG_ENABLE_TIME_AUTOLOCK":"Der Wiederverschluss-Timer wurde aktiviert und auf {{relockTime}} eingestellt.",
  "LOG_DISABLE_TIME_AUTOLOCK":"Der Wiederverschluss-Timer wurde deaktiviert.",
  "LOG_ENABLE_SENSOR_AUTOLOCK":"Der Sensor-Wiederverschluss wurde aktiviert.",
  "LOG_DISABLE_SENSOR_AUTOLOCK":"Der Sensor-Wiederverschluss wurde deaktiviert.",
  "LOG_LOCK_VOLUME":"Die Lautstärke vom Schloss wurde auf {{volume}} eingestellt.",
  "LOG_NFC_PIN_SET":"Der 4-stellige Sicherheitspin wurde auf {{nfcPin}} eingestellt.",
  "LOG_NFC_REGISTERED":"Schlüsselkarte {{nfcCardId}} wurde hinzugefügt.",
  "LOG_NFC_REGISTERED_NAME":"Key Card \"{{name}}\" has been added.",
  "LOG_NFC_DEREGISTERED":"Schlüsselkarte {{nfcCardId}} wurde gelöscht.",
  "LOG_NFC_DEREGISTERED_NAME":"Schlüsselkarte \"{{name}}\" wurde gelöscht.",
  "LOG_NFC_UNLOCK":"Schlüsselkarte {{nfcCardId}} wurde zum Entsperren des Türschlosses verwendet.",
  "LOG_NFC_UNLOCK_NAME":"Schlüsselkarte \"{{name}}\" wurde zum Entsperren des Türschlosses verwendet.",
  "AUTO_RELOCK_AFTER_OPENING_AND_CLOSING_LOCK":"Lock has auto-relocked after closing.",
  "AUTO_RELOCK_WITHOUT_FIRST_OPENING_LOCK":"Lock has auto-relocked without opening.",
  "LOCK_VIA_KEYPAD_OR_BUTTON":"You have locked the lock via keypad or function button.",
  "RELOCK_ALARM_DISABLED":"Relock Reminder Alert has been disabled.",
  "RELOCK_ALARM_ENABLED":"Relock Reminder Alert has been set to {{seconds}} seconds.",
  "Attempted_BREAK_IN":"Intrusion detected on the lock. Please check immediately.",
  "DELETE_FINGERPRINT":"Fingerprint \"{{description}}\" has been deleted.",
  "ADD_FINGERPRINT":"Fingerprint \"{{description}}\" has been added.",
  "UNLOCK_VIA_FINGERPRINT":"Fingerprint \"{{description}}\" was used to unlock the lock.",
  "INVALID_FINGERPRINT":"An invalid Fingerprint was attemped.",
  "UNLOCK_VIA_BUTTON":"You have unlocked the lock via the function button.",
  "LINK_FOB":"Key Fob \"{{name}}\" has been added to the lock.",
  "UNLINK_FOB":"Lock has been unlinked from the Key Fob \"{{name}}\"",
  "BLOCK_FOB":"Key Fob \"{{name}}\" has been blocked from the lock.",
  "DELETE_FOB_FROM_LOCK":"Key Fob \"{{name}}\" has been deleted from the lock.",
  "UNLOCK_FOB":"Key Fob \"{{name}}\" was used to unlock the lock.",
  "LOCK_WITH_FOB":"Key Fob \"{{name}}\" was used to lock the lock.",
  "LOCK_VIA_KEY_OR_THUMBTURN":"You have Locked via physical key or thumb turn.",
  "UNLOCK_VIA_KEY_OR_THUMBTURN":"You have Unlocked via physical key or thumb turn.",
  "You have successfully changed your account details":"Ihre Kontodaten wurden erfolgreich geändert",
  "You have successfully changed your password":"Ihr Passwort wurde erfolgreich geändert",
  "You have successfully changed your settings":"Ihre Einstellungen wurden erfolgreich geändert",
  "You have successfully claimed your bluetooth key":"Sie haben Ihren Bluetooth-Schlüssel erfolgreich beansprucht",
  "This lock has been added to favourite list":"Dieses Schloss wurde zur Liste aller fixierten Schlösser hinzugefügt",
  "This lock has been removed from favourite list":"Dieses Schloss wurde aus der Liste aller fixierten Schlösser entfernt",
  "You have successfully sync the lock":"Sie haben das Schloss erfolgreich synchronisiert",
  "You have successfully disconnected from Airbnb account":"Sie wurden erfolgreich von Ihrem Airbnb-Konto getrennt",
  "Your action was successful":"Ihre Handlung war erfolgreich",
  "UNLOCK_BY_EKEY_TITLE":"Lock Access",
  "UNLOCK_BY_EKEY_MSG":"%1$@ has unlocked %2$@ with a Bluetooth key.",
  "EKEY_CLAIMED_TITLE":"Bluetooth Key Accepted",
  "EKEY_CLAIMED_MSG":"%1$@ has accepted your Bluetooth key for %2$@",
  "WELCOME_EMAIL_PUSH_TITLE":"Guest Welcome Email",
  "WELCOME_EMAIL_PUSH_MSG":"%1$@ has received welcome email for your listing %2$@.",
  "PIN_EMAIL_PUSH_TITLE":"Guest Access Email",
  "PIN_EMAIL_PUSH_MSG":"%1$@ has received access email for your listing %2$@.",
  "UNLOCK_BY_EKEY_TOAST":"{{val1}} has unlocked {{val2}} with a Bluetooth key.",
  "EKEY_CLAIMED_TOAST":"{{val1}} has accepted your Bluetooth key for {{val2}}",
  "WELCOME_EMAIL_PUSH_TOAST":"{{val1}} has received welcome email for your listing {{val2}}.",
  "PIN_EMAIL_PUSH_TOAST":"{{val1}} has received access email for your listing {{val2}}.",
  "Forgot Password Success Title":"E-Mail zur Passwortzurücksetzung wurde versandt",
  "Forgot Password Success Message":"Eine E-Mail zur Passwortzurücksetzung wurde an Ihre E-Mail-Adresse versandt. Klicken Sie auf den Link, um Ihr Passwort zurückzusetzen.",
  "Register Success Title":"Email Verification",
  "Register Success Message":"A verification email has been sent to {{email}}. Please verify your account and log in.",
  "I have agreed to":"I have agreed to ",
  "terms of Service":"terms of Service ",
  "and":"and ",
  "Privacy Policy":"Privacy Policy",
  "By clicking Sign In, you acknowledge you have agreed to":"By clicking Sign In, you acknowledge you have agreed to ",
  "Pin Copied":"PIN copied",
  "fingerprint":{
     "Fingerprint":"Fingerprint",
     "Unlocks with fingerprint":"Unlocks with fingerprint",
     "Step 1: Get ready to scan":"Step 1: Get ready to scan",
     "Ensure that your finger is clean and dry.":"Ensure that your finger is clean and dry.",
     "Step 3: Scan your fingerprint":"Step 3: Scan your fingerprint",
     "Scan required":"Scan required",
     "Ensure that you press your finger on the scanner firmly":"Ensure that you press your finger on the scanner firmly",
     "I'm Done":"I'm Done",
     "Step 2: Name your fingerprint":"Step 2: Name your fingerprint",
     "There will be 3 scans required to register your fingerprint.":"There will be 3 scans required to register your fingerprint.",
     "Always place your finger at the center of the scanner for optimal perfomance.":"Always place your finger at the center of the scanner for optimal perfomance.",
     "Please try again. Do place your finger at the center firmly.":"Please try again. Do place your finger at the center firmly.",
     "Delete Fingerprint Access":"Delete Fingerprint Access",
     "Edit Fingerprint":"Edit Fingerprint",
     "Add Fingerprint":"Add Fingerprint",
     "Fingerprint ID":"Fingerprint ID",
     "Fingerprint added":"Fingerprint added"
  },
  "fob":{
     "You do not have any paired fobs.":"You do not have any paired {{ecosystemType}}.",
     "Manage fobs":"Manage {{ecosystemType}}",
     "Add Fob":"Add {{ecosystemType}}",
     "step1":"Step 1 : Prepare your {{ecosystemType}} for pairing",
     "step2":"Step 2 : Select Key Fob ID",
     "Enter Fob name":"Enter {{ecosystemType}} name",
     "Fob paired":"Key Fob paired!",
     "Link Fob":"Link {{ecosystemType}}",
     "Would you like to link your Fob to a lock now":"Would you like to link your {{ecosystemType}} to a lock now?",
     "Link lock from Fob":"Link lock from {{ecosystemType}}",
     "step1 link fob":"Step 1 : Get your {{ecosystemType}} ready",
     "step2 link fob":"Step 2 : Select a lock to link",
     "step3 link fob":"Step 3 : Linking your {{ecosystemType}} to {{lockname}}",
     "Linking Fob":"Linking {{ecosystemType}}",
     "Fob Linked":"{{ecosystemType}} Linked",
     "Fob successfully linked with":"{{ecosystemType}} successfully linked with \"{{lockname}}\"",
     "Fob Settings":"{{ecosystemType}} Settings",
     "Are you sure you want to unlink from":"Are you sure you want to unlink {{lock}} from {{fobname}}?",
     "Get your Fob ready":"Get your {{ecosystemType}} ready",
     "Successfully Deleted":"\"{{fobname}}\" Successfully Deleted",
     "Delete Fob":"Delete {{ecosystemType}}",
     "Unpair Fob from phone":"Unpair Key Fob from your phone",
     "Edit Fob Name":"Edit {{ecosystemType}} Name",
     "Fob name":"{{ecosystemType}} name",
     "Are you sure you want to delete Fob_name for all your locks":"Are you sure you want to delete {{fobname}} access for all your locks?",
     "Pair your Fob":"Pair your {{ecosystemType}}",
     "I lost my fob":"I lost my {{ecosystemType}}",
     "Lost your Fob":"Lost your {{ecosystemType}}?",
     "What to do when you have lost your Fob":"What to do when you have lost your {{ecosystemType}}",
     "When you lost your fob, you can revoke access to immediately to secure your place.":"When you lost your Key Fob, you can revoke access to immediately to secure your place.",
     "Revoke Fob access":"Revoke {{ecosystemType}} access",
     "lostFobRevoke":"You will no longer be able to unlock your linked lock(s) using the revoked {{ecosystemType}}.",
     "Step 1: Revoke Fob access":"Step 1: Revoke {{ecosystemType}} access",
     "Step 2: Delete Fob permanently":"Step 2: Delete {{ecosystemType}} permanently",
     "Permanently delete Fob from your account.":"Permanently delete your {{ecosystemType}} from your account.",
     "Are you sure you want revoke fob access for Lock_Name?":"Are you sure you want revoke {{ecosystemType}} access for {{Lock_Name}}?",
     "Remove Lock_Name from your Fob":"Remove {{Lock_Name}} from your Key Fob",
     "Lock successfully removed from your Fob.":"Lock successfully removed from your {{ecosystemType}} .",
     "Delete your Fob":"Delete your {{ecosystemType}}",
     "Your linked access will be removed automatically after you sync these access":"Your linked access will be removed automatically after you sync these access :",
     "Please wait while we remove all your Fob data":"Please wait while we remove all your {{ecosystemType}}’s data.",
     "Fob sucessfully removed":"Key Fob sucessfully removed.",
     "Please wait while we removing your lock from fob":"Please wait while we removing your lock from Key Fob.",
     "fob not found":"Device not found.",
     "fob aleready paired":"This Key Fob has already been paired.",
     "Delete fob alert":"Please unlink your linked lock(s) before deleting your device.",
     "This lock(s) has been deleted":"This lock has been deleted, please unlink it from the {{ecosystemType}}",
     "Fob has been blacklisted from the lock.":"Key Fob \"{{fobs_name}}\" has been blacklisted from the lock.",
     "Make sure your Fob is discoverable":"Make sure your {{ecosystemType}} is discoverable",
     "To start using your Fob, ensure the blue light is no longer flashing by holding onto the settings button":"To start using your Key Fob, ensure the blue light is no longer flashing by holding onto the settings button."
  },
  "bridge":{
     "Manage Bridge":"Manage {{ecosystemType}}",
     "You do not have any paired Bridge":"You do not have any paired {{ecosystemType}}.",
     "Add Bridge":"Add {{ecosystemType}}",
     "Pair your Bridge":"Pair your {{ecosystemType}}",
     "Pairing Bridge":"Pairing Bridge",
     "Step 1 Bridge pairing":"Step 1: Prepare your {{ecosystemType}} for pairing",
     "Bridge pairing message":"Connect your Bridge to power using the provided USB-C cable. \n \nPress the multi-function button once to wake the Bridge up.",
     "Step 2 Bridge pairing":"Step 2: Select Bridge ID",
     "You are connected to wifi":"You are connected to \"{{wifi_ssid}}\"",
     "Your phone is not connected to Wi-Fi":"Your phone is not connected to Wi-Fi",
     "Connected to wifi message":"Please enter your Wi-Fi password. Make sure you use a 2.4Ghz network.",
     "Step 3 Bridge pairing":"Bridge Paired!",
     "Not connected to wifi message":"Please connect your phone to your Wi-Fi to continue pairing.",
     "Incorrect wifi password message":"Incorrect password for \"{{wifi_ssid}}\"",
     "Set-up manually":"Set-up manually",
     "Skip this step":"Skip this step",
     "Skip wifi configuration":"Skip Wi-Fi configuration?",
     "Skip wifi configuration message":"This is an essential step in the Bridge setup process.",
     "Go to settings":"Go to settings",
     "Security":"Security",
     "Private Address":"Private Address",
     "Security types":"Security types",
     "None":"None",
     "WPA Enterprise":"WPA Enterprise",
     "WPA2 Enterprise":"WPA2 Enterprise",
     "WPA3 Enterprise":"WPA3 Enterprise",
     "Enter Bridge name":"Enter {{ecosystemType}} name",
     "Bridge name placeholder":"e.g. Home Bridge",
     "Link bridge to lock message":"Would you like to link your {{ecosystemType}} to a lock now?",
     "Current linked lock":"You currently have \"{{linkedLock}}\" locks linked",
     "Join network":"Join network",
     "Diagnostic":"Diagnostic",
     "wifi connected":"You are connected to \"{{ssid}}\"",
     "configuring wifi":"Configuring WiFi",
     "Step 1 link lock bridge":"Step 1 : Select a lock to link",
     "Step 2 link lock bridge":"Step 2 : Linking your {{ecosystemType}} to {{LockName}}",
     "Bridge successfully linked":"{{ecosystemType}} successfully linked with \"{{lockname}}\"",
     "You now have locks linked":"You now have  {{numberlock}}/10 locks linked",
     "Diagnostics":"Diagnostics",
     "Check network status":"Check network status",
     "Remove Bridge name":"Remove {{bridgeName}}",
     "What to do when you have lost your Bridge":"What to do when you have lost your {{ecosystemType}}",
     "Remove Bridge from account":"Remove Bridge from account",
     "Allow Bridge to be paired to another account":"Allow Bridge to be paired to another account",
     "Bridge name":"{{ecosystemType}} name",
     "Delete Bridge":"Delete {{ecosystemType}}",
     "Bridge Settings":"{{ecosystemType}} Settings",
     "Delete bridge alert":"Are you sure you want to delete {{acc_name}} access for all your locks?",
     "I lost my bridge":"I lost my {{ecosystemType}}",
     "Unpair bridge from phone":"Unpair Bridge from your phone",
     "Edit Bridge Name":"Edit {{ecosystemType}} Name",
     "Bridge Wi-Fi Configuration":"Bridge Wi-Fi Configuration",
     "Configure Bridge Wi-Fi so you can start using your lock remotely":"Configure Bridge Wi-Fi so you can start using your lock remotely.",
     "Wifi Configuration message":"For some devices, we might ask you to enable location services to identify the SSID of the Wi-Fi that your phone’s connected to.",
     "Start Wi-Fi configuration":"Start Wi-Fi configuration"
  },
  "keypad":{
     "You do not have any paired Keypad.":"You do not have any paired {{ecosystemType}}.",
     "Manage Keypad":"Manage {{ecosystemType}}",
     "Add Keypad":"Add {{ecosystemType}}",
     "pairing step2":"Step 2 : Prepare your {{ecosystemType}} for pairing",
     "pairing step3":"Step 3 : Select Keypad ID",
     "Enter Keypad name":"Enter {{ecosystemType}} name",
     "Keypad paired":"Keypad paired!",
     "Link Keypad":"Link {{ecosystemType}}",
     "Would you like to link your Keypad to a lock now":"Would you like to link your {{ecosystemType}} to a lock now?",
     "Link lock from Keypad":"Link lock from {{ecosystemType}}",
     "step1 link keypad":"Step 1 : Get your {{ecosystemType}} ready",
     "step2 link keypad":"Step 2 : Select a lock to link",
     "step3 link keypad":"Step 3 : Linking your {{ecosystemType}} to {{lockname}}",
     "Linking Keypad":"Linking {{ecosystemType}}",
     "Keypad Linked":"{{ecosystemType}} Linked",
     "Keypad successfully linked with":"{{ecosystemType}} successfully linked with \"{{lockname}}\"",
     "Keypad Settings":"{{ecosystemType}} Settings",
     "Are you sure you want to unlink from":"Are you sure you want to unlink {{lock}} from {{keypadname}}?",
     "Get your Keypad ready":"Get your {{ecosystemType}} ready",
     "Successfully Deleted":"\"{{keypadname}}\" Successfully Deleted",
     "Delete Keypad":"Delete {{ecosystemType}}",
     "Unpair Keypad from phone":"Unpair Keypad from your phone",
     "Edit Keypad Name":"Edit {{ecosystemType}} Name",
     "Keypad name":"{{ecosystemType}} name",
     "Are you sure you want to delete Keypad_name for all your locks":"Are you sure you want to delete {{keypadname}} access for all your locks?",
     "Pair your Keypad":"Pair your {{ecosystemType}}",
     "I lost my keypad":"I lost my {{ecosystemType}}",
     "Lost your Keypad":"Lost your {{ecosystemType}}?",
     "What to do when you have lost your Keypad":"What to do when you have lost your {{ecosystemType}}",
     "When you lost your keypad, you can revoke access to immediately to secure your place.":"When you lost your Keypad, you can revoke access to immediately to secure your place.",
     "Revoke Keypad access":"Revoke {{ecosystemType}} access",
     "lostKeypadRevoke":"You will no longer be able to unlock your linked lock(s) using the revoked {{ecosystemType}}.",
     "Step 1: Revoke Keypad access":"Step 1: Revoke {{ecosystemType}} access",
     "Step 2: Delete Keypad permanently":"Step 2: Delete {{ecosystemType}} permanently",
     "Permanently delete Keypad from your account.":"Permanently delete your {{ecosystemType}} from your account.",
     "Are you sure you want revoke keypad access for Lock_Name?":"Are you sure you want revoke {{ecosystemType}} access for {{Lock_Name}}?",
     "Remove Lock_Name from your Keypad":"Remove {{Lock_Name}} from your Keypad",
     "Lock successfully removed from your Keypad.":"Lock successfully removed from your {{ecosystemType}}.",
     "Delete your Keypad":"Delete your {{ecosystemType}}",
     "Your linked access will be removed automatically after you sync these access":"Your linked access will be removed automatically after you sync these access :",
     "Please wait while we remove all your Keypad data":"Please wait while we remove all your {{ecosystemType}}’s data.",
     "Keypad sucessfully removed":"Keypad sucessfully removed.",
     "Please wait while we removing your lock from keypad":"Please wait while we removing your lock from Keypad.",
     "keypad not found":"Device not found.",
     "keypad aleready paired":"This Keypad has already been paired.",
     "Delete keypad alert":"Please unlink your linked lock(s) before deleting your device.",
     "This lock(s) has been deleted":"This lock has been deleted, please unlink it from the {{ecosystemType}}",
     "Keypad has been blacklisted from the lock.":"Keypad \"{{Keypad_name}}\" has been blacklisted from the lock.",
     "Make sure your Keypad is discoverable":"Make sure your {{ecosystemType}} is discoverable",
     "To start using your Keypad, ensure the blue light is no longer flashing by holding onto the settings button":"To start using your Keypad, ensure the blue light is no longer flashing by holding onto the settings button."
  },
  "accecories":{
     "Link now":"Link now",
     "Link later":"Link later",
     "Select lock":"Select lock",
     "Link more locks":"Link more locks",
     "Linked Lock(s)":"Linked Lock(s)",
     "Linked Locks":"Linked Locks",
     "Unlink Lock":"Unlink Lock?",
     "Unlink":"Unlink",
     "Unlink lock":"Unlink lock",
     "Unlinking":"unlinking \"{{name}}\"",
     "Successfully Unlinked":"\"{{lockname}}\" Successfully Unlinked",
     "Deleting":"Deleting \"{{name}}\"",
     "Linked to multiple locks":"Linked to multiple locks",
     "Linked to lockname":"Linked to \"{{lockname}}\"",
     "Not linked":"Not linked",
     "Open the back cover and hold setting button until blue light flashes":"Open the back cover and hold onto the settings button until the blue light flashes",
     "You have linked number locks":"You have linked ({{number}}\/5) locks",
     "You can link up to 5 locks":"You can link up to 5 locks",
     "Please make sure your lock(s) are nearby to revoke access.":"Please make sure your lock(s) are nearby to revoke access.",
     "Revoke access":"Revoke access",
     "I no longer have this lock":"I no longer have this lock",
     "Please confirm that you no longer have this lock.":"Please confirm that you no longer have this lock.",
     "Remove lock":"Remove lock",
     "Remove Lock_Name":"Remove {{Lock_Name}}",
     "This will permanently remove it from your account":"This will permanently remove it from your account",
     "Delete Permanently":"Delete Permanently",
     "Do you want to unlink lock":"Do you want to unlink lock?",
     "Do you want to unlink your lock":"Do you want to unlink your lock?",
     "Any access granted to linked devices will still persist. Would you like to unlink them now":"Any access granted to linked devices will still persist. Would you like to unlink them now?",
     "Later":"Later",
     "Linked Devices":"Linked Devices",
     "Unlink device":"Unlink device?",
     "lock aleready linked":"This lock already linked to this device."
  },
  "retrofit":{
     "Auto-relock calibration":"Auto-relock calibration",
     "Calibrating auto-relock":"Calibrating auto-relock",
     "Lock position":"Lock position",
     "Calibrate the lock’s magnet sensor to optimize auto-relock performance":"Calibrate the lock’s magnet sensor to optimize auto-relock performance.",
     "Ensure that the door is closed":"Ensure that the door is closed.",
     "Tap next and you should hear a chime":"Tap next and you should hear a chime.",
     "Choose your door lock position":"Choose your door lock position",
     "Calibration in progress":"Calibration in progress...",
     "Calibration complete":"Calibration complete",
     "Start calibration":"Start calibration",
     "Open your door slightly so it’s ajar":"Open your door slightly so it’s ajar.",
     "1 of 2":"1 of 2",
     "2 of 2":"2 of 2",
     "Left":"Left",
     "Right":"Right",
     "Lock rotation":"Lock rotation",
     "Single Lock":"Single Lock",
     "Double Lock":"Double Lock",
     "Auto Unlock": "Auto-Unlock",
    "Location radius": "Location radius",
    "Automatically unlock your lock when you return to your property": "Automatically unlock your lock when you return to your property.",
    "Auto-Unlock is already active for lock_name": "Auto-Unlock is already active for {{lock_name}}. Please disable Auto-Unlock for {{lock_name}} to proceed.",
    "Modify location radius depending on your property scale": "Modify location radius depending on your property scale.",
    "Adjust lock location": "Adjust lock location"
  },
  "Search lock...":"Search lock...",
  "Couldnt find lock":"Couldn't find \"{{lockname}}\"",
  "Try searching again using a different keyword.":"Try searching again using a different keyword.",
  "1.1.403":"Wir können Sie nicht mit Benutzernamen\/Passwort einloggen. Bitte versuchen Sie es erneut.",
  "1.1.409":"Wir können Sie nicht anmelden. Bitte bestätigen Sie Ihr Konto, indem Sie auf den Link in Ihrer E-Mail klicken und es erneut versuchen.",
  "1.1.410":"Ihr Konto wurde gesperrt",
  "2.1.403":"Die E-Mail {{email}} wurde bereits registriert.",
  "2.1.409":"Die E-Mail {{email}} wurde bereits registriert.",
  "3.1.403":"Wir können Ihre Benutzerangaben aufgrund eines Fehlers nicht ändern. Bitte versuchen Sie es erneut.",
  "4.1.403":"Wir können Ihr Passwort aufgrund eines Fehlers nicht ändern. Bitte versuchen Sie es erneut.",
  "5.1.403":"Beim Trennen Ihres Airbnb-Kontos ist ein Fehler aufgetreten. Bitte trennen Sie alle Ihre mit Ihrem Airbnb-Konto gekoppelten Auflistungen in 'Reservierung' und versuchen Sie es erneut.",
  "6.3.803":"Der Bluetooth-Schlüssel konnte nicht angefordert werden. Bitte erneut versuchen.",
  "6.3.804":"Invalid QR code",
  "7.1.400":"Es konnte keine neue Unterkunft hinzugefügt werden. Bitte erneut versuchen.",
  "8.1.403":"{{listingName}} ist mit einem Gerät verbunden und kann nicht entfernt werden. Bitte trennen Sie Ihr Gerät von {{listingName}} vor der Löschung von {{listingName}}.",
  "8.1.409":"{{listingName}} ist mit {{provider}} verbunden und kann nicht entfernt werden. Bitte gehen Sie zu Reservierungen und trennen Sie {{listingName}} vor dem Löschvorgang.",
  "9.1.404":"Wir können Ihren aktuellen Standort nicht finden. Bitte aktivieren Sie den Standortdienst, um die Konfiguration Ihrer Heimat und Zeitzone zu automatisieren. Alternativ können Sie Ihre Stadt manuell auswählen.",
  "10.1.400":"Wir können keinen Zugriff für Ihr Schloss generieren. Bitte erneut versuchen.",
  "13.2.880":"New PIN is already taken. Please try a different pin",
  "18.1.404":"Wir können diesen Zugriff nicht entfernen. Bitte erneut versuchen..",
  "19.1.404":"Wir können diesen Zugang nicht widerrufen. Bitte erneut versuchen..",
  "20.1.404":"Wir können die Igloohome-Unterkunft nicht von der Airbnb-Liste trennen. Bitte erneut versuchen.",
  "21.1.404":"Wir können keine E-Mail-Adresse an Ihren Gast senden. Bitte erneut versuchen.",
  "22.1.404":"Der Bluetooth-Schlüssel, den Sie zu beanspruchen versuchen, wurde bereits beansprucht oder ist abgelaufen. Bitte kontaktieren Sie Ihren Gastgeber für einen neuen Schlüssel.",
  "22.1.409":"Sie dürfen Ihren Bluetooth-Schlüssel nicht beanspruchen.",
  "22.5.1":"Please login to your account before claiming the bluetooth key.",
  "22.5.800":"Please login to your account before claiming the bluetooth key.",
  "47.5.800":"Please login to your account before requesting for instant access.",
  "47.1.409":"You are not allowed to request instant access for your lock.",
  "23.1.404":"The bluetooth key is expired or revoked. Please contact your host.",
  "23.5.703":"Unlock bluetooth key error",
  "24.1.403":"You have reached the maximum of 5 pinned locks. Please unpin a lock and try again.",
  "31.1.404":"Lock not found.",
  "delete_card_error":"Die gelöschte Schlüsselkarte wird möglicherweise immer noch in der App angezeigt. Bitte erneut versuchen.",
  "add_card_error":"Die hinzugefügte Schlüsselkarte wird möglicherweise nicht in der App angezeigt. Bitte erneut versuchen.",
  "unlock_error":"Wir können keine Verbindung zur Bluetooth-Sperre herstellen. Stellen Sie sicher, dass die Sperre aktiviert ist: Drücken Sie eine beliebige Taste, um das Nummernfeld des Schlosses zu überprüfen. Stellen Sie sicher, dass die LEDs des Nummernfelds leuchten. Wenn das Problem weiterhin besteht, überprüfen Sie, ob Bluetooth eingeschaltet ist, starten Sie es auf Ihrem Gerät neu und fügen Sie das Gerät erneut hinzu.",
  "update mastercode error":"We are unable to set an admin password for your lock.  Please try again.",
  "delete lock error":"Beim Entfernen des Schlosses ist ein Fehler aufgetreten. Bitte stellen Sie sicher, dass Sie sich innerhalb der Bluetooth-Reichweite des Schlosses befinden und versuchen Sie es später erneut.",
  "sync lock error":"An error occurred and we are unable to sync lock time at the moment. Please ensure that you are within bluetooth range of the lock and try again later.",
  "sync lock bt in progress error":"Unable to sync the lock. Please try again.",
  "location_permission error":"Please ensure that the Bluetooth and location are turned on, Bluetooth privacy is enabled, then try again.",
  "use pin before":"Please use the PIN code once before proceeding.",
  "update your application":"Bitte Ihre Anwendung aktualisieren.",
  "edit pincode error":"Es konnte keine Verbindung zum Bluetooth-Schloss hergestellt werden. Bitte stellen Sie sicher, dass das Schloss aktiviert ist: Drücken Sie eine beliebige Taste, um das Nummernfeld des Schlosses zu überprüfen. Stellen Sie sicher, dass die LEDs des Nummernfelds leuchten. Wenn das Problem weiterhin besteht, überprüfen Sie, ob Bluetooth eingeschaltet ist und starten Sie es auf Ihrem Gerät neu.",
  "download":"Download",
  "network_error":"Einen Netzwerkfehler ist aufgetreten. Bitte überprüfen Sie Ihre Netzwerkeinstellungen und versuchen Sie es erneut.",
  "0.1.12":"Network Error",
  "invalid email":"Bitte geben Sie eine gültige E-Mail-Adresse ein",
  "invalid password":"Bitte geben Sie ein gültiges Passwort ein",
  "pin creation limit reached error":"PIN generation limit reached for this hour. Please wait till the next hour to generate more remotely. Alternatively, you may create PIN codes via Bluetooth.",
  "key card creation limit reached error":"Keycard creation limit reached. No further keycards can be added.",
  "legacy pin creation limit reached error":"PIN creation limit reached. Please delete all PINs to create more.",
  "Instant Access Request invalid. Lock is not paired to any account.":"Instant Access Request invalid. Lock is not paired to any account.",
  "0.0.0":"Error",
  "Note":"Note",
  "Full":"Full",
  "Okay":"Moderate",
  "Low":"Low",
  "Change your battery soon":"Change your battery soon",
  "You haven't add any listing yet.":"You haven't add any listing yet.",
  "You can send a test access message to your email.":"You can send a test access message to your email",
  "The actual access message will be sent to your guest via Airbnb platform before check-in time.":"The actual access message will be sent to your guest via Airbnb platform before check-in time.",
  "To customize the access message, please contact our support.":"To customize the access message, please contact our support.",
  "Add Listing":"Add Listing",
  "Test Access Message":"Test Access Message",
  "Send Access Message Now":"Send Access Message Now",
  "Send Access Message":"Send Access Message",
  "PIN Message Sent With Time":"message sent {{time_ago}}",
  "PIN Message Send Time Future":"message will be sent {{time_future}}",
  "Update PIN Send Time Message2":"Access message for {{guestName}} (containing access methods such as PIN codes and\/or bluetooth keys) will be sent {{sendAccessEmail}} hour(s) before check in time.",
  "Reservation Platform":"Reservation Platform",
  "Property Name":"Property Name",
  "Attention":"Attention",
  "You are making changes to the default listing settings.":"You are making changes to the default listing settings.",
  "Please note that this will not take effect on modified reservations.":"Please note that this will not take effect on modified reservations.",
  "Proceed":"Proceed",
  "The modifications will only affect this reservation. Default settings are unchanged.":"The modifications will only affect this reservation. Default settings are unchanged.",
  "Default Listing Settings":"Default Listing Settings",
  "Reservation Share Msg2":"Hi {{guestName}}, \n\nHere is your igloohome self check-in details at {{listingName}} from {{startDate}} to {{endDate}}.\n\n{{access_pin_list}}\n\n Your PIN is valid only from check-in to check-out time. Please use within 24 hours from your check-in time to activate the PIN.\n\nIf you experience any issues, please contact your host.\n\nEnjoy your stay!\nThe igloohome Team",
  "Reservation Share Msg Access detail":"{{lockName}}:\n{{pinCode}} \n",
  "All Airbnb listing has already been connected.":"All Airbnb listing has already been connected.",
  "PIN Message Send Time Now":"Sending access message now",
  "Are you sure you want to disconnect your Airbnb account? Please make sure all Airbnb listing(s) has already been disconnected.":"Are you sure you want to disconnect your Airbnb account? Please make sure all Airbnb listing(s) has already been disconnected.",
  "Access Message is being sent. Please check back for more details.":"Access Message is being sent. Please check back for more details.",
  "Message Sent":"Message Sent",
  "Template_content_required_error_message":"Please ensure you include these in your message:\n- Access detail\n- Start date\n- End date",
  "Discard_changes?":"Discard changes?",
  "Discard_template_changes_content":"Are you sure you want to discard your changes?\n\nAll changes will not be saved.",
  "Discard_button":"Discard",
  "Automated_Message_for_your_Self_Check-In":"Automated Message for your Self Check-In",
  "Note_Reservation_template":"*Note: This is a preview of your access message. The actual access message will be sent to your guest via Airbnb platform before check-in time.",
  "0.5.703":"Timeout Error",
  "0.2.6":"Unlocking too many times at once Error",
  "0.2.7":"Time Offsync error",
  "0.2.11":"Connect bt failed error",
  "0.2.12":"Unable to connect to lock coz its already connected error",
  "0.2.21":"Enable pin generation failed error",
  "0.2.41":"Retrieve Ekey Error",
  "0.2.61":"Unlock error",
  "0.2.63":"Phone disconnected while unlock error",
  "0.2.64":"Error",
  "0.2.71":"Set Keypad password error",
  "0.2.72":"Keypad Password Digits error",
  "0.2.100":"Network Error",
  "0.2.101":"Bind admin error",
  "0.2.121":"Add admin error",
  "0.2.122":"Add admin settings mode error",
  "0.2.131":"Upload Pincodes error",
  "0.2.141":"Get logs error",
  "0.2.151":"Reset lock error",
  "0.2.161":"NTP check error",
  "0.2.171":"Sync time error",
  "unable to connect":"Unable to connect to the device. Please try again.",
  "51.5.1003":"Please ensure that the lock is unlocked before you proceed.",
  "51.1.100":"Please check your network settings and try again.",
  "51.5.1301":"Unable to connect to the Lock. Please try again.",
  "51.5.703":"Unable to connect to the Lock. Please try again.",
  "51.5.1023":"This lock is not support firmware update.",
  "51.2.708":"Please ensure that the Bluetooth and location are turned on, Bluetooth privacy is enabled, then try again.",
  "51.5.1":"Please ensure that the Bluetooth and location are turned on, Bluetooth privacy is enabled, then try again.",
  "51.5.1303":"Please ensure that the Bluetooth and location are turned on, Bluetooth privacy is enabled, then try again.",
  "51.5.100":"Unable to connect to the Lock. Please try again.",
  "51.5.1002":"Please check your network settings and try again.",
  "51.5.1011":"DFU download error",
  "51.5.1012":"DFU download error",
  "51.5.1013":"DFU download error",
  "51.5.1014":"DFU download error",
  "51.5.1015":"DFU download error",
  "51.5.1016":"DFU download error",
  "51.5.1100":"DFU Error",
  "51.5.1021":"DFU package error",
  "51.5.1022":"DFU package initialitation error",
  "51.5.1024":"Please update your igloohome app to latest version",
  "51.5.1025":"Server bluetooth version error",
  "51.5.1026":"DFU configuration initiation error",
  "51.2.1002":"Unable to connect to the Lock. Please try again.",
  "51.2.1233":"Unable to connect to the Lock. Please try again.",
  "51.2.5206":"Please ensure that the Bluetooth and location are turned on, Bluetooth privacy is enabled, then try again.",
  "51.5.5206":"Please ensure that the Bluetooth and location are turned on, Bluetooth privacy is enabled, then try again.",
  "51.2.5196":"Unable to connect to the Lock. Please try again.",
  "51.4.1":"Please check your network settings and try again.",
  "51.2.12":"Unable to connect to the lock. Please try again.",
  "52.5.1":"Generic Error",
  "53.2.980":"Unable to delete access. Fingerprint UID could not be found. Please sync the lock and try again.",
  "52.2.960":"Fingerprint creation limit reached. Please remove another fingerprint access and try again",
  "52.2.970":"Reading error",
  "52.2.971":"Fingerprint scanning timeout. Please try again.",
  "52.2.972":"You have exceeded the number of attempts. Please make sure the scanner is clean and dry, then try again.",
  "51.1.801":"Please check your network settings and try again.",
  "38.2.860":"Please ensure that the Bluetooth and location are turned on, Bluetooth privacy is enabled, then try again.",
  "33.2.860":"Please ensure that the Bluetooth and location are turned on, Bluetooth privacy is enabled, then try again.",
  "54.2.708":"Please ensure that the Bluetooth and location are turned on, Bluetooth privacy is enabled, then try again.",
  "33.2.708":"Please ensure that the Bluetooth and location are turned on, Bluetooth privacy is enabled, then try again.",
  "airbnbError":"Cannot connect to airbnb",
  "Keycard missing uid":"Unable to delete access. Keycard UID could not be found. Please sync the lock and try again."
}