{
  "actions":{
     "Login":"Iniciar Sesión",
     "Register":"Registrar",
     "Email":"Correo electrónico",
     "Your email":"Su correo electrónico",
     "Reset Password":"Reestablecer contraseña",
     "password":"contraseña",
     "Forgot Password":"Olvidé mi contraseña",
     "Submit":"Enviar",
     "First Name":"Nombre",
     "Last Name":"Apellido",
     "Mobile":"Móvil",
     "Password requirement":"Requisito de contraseña",
     "Password match":"Las contraseñas deben coincidir",
     "Passwords not matching":"Las contraseñas no coinciden",
     "Confirm Password":"Confirmar contraseña",
     "Change Details":"Cambiar detalles",
     "Change Password":"Cambia la contraseña",
     "Change batteries":"Cambiar las baterías",
     "Current Password":"Contraseña actual",
     "New Password":"Nueva contraseña",
     "Edit Account Details":"Editar detalles de la cuenta",
     "Filter":"Filtro",
     "Check Validity":"Comprobar validez",
     "New Key":"Nueva Clave",
     "Update Logs":"Actualizar registros",
     "Change language":"Cambiar idioma",
     "Select Listing":"Seleccionar Listado",
     "Select City":"Elige Ciudad",
     "Select One":"Seleccione uno",
     "Test Welcome Email":"Prueba de correo electrónico de bienvenida",
     "Test Access Email":"Prueba de correo electrónico de acceso",
     "Contact Support":"Contactar con soporte",
     "Add":"Añadir",
     "Delete":"Eliminar",
     "Delete Lock":"Eliminar Cerradura",
     "Delete Home":"Borrar propiedad",
     "Create PIN":"Crear PIN",
     "Create Bluetooth Key":"Crear Llave",
     "Edit PIN":"Editar PIN",
     "Edit Key Card":"Editar tarjeta llave",
     "Confirm":"Confirmar",
     "Edit Master PIN":"Editar PIN maestro",
     "Disconnect Airbnb":"Desconectar Airbnb",
     "Connect Airbnb":"Conectar con Airbnb",
     "Connect Airbnb Message":"Conecte igloohome a la cuenta principal de Airbnb, no a la cuenta de co-host",
     "Back":"Atrás",
     "Ok":"Ok",
     "Cancel":"Cancelar",
     "Cancel Sync":"Cancelar sincronización",
     "Retry":"Reintentar",
     "Done":"Hecho",
     "Load More":"Cargar mas",
     "OR":"O",
     "Send Key":"Enviar Llave",
     "Close":"Cerrar",
     "Set Up Now":"Configurarlo ahora",
     "Set Up Later":"Configurarlo después",
     "FingerPrint Message":"Ingresar rápidamente con huella digital. Alternativamente puede configurarlo después en 'Configuración de Cuenta'.",
     "Touch Id Message":"Ingresar rápidamente con ID Táctil. Alternativamente puede configurarlo después en 'Configuración de Cuenta'",
     "Face Id Message":"Inicia sesión rápidamente con Face ID. De lo contrario, puedes configurarlo luego en 'Ajustes de Cuenta'.",
     "Press back again to exit App.":"Presiona atrás nuevamente para salir de la app.",
     "Accept":"Aceptar",
     "Reject":"Rechazar",
     "Yes":"Yes",
     "No":"No"
  },
  "pairing":{
     "Pairing":"Emparejando",
     "Start pairing":"Emparejemos tu cerradura",
     "Step 1":"Coloca la palma sobre el teclado para activar el bloqueo.",
     "Step 1 padlock":"Presione cualquier número para activar el bloqueo.",
     "Step 1 euroRetrofit":"Please keep the lock unlocked and hold the multi-function button until the lock is flashing blue.",
     "Step 1 keybox":"Mantenga el candado abierto y coloque la palma sobre el teclado para activar el candado",
     "Keybox warning":"Por favor, no cierres la caja de llaves hasta que se haya emparejado.",
     "Scan":"Selecciona la cerradura bluetooth para conectarla.",
     "Next":"Siguiente",
     "Try Again":"Inténtelo Otra Vez",
     "Pairing in progress":"Emparejamiento en progreso...",
     "Please wait":"Por favor espere...",
     "Almost done":"Casi terminado...",
     "Step 1: Select Property":"Paso 1: Seleccione Propiedad",
     "Step 2: Select Lock Model":"Paso 2: Seleccione Modo de Cerradura",
     "Step 3: Pair your device":"Paso 3: Empareje su dispositivo",
     "Step 3: Select Product ID":"Paso 3: Seleccione la ID del Producto",
     "PAIRING_STEP_1":"Quitar el panel trasero de la cerradura",
     "PAIRING_STEP_2":"Coloca la palma sobre el teclado para activar el bloqueo",
     "PAIRING_STEP_2_KEYBOX":"Mantenga el candado abierto y coloque la palma sobre el teclado para activar el candado",
     "PAIRING_STEP_3":"Quítelo y vuelva a insertar una batería",
     "PAIRING_STEP_4_L":"Presione y mantenga la tecla de desbloqueo durante 2 segundos",
     "PAIRING_STEP_4_B":"Presione y mantenga la tecla # durante 2 segundos",
     "PAIRING_STEP_5_L":"Escuche 4 pitidos, seguidos por 2 pitidos",
     "PAIRING_STEP_5_B":"Escuche 2 pitidos",
     "I hear the beeps":"Escucho los pitidos",
     "PAIRING_LOCKBOX_STEP_1":"Gire la cubierta de la batería en el sentido de las agujas del reloj para abrirla.",
     "PAIRING_LOCKBOX_STEP_2":"Utilice un objeto afilado para presionar el botón de reinicio, el cual está entre el tercer y cuarto compartimento de baterías. Presiónelo durante 2 segundos.",
     "PAIRING_LOCKBOX_STEP_3":"Presione Siguiente cuando haya terminado.",
     "PAIRING_BOLT2_NON_FACTORY_STEP_1":"Ubique el botón de reinicio localizado en el hueco de arriba a la derecha del panel trasero del conjunto delantero de la cerradura.",
     "PAIRING_BOLT2_NON_FACTORY_STEP_2":"Presione el botón de reinicio utilizando un objeto afilado y manténgalo durante 20 segundos.",
     "PAIRING_BOLT2_NON_FACTORY_STEP_3":"Si necesita más ayuda, vaya al centro de ayuda de igloohome en la página de ayuda",
     "PAIRING_MORTISE_NON_FACTORY_STEP_1":"Ubique el botón para reiniciar ubicado en la parte inferior derecha del compartimiento de batería.",
     "PAIRING_MORTISE_NON_FACTORY_STEP_2":"Presione el botón para reiniciar junto con la tecla almohadilla en el teclado hasta que escuches un pitido.",
     "PAIRING_KEYBOX_2_STEP_1":"Abre la Keybox 2 y destornille la tapa de la batería.",
     "PAIRING_KEYBOX_2_STEP_2":"Use un objeto afilado para presionar el botón de reinicio que se encuentra entre la segunda y la tercera ranura de la batería. Mantenlo presionado durante 2 segundos.",
     "PAIRING_PADLOCK_RESET_STEP_1":"Ubique el botón de reinicio en el orificio en la parte posterior después de quitar la tapa de la batería.",
     "PAIRING_PADLOCK_RESET_STEP_2":"Dispare el botón de reinicio con un objeto delgado y manténgalo presionado durante 3 segundos y escuchará un tono de confirmación.",
     "PAIRING_BOLT2S_IGB4_RESET_STEP_1":"Mantenga presionado el botón de [CLEAR] y el botón de atrás del body que se encuentra debajo del giro del pulgar durante 3 segundos y escuchará un tono de confirmación.",
     "PAIRING_MORTISE_IGM2_RESET_STEP_1":"Mantenga presionado el botón de [CLEAR] y el botón [R] después de quitar la tapa de la batería durante 3 segundos y escuchará un tono de confirmación.",
     "errors":{
        "There are no bluetooth devices detected in your network.":"No se detectan dispositivos bluetooth en tu red.",
        "Try to turn bluetooth off and then on again.":"Intenta apagar y encender tu bluetooth y vuelve a intentarlo.",
        "We are unable to connect to the device selected.":"No hemos conectar el dispositivo seleccionado.",
        "The lock that you are trying to add has already been claimed by another user.":"La cerradura que estás intentando añadir ya ha sido solicitada por otro usuario.",
        "Please get the previous owner to delete the lock. The delete lock option can be found under the 'Set Up Home' menu.":"Haz que el dueño anterior elimine la cerradura. La opción de eliminar cerradura se encuentra en el menú 'Configurar Hogar'.",
        "If you believe this to be in error, please contact Igloohome at support@igloohome.co":"Si consideras que es un error, ve al centro de ayuda de igloohome en la página de inicio",
        "NOT_IGLOOHOME":"Este no es un dispositivo igloohome y no se puede emparejar con la aplicación de igloohome.",
        "Please try again.":"Inténtalo otra vez.",
        "Lock deactivated during pairing":"Lock deactivated during pairing",
        "Place palm over keypad to reactivate it":"Coloque la palma sobre el teclado para volverlo a activar",
        "NETWORK_ERROR_MSG":"Hemos encontrado un error. Revise su configuración de red y vuelva a intentarlo.",
        "ENSURE_LOCK_ON":" Inténtalo otra vez y asegúrate que las luces de la cerradura estén encendidas.",
        "OWN_LOCK_ALREADY_PAIRED":"Esta cerradura ya se ha emparejada con tu cuenta.",
        "UNABLE_TO_COMPLETE_PAIRING_ERROR":"Se ha producido un error en el proceso de emparejamiento.",
        "The lock that you are trying to add has already been blocked.":"El candado que intentas agregar ya se ha bloqueado."
     }
  },
  "tabs":{
     "Active":"ACTIVO",
     "Valid Keys":"Todas las llaves válidas",
     "Valid Keys New":"Todo el acceso valido",
     "Inactive":"INACTIVO",
     "Invalid Keys":"Todos los códigos de PIN caducados y usados",
     "Invalid Keys New":"Todo el acceso usado y expirado",
     "Pending":"PENDIENTE",
     "Pending Keys":"Todos los PIN de duración futura, códigos PIN pendientes de bluetooth que no están actualizados. Haz clic en ‘Comprobar validez’ para actualizar los códigos de PIN ",
     "Pending Keys New":"Todo el acceso futuro y no reclamado"
  },
  "settings":{
     "My Account":"Mi Cuenta",
     "My Preferences":"Mis Preferencias",
     "Notification Settings":"Configuración de las notificaciones",
     "Bluetooth Key Claimed":"Clave Bluetooth reclamada",
     "Bluetooth Key Used":"Clave Bluetooth utilizada",
     "Vibration Feedback":"Vibración",
     "Fingerprint Login":"Inicio de sesión Fingerprint",
     "Face Id Login":"Ingresar con ID Facial",
     "Touch Id Login":"Ingresar con ID Tácti",
     "Language":"Idioma",
     "Connect External Providers":"Conectar Proveedores",
     "Reservation Welcome Email":"Correo electrónico del proveedor",
     "Reservation Access Email":"Correo electrónico de acceso del proveedor",
     "Airbnb Connect Email Notifications":"Airbnb Connect Email Notifications",
     "hi":"Hola,",
     "My Details":"Mis detalles",
     "Name, Contact":"Nombre, Contacto",
     "Battery Sync Reminder":"Recordatorio de sincronización de la batería",
     "Every X month":"Cada X meses"
  },
  "checkbox":{
     "Unlock":"Desbloquear",
     "Pairing":"Emparejando",
     "Reset":"Restablecer",
     "Description: A - Z":"Descripción de PIN: A - Z",
     "Description: Z - A":" Descripción de PIN: Z - A",
     "Created: Earliest First":"PIN creado: Orden Ascendente",
     "Created: Latest First":"PIN creado: Orden Descendiente",
     "Bluetooth Key":"Llave Bluetooth",
     "Key Card":"Tarjeta llave"
  },
  "menu":{
     "Home":"Inicio",
     "Reservations":"Reservas",
     "Visits":"Visitas",
     "Configuration":"Configuración",
     "Account Settings":"Cuenta",
     "Support":"Apoyo",
     "FAQ":"Preguntas Frecuentes",
     "Logout":"Cerrar Sesión"
  },
  "reserveDetail":{
     "Check In Time":"Hora de Entrada",
     "Check Out Time":"Hora de Salida",
     "Send Access Email":"Enviar correo electrónico de acceso"
  },
  "firmware":{
     "The update can take up to 10 minutes.":"The update can take up to 10 minutes.",
     "Please keep your internet connected with the app open and place your phone near your lock":"Please keep your internet connected with the app open and place your phone near your lock",
     "Please keep your internet connected with the app open and place your phone near your fob":"Please keep your internet connected with the app open and place your phone near your {{ecosystemType}}",
     "Please keep your internet connected with the app open and place your phone near your bridge":"Please keep your internet connected with the app open and place your phone near your {{ecosystemType}}",
     "Do not remove the batteries.":"Do not remove the batteries.",
     "Do not close your app.":"Do not close your app.",
     "If there is an error during update, please remove the batteries and put them back into the fob":"If there is an error during update, please remove the batteries and put them back into the {{ecosystemType}}.",
     "Unlock your lock and keep it open":"Unlock your lock and keep it open",
     "Please place your phone near your lock":"Please place your phone near your lock.",
     "Please place your phone near your fob":"Please place your phone near your {{ecosystemType}}.",
     "Please place your phone near your bridge":"Please place your phone near your {{ecosystemType}}.",
     "Updating Firmware":"Updating Firmware",
     "Firmware is up to date!":"Firmware is up to date!",
     "Current Firmware Version":"Current Firmware Version",
     "Update available!":"Update available!",
     "Firmware downloaded!":"Firmware downloaded!",
     "New Firmware Version":"New Firmware Version",
     "New Firmware available. Update Now.":"New Firmware available. Update Now.",
     "Please ensure that the lock is unlocked before you proceed.":"Please ensure that the lock is unlocked before you proceed.",
     "Step 1: Download Firmware":"Step 1: Download Firmware",
     "Step 2: Prepare your lock":"Step 2: Prepare your lock",
     "Step 3: Updating Firmware":"Step 3: Updating Firmware",
     "Step 2: Updating Firmware":"Step 2: Updating Firmware",
     "Step 1: Firmware Downloaded":"Step 1: Firmware Downloaded",
     "Step 3: Firmware Updated":"Step 3 : Firmware Updated",
     "IMPORTANT":"IMPORTANT",
     "update now":"Update Now",
     "Firmware update is not available yet":"Firmware update is not available yet.",
     "Do check again later":"Do check again later.",
     "firmware update":"firmware update",
     "Make sure the blue light on your Fob is flashing":"Make sure the blue light on your Key Fob is flashing.",
     "Please hold onto the settings button":"Please hold onto the settings button if the blue light on your Key Fob stops flashing."
  },
  "access":{
     "Access":"Acceso",
     "Access Summary":"Resumen de Acceso",
     "keycard issued":"Tarjeta(s) clave(s) emitida(s)",
     "ekey issued":"claves Bluetooth emitido",
     "exclude unclaimed ekey":"Excluye claves no reclamadas ",
     "pincode created":"Código(s) PIN recreado(s)",
     "exclude deleted pincode":"Excluye códigos de PIN eliminados",
     "End time should be after start time":"Fin de la hora debe ser después a la hora de inicio",
     "Start should be before end":"La fecha de inicio debe ser anterior a la fecha de finalización.",
     "The end date should not exceed one year from the start date":"La fecha de finalización no debe exceder el año desde la fecha de inicio.",
     "End date time should be current":" La hora de la fecha de finalización debe ser actual.",
     "Start date time should be current":" La hora de la fecha de inicio debe ser actual ",
     "Start date time should be before end date time":" La hora de la fecha de inicio debe ser anterior a la fecha de finalización. ",
     "End day must be within same week":"Fin del día debe ser dentro de la misma semana",
     "End date\/time must be after start date\/time":"Fin de la fecha \/ hora debe ser después a la fecha \/ hora de inicio.",
     "The PIN code should be between 4 and 7 digits":"El código PIN debe estar entre 4 y 7 dígitos.",
     "The PIN code should be between 7 and 9 digits":" El código PIN debe estar entre 7 y 9 dígitos.",
     "The PIN codes do not match":" Los códigos PIN no coinciden.",
     "Please fill in both PIN codes":" Rellene ambos códigos PIN.",
     "Who is this key card for":"Para quién es la tarjeta llave",
     "Card ID":"ID de Tarjeta",
     "Card added":"Tarjeta añadida",
     "Ekey Details":"Detalles de la llave Bluetooth",
     "Pending start time":" Hora de inicio pendiente ",
     "View all durations":" Ver todas las duraciones ",
     "All durations":" Todas las duraciones ",
     "Duration":"Duración",
     "received pin code for certain duration":"Has recibido el código PIN {{code}}. Es válido durante {{duration}}.",
     "received permanent or otp":"Has recibido un código {{code}} de {{pinType}}",
     "Enter a new name for this PIN":" Introduzca un nombre nuevo para este PIN:",
     "LIMITED_ACCESS_VIEW":"Debido a una mala conexión de Internet, no somos capaces de acceder a la lista. Actualiza la página si hay conexión disponible.",
     "Select an access type":" Seleccionar un tipo de acceso ",
     "Works forever":"Funciona para siempre",
     "Works for a period":"Funciona por un periodo",
     "Repeats forever":"Se repite por siempre",
     "Repeat Every":"Repeat Every",
     "Works only once":"Funciona una sola vez",
     "Unlocks with phone":"Se desbloquea con teléfono",
     "Unlocks with keycard":"Se desbloquea con tarjeta de llave",
     "Action Required":"Acción necesaria",
     "Please update activity log before registering key card.":"Actualiza el registro de actividad antes de registrar la tarjeta llave.",
     "no access":"No {{statusAccess}} acceso para esta cerradura.",
     "Sync to update status":"Sincronizar para actualizar estado",
     "Revoke":"Revocar",
     "Clear":"Eliminar",
     "Revoke bluetooth key":"¿Revocar llave Bluetooth?",
     "Delete Bluetooth Key Access":" Eliminar acceso a la clave Bluetooth ",
     "Clear Pin Access":"Eliminar acceso con PIN",
     "Delete Pin Access":" Eliminar acceso PIN ",
     "Delete Keycard Access":"Delete Keycard Access",
     "Delete Access Message":"¿Estás seguro de querer borrar el {{accessType}} {{name}}?",
     "Clear Access Message":"¿Estás seguro de querer eliminar el {{accessType}} {{name}}?",
     "Revoke Access Message":"¿Estás seguro de querer revocar el {{accessType}} {{name}}?",
     "PIN not synced":"PIN no sincronizado",
     "Please Sync Status to update":" El PIN no está sincronizado. Sincronizar el estado para actualizar.",
     "Share Bluetooth Key":"Compartir Llave Bluetooth",
     "Share Key":"Compartir Llave",
     "Scan key":"Escanea usando el código QR del destinatario para recibir la llave",
     "pincodes":"codigos pin",
     "out of 285 PINs created":"Se han usado {{number}} de 285 códigos PIN",
     "Bluetooth keys and PIN codes issued":" Llaves Bluetooth y códigos PIN emitidos ",
     "Delete key card":"Eliminar tarjeta llave",
     "Share ekey message":" Te he enviado una llave bluetooth igloohome. Para reclamar la llave bluetooth haga clic en la siguiente URL.",
     "permanent pin generated":"PIN permanente generado",
     "duration pin generated":"PIT temporal generado",
     "otp pin generated":"PIN de un uso generado",
     "duration ekey generated":"Llave Bluetooth generada",
     "weekly pin generated":"PIN semanal ha sido generado",
     "weekend pin generated":"PIN del fin de semana ha sido generado",
     "weekday pin generated":"PIN de día laborable se ha generado",
     "monthly pin generated":"PIN mensual se ha generado",
     "permanent nfc generated message":"Key card(s) added",
     "permanent pin generated message":"Usa el PIN en menos de 24 horas para activarlo.",
     "weekly pin generated message":"Usa el PIN en menos de 24 horas a partitar del Tiempo de Inicio para activarlo.",
     "weekday pin generated message":"Usa el PIN en menos de 24 horas a partitar del Tiempo de Inicio para activarlo.",
     "weekend pin generated message":"Usa el PIN en menos de 24 horas a partitar del Tiempo de Inicio para activarlo.",
     "monthly pin generated message":"Usa el PIN en menos de 24 horas a partitar del Tiempo de Inicio para activarlo.",
     "duration pin generated message":"Usa el PIN en menos de 24 horas a partitar del Tiempo de Inicio para activarlo.",
     "otp pin generated message":"Usa el PIC en menos de {{number}} horas antes de que expire.",
     "duration ekey generated message":"Asegúrate de que la Llave Bluetooth sea reclamada en menos de {{number}} hora.",
     "Don't remind me again":"No recordarme de nuevo",
     "Every Week":"Cada Semana",
     "Every Month":"Cada Mes",
     "Every Monday to Friday":"Cada dia de lunes a viernes",
     "Every Saturday and Sunday":"Cada dia de sábado y domingo",
     "Default":"Defecto",
     "Custom":"Personalizado",
     "Generate PIN remotely":"Generar PIN de forma remota",
     "Customize PIN via Bluetooth":"Personaliza el PIN a través de Bluetooth",
     "Set your own PIN via bluetooth":"Establece tu propio PIN a través de bluetooth",
     "Protips":"Protips",
     "All key cards look the same":"All key cards look the same so don't forget to label them!",
     "Step 1: Get your key card(s) ready":"Step 1: Get your key card(s) ready",
     "Step 2: Tap key card(s) on lock":"Step 2: Tap key card(s) on lock",
     "Step 3: Hold on to unlock until close sign appears":"Step 3: Hold on to 🔓 until 'CLOSE' sign appears.",
     "Step 4: Press and hold the lock icon until you hear a beep":"Step 4: Press and hold the 'lock' icon until you hear a beep",
     "key card(s) added":"Key card(s) added:",
     "You can add multiple cards at once":"You can add multiple cards at once.",
     "Start":"Start",
     "Ready":"I'm Ready",
     "Enter name":"Enter name",
     "Name X cards":"Name {{number}} card(s)",
     "SMS Pin Code":"Your {{pintype}} code is {{pincode}}.",
     "SMS Pin Validity":"Valid \nFROM {{from}} \nTO {{to}}.",
     "SMS Pin Validity Effective":"Valid \nEFFECTIVE FROM {{effective}} \nEVERY {{every}} \nFROM {{from}} \nTO {{to}}.",
     "SMS Pin Activate":"To Activate, please use once by: {{date}}",
     "SMS Pin Use":"Please use by: {{date}}"
  },
  "lock":{
     "Locks":"Cerraduras",
     "Pair a new lock":" Emparejar un nuevo candado ",
     "Other igloohome locks":" Otras cerraduras igloohome ",
     "Lock paired":"¡Cerradura emparejada!",
     "Edit lock name":" Editar nombre de bloqueo ",
     "Enter lock name":"Introduce el nombre de la cerradura",
     "Add Key Card":"Añadir tarjeta llave",
     "Ensure that your bluetooth is turned on":" Asegúrate de que el Bluetooth esté encendido ",
     "On the lock keypad, enter":"En el teclado de la cerradura, introduce",
     "Tap your key card (s) on the key card reader":"Coloca una o más tarjetas llave sobre el lector de tarjetas llave.",
     "Enter # on the keypad":"Ingresa # en el teclado",
     "Press [Sync] below to update":"Presiona [Sincronizar] abajo para actualizar",
     "Sync":"Sincronizar",
     "Unable to Sync":"Imposible sincronizar",
     "Create permanent PIN":" Crear PIN permanente ",
     "Create duration PIN":" Crear PIN de duración ",
     "Create one time PIN":" Crear un PIN de una sola vez ",
     "Create Bluetooth key":" Crear llave Bluetooth ",
     "Create recurring PIN":"Crear PIN recurrente",
     "Type of recurring PIN":"Tipo de PIN recurrente",
     "other(s)":"otros(s)",
     "Are you sure you want to delete":"Estás seguro de que quieres eliminar a {{name}}",
     "Enter a new name for this lock":"Introduzca un nombre nuevo para este bloqueo",
     "Status":"Estado",
     "Go near lock":"Coloca tu móvil cerca del candado.",
     "Last updated":"Última actualización",
     "Lock updated":"El seguro está actualizado",
     "Last synced":"Última vez sincronizado",
     "Unable to check":"No se ha podido actualizar el seguro. Inténtalo de nuevo.",
     "Battery Status Unavailable":"Nivel de batería: Desconocido",
     "Lock Name":"Nombre de cerradura",
     "Associated Property(s)":" Propiedade(s) asociada(s)",
     "Unpair lock from phone":" Desemparejar bloqueo del teléfono ",
     "Delete All PINs":" Eliminar todos los PIN ",
     "Delete all PINs except for Master PIN":" Eliminar todos los PIN excepto el PIN maestro ",
     "RESET_LOCK_CONFIRM_TITLE":"¿Eliminar todos los códigos PIN?",
     "RESET_LOCK_CONFIRM_MSG":"Debe hacerse dentro del rango de bluetooth de la cerradura. Todos los códigos PIN generados se eliminarán de la cerradura. El código PIN maestro no se eliminará.",
     "LOCK_RESET_SUCCESS_MSG":"La cerradura se ha reiniciado para aceptar nuevos códigos PIN. Los códigos PIN generados anteriormente ya no son válidos.",
     "General":"General",
     "Bluetooth Settings":" Configuración de Bluetooth",
     "Quick Unlock":" Desbloqueo rápido ",
     "Auto Relock":"Auto Relock",
     "Sensor Relock Timer":"Temporizador de rebloqueo del sensor",
     "Custom Relock Timer":"Temporizador de rebloqueo personalizado",
     "Security lockout":" Bloqueo de seguridad",
     "Volume":"Volumen",
     "Set Volume":"Ajustar el volumen",
     "Battery Sync Reminder":" Recordatorio de sincronización de batería ",
     "Sync to delete":" Sincronizar para eliminar",
     "Delete Lock Message":"Place your phone near the lock to complete the deletion process.",
     "CONFIRM_DELETE_TEMPLATE":"¿Estás seguro de querer eliminar la cerradura? Ten en cuenta que los códigos generados previamente podrían permanecer en la cerradura.",
     "Delete Lock Fail Message":"{{lockName}} está conectado a la listado de {{providerName}} y no se puede eliminar. Desconecte la lista de {{providerName}} antes de eliminar {{lockName}}.",
     "Never relock":" Nunca rebloqueo",
     "Always relock":"Siempre rebloqueo",
     "seconds":"segundos",
     "second(s)":"segundo(s)",
     "second":"segundo",
     "Set number of seconds":"Establece el número de segundos",
     "Enter number of seconds":"Ingrese el número de segundos",
     "Apply":"Aplicar",
     "sec":"Seg",
     "Sensor relock can be customised from 1 to 180 seconds.":"Auto Relock se puede personalizar de 1 a 180 segundos.",
     "Not enabled":"No activado",
     "Level":"Level",
     "Attempt":"Intento",
     "Attempts":"Intentos",
     "attempt(s)":"intento(s)",
     "Deactivate lockout":"Desactivar bloqueo",
     "On":"Encender",
     "Off":"Apagar",
     "No Reminder":"No Reminder",
     "Relock Reminder Alert":"Relock Reminder Alert",
     "Firmware Version":"Firmware Version",
     "Calibrate Lock":"Calibrate Lock",
     "Lock Rotation":"Lock Rotation",
     "Step 1: Manually calibrate lock rotation":"Step 1: Manually calibrate lock rotation",
     "Step 2: Keep your door closed":"Step 2: Keep your door closed",
     "We will attempt the lock rotation you selected to see if it works for your door":"We will attempt the lock rotation you selected to see if it works for your door",
     "Step 3: Lock calibrated":"Step 3: Lock calibrated",
     "Calibration in progress...":"Calibration in progress...",
     "Prepare your lock":"Prepare your lock",
     "Calibrating":"Calibrating",
     "Calibration":"Calibration",
     "This lock rotation doesn’t work for your door.":"This lock rotation doesn’t work for your door."
  },
  "configuration":{
     "List Of Homes":"Lista de propiedades",
     "Which property(s) would you like to pair the lock with?":" ¿Con qué propiedad(es) desea emparejar el candado?",
     "You do not have any properties yet.":"No tiene ninguna propiedad aún.",
     "Add property":"Añadir propiedad",
     "Home(s)":"Propiedad(es)",
     "All Properties":" Todas las propiedades ",
     "Pinned Locks":" Cerraduras ancladas"
  },
  "alert":{
     "Invalid Selection":" Selección inválida ",
     "Please select listings that belongs to the same region.":" Seleccione propiedades que pertenezcan a la misma región.",
     "Unable to re-associate to a property of different region":"Do note that you are unable to re-associate to a property of different region. Please re-pair to do that.",
     "Unable to Remove Home":"Imposible eliminar propiedad",
     "Unable to Remove Home message":"{{listingName}} está conectado a {{provider}} y no puede ser eliminado. Por favor ve a reservaciones y desconecta {{listingName}} antes de eliminar.",
     "Unable to Remove Home message with lock":"{{listingName}} tiene un dispositivo conectado y no puede ser eliminado. Por favor, desasocia tu dispositivo de {{listingName}} antes de eliminar {{listingName}}."
  },
  "provider":{
     "Disconnect Listing":"Desconectar Listado",
     "Disconnect Airbnb Listing Message":"¿Está seguro de que quiere desconectar el listado vinculado con Airbnb? Eliminará todas las reservas asociadas con el listado. Cualquier reserva futura no se procesará.",
     "guest(s)":"invitados(s)",
     "Access Methods":"Métodos de Acceso",
     "listings":"listados",
     "All Connected":"Todos conectados",
     "All":"Todos",
     "Generate PIN(s) now":"Generate PIN(s) now"
  },
  "support":{
     "Help & Support":"Ayuda y Soporte",
     "Youtube Channel":"Canal de YouTube"
  },
  "Managing access on the go":" Administrar el acceso en movimiento.",
  "Reservation Details":"Detalles de la Reserva",
  "Edit Reservation":"Editar reserva",
  "Connect":"Conectar",
  "Disconnect":"Desconectar",
  "Select Listing":"Seleccionar Listado",
  "Select a home to connect":"Selecciona una propiedad para conectar",
  "Guest":"Huésped",
  "Timezone":"Zona Horaria",
  "Profile":"Perfil",
  "External Reservation":"Proveedor",
  "Update PIN Send Time Message":"El correo electrónico de acceso para {{guestName}} se enviará {{sendAccessEmail}} hora (s) antes del tiempo de registro.",
  "Share":"Compartir",
  "Skip":"Skip",
  "Send PIN Email Now":"Enviar correo electrónico PIN",
  "No Reservation Found":"Esta reserva no se ha podido encontrar o quizás se haya eliminado.",
  "PIN Email Sent With Time":"Correo electrónico de acceso enviado hace {{time_ago}}",
  "PIN Email Send Time Now":"Enviando ahora correo electrónico de acceso",
  "PIN Email Send Time Future":"El correo electrónico de acceso se enviará el {{time_future}}",
  "Reservation Share Msg":"Estimado {{guestName}}, aquí está tu acceso para {{listingName}} desde {{startDate}} hasta {{endDate}}.\n{{access_pin_list}}",
  "Reservation Share Msg Access Pin Partial":"Código PIN para {{lockName}}: {{pinCode}}",
  "Name":"Nombre",
  "Region":"Región",
  "Connect External Providers":"Conectar Proveedores",
  "Listing Details":"Listado de Detalles",
  "Select Your Product":"Elige Tu Producto",
  "Other igloohome locks":"Otras cerraduras igloohome",
  "Select Others":"Selecciona otros",
  "Issue new key for":"Emitir nueva clave para",
  "Family":"Familia",
  "Friends":"Amigos",
  "Visitors":"Visitantes",
  "Tenants":"Inquilinos",
  "Services":"Servicios",
  "Staff":"Trabajadores",
  "Guests":"Invitados",
  "Others":"Otros",
  "Key Card Holder":"Titular de la tarjeta clave",
  "Access Type":"Tipo de Acceso",
  "Repeat this PIN":"Repita este PIN",
  "Start Time":"Hora de Inicio",
  "End Time":"Hora de Finalización",
  "Start Date":"Fecha de Inicio",
  "End Date":"Fecha de Finalización",
  "Now":"Ahora",
  "Start Day":"Start Day",
  "Start Day of Month":"Start Day of Month",
  "End Day of Month":"End Day of Month",
  "End Day":"End Day",
  "Effective Start Date":"Effective Start Date",
  "PIN":"PIN",
  "One Time PIN":"PIN de temporal",
  "Permanent PIN":"PIN Permanente",
  "Duration PIN":"Duración del PIN",
  "Weekly PIN":"PIN semanal",
  "Weekday PIN":"PIN del día laborable",
  "Weekend PIN":"PIN del fin de semana",
  "Monthly PIN":"PIN mensual",
  "Repeats Sat and Sun":"Repeats Sat and Sun",
  "Repeats Mon to Fri":"Repeats Mon to Fri",
  "Repeats every Week":"Repeats every Week",
  "Repeats every Month":"Repeats every Month",
  "Recurring PIN":"PIN Recurrente",
  "Bluetooth Key":"Llave Bluetooth",
  "Guest Bluetooth Keys":"Llaves de Bluetooth de invitado",
  "Keycard":"Tarjeta llave",
  "Add duration placeholder":"Ej. Para quien será el código",
  "Lock Owner":"Dueño del seguro",
  "Master PIN":"PIN Maestro",
  "Master pin never expires":"El PIN Maestro nunca caduca",
  "Remove from List":"Eliminar de la Lista",
  "Add New Home":"Agregar nueva propiedadr",
  "Name your home":"Nombra tu propiedad",
  "Edit your home":"Edita tu propiedad",
  "Edit":"Editar",
  "Refreshing":"Refrescando...",
  "Pull to refresh":"Tirar para refrescar...",
  "Loading more data":"Cargando más datos...",
  "Enter 7-9 digit PIN":"Introduce un PIN de 7-9 dígitos",
  "Repeat PIN":"Repite el PIN",
  "PIN code placeholder":"Introduce un código PIN",
  "Re-enter PIN code":"Vuelve a introducir el código PIN",
  "Connect Airbnb Listing":"Conectar el listado de Airbnb",
  "Connect Your AirBnb Listing":"Conecta tu listado de AirBnb",
  "Select Airbnb Listing":"Seleccionar listado de Airbnb",
  "Day":"Día",
  "Days":"Días",
  "Month":"Mes",
  "Months":"Meses",
  "Hours":"Horas",
  "Hour":"Hora",
  "Minutes":"Minutos",
  "Before":"es-before",
  "Select send PIN time":"El tiempo predeterminado para que su (s) invitado (s) reciba (n) el correo electrónico de acceso será 1 hora antes del horario de check-in. Para cambiar esto, simplemente seleccione el número (en horas) por el que desea que los invitados reciban el correo electrónico de acceso.",
  "Select send PIN time2":"Please select the number of hour(s) before check in time for your guests to receive their access message. The default is 1 hour.",
  "hour(s) before check in time":"hora(s) antes del tiempo de registro",
  "No data found":"Datos no encontrados",
  "Lock Info":"Información de la Cerradura",
  "Basic Unlock":"Desbloqueo básico",
  "Basic":"Básico",
  "Logs":"Logs",
  "Settings":"Ajustes",
  "Lock Settings":"Bloquear configuración",
  "Issue Access":"Emitir Acceso",
  "Activity Log":"Registro de actividades",
  "Igloohome Help Center":"Servicio de ayuda",
  "Welcome to igloohome":"Bienvenido a igloohome",
  "Receive bluetooth key":"Recibir la clave bluetooth",
  "Pair new lock":"Par nuevo bloqueo",
  "Request Instant Access":"Request Instant Access",
  "Go to visit page":"Ir a la página de visita",
  "Add lock":"Agregar bloqueo",
  "Manage Homes":"Gestionar propiedades",
  "Claim Bluetooth Key":"Reclamar Llave Bluetooth",
  "Manage Locks":"Admini stra Cerraduras",
  "Scan QR code to add key":"Escanear código QR para añadir llave",
  "Customise email message":"Si deseas recibir el correo electrónico de bienvenida que se enviará a tu invitado, haz clic en el botón “Enviar correo electrónico de bienvenida de prueba”. El correo electrónico se enviará a tu dirección. Si deseas recibir el correo electrónico de acceso que se enviará a tu invitado, haz clic en el botón “Enviar correo electrónico de acceso de prueba”. El correo electrónico de prueba se enviará a tu dirección. Para personalizar el correo electrónico de acceso conforme a tus especificaciones, haz clic en el botón “Contactar con soporte”, donde se te mostrará el procedimiento para personalizar los correos electrónicos.",
  "BTKEY_UNLOCK":"{{firstName}} {{lastName}} ({{ekeyName}}) desbloqueó la cerradura a través de la llave Bluetooth.",
  "EASY_UNLOCK":"Has desbloqueado la cerradura a través del Desbloqueo Fácil.",
  "BASIC_UNLOCK":"Has desbloqueado la cerradura a través del Desbloqueo Básico.",
  "CREATE_PINCODE":"Has creado un código PIN durante {{durationCode}}.",
  "CREATE_PINCODE_WITH_PINTYPE":"Has creado un {{pinType}}.",
  "CREATE_PINCODE_WITH_PINTYPE_VIA_BLUETOOTH":"Ha creado un {{pinType}} a través de Bluetooth.",
  "CREATE_PINCODE_DURATION":"Has creado un código PIN válido desde {{start}} hasta {{end}}.",
  "CREATE_PINCODE_DURATION_VIA_BLUETOOTH":"Ha creado un código PIN válido de {{start}} a {{end}} a través de Bluetooth.",
  "PAIR":"Has emparejado la cerradura.",
  "RESET":"Has restablecido la cerradura y has limpiado los códigos PIN.",
  "TODAY":"Hoy",
  "YESTERDAY":"Ayer",
  "LOG_CHANGE_MASTER_PIN":"Ha editado el PIN maestro.",
  "LOG_ENABLE_AUTO_RELOCK_VIA_BLUETOOTH_SIMPLE":"Auto Relock se ha activado",
  "LOG_ENABLE_AUTO_RELOCK_VIA_BLUETOOTH_EXTENDED":"Auto Relock has been enabled and set at {{newValue}}s.",
  "LOG_DISABLE_AUTO_RELOCK_VIA_BLUETOOTH":"EN-LOG_DISABLE_AUTO_RELOCK_VIA_BLUETOOTH",
  "LOG_CHANGE_INCORRECT_PIN_LOCKOUT_COUNT_VIA_BLUETOOTH":"EN-LOG_DISABLE_AUTO_RELOCK_VIA_BLUETOOTH",
  "LOG_DISABLE_INCORRECT_PIN_LOCKOUT_COUNT_VIA_BLUETOOTH":"Intentos de bloqueo de seguridad se han desactivado",
  "LOG_CHANGE_VOL_VIA_BLUETOOTH":"EN-LOG_DISABLE_AUTO_RELOCK_VIA_BLUETOOTH",
  "LOG_PIN_DELETE":"Un código PIN \"{{pinDescription}}\" fue eliminado de la cerradura.",
  "LOG_PIN_UNLOCK_MASTER":"Un código PIN maestro se ha utilizado para desbloquear la cerradura.",
  "LOG_PIN_UNLOCK_GUEST":"Un código PIN de {{guestName}} se ha utilizado para desbloquear la cerradura.",
  "LOG_PIN_CHANGE_GUEST_FROM_KEYPAD":"Un código PIN de {{guestName}} se ha cambiado desde el teclado de la cerradura.",
  "LOG_PIN_DELETE_GUEST_FROM_KEYPAD":"Un código PIN de {{guestName}} se ha eliminado desde el teclado de la cerradura.",
  "LOG_PIN_UNLOCK_NO_PINTYPE":"Un código PIN \"{{pinDescription}}\" se ha utilizado para desbloquear la cerradura.",
  "LOG_PIN_UNLOCK":"Un código {{pinType}} \"{{pinDescription}}\" se ha utilizado para desbloquear la cerradura.",
  "LOG_PIN_CHANGE_FROM_KEYPAD":"Un código PIN \"{{pinDescription}}\" se ha cambiado desde el teclado de la cerradura.",
  "LOG_PIN_DELETE_FROM_KEYPAD":"Un código PIN \"{{pinDescription}}\" se ha eliminado desde el teclado de la cerradura.",
  "LOG_PIN_UNLOCK_FAILED":"Un código PIN inválido \"{{pinCodeNumber}}\" se ha ingresado.",
  "LOG_DELETE_ALL_PINS_FROM_KEYPAD":"Todos los códigos PIN se han eliminado del teclado de la cerradura.",
  "LOG_PIN_LOCK_BATTERIES_CHANGED":"Se ha realizado un cambio de batería en la cerradura. Nuevo nivel de batería: {{level}}%",
  "LOG_ENABLE_TIME_AUTOLOCK":"El temporizador para volver a bloquear se ha activado y se ha establecido en {{relockTime}}s.",
  "LOG_DISABLE_TIME_AUTOLOCK":"El temporizador para volver a bloquear se ha desactivado.",
  "LOG_ENABLE_SENSOR_AUTOLOCK":"El sensor para volver a bloquear se ha activado.",
  "LOG_DISABLE_SENSOR_AUTOLOCK":"El sensor para volver a bloquear se ha desactivado.",
  "LOG_LOCK_VOLUME":"El bloqueo de volumen se ha establecido en {{volume}}.",
  "LOG_NFC_PIN_SET":"Se ha establecido el PIN de seguridad de 4 dígitos en {{nfcPin}}.",
  "LOG_NFC_REGISTERED":"Se ha añadido la tarjeta llave {{nfcCardId}}.",
  "LOG_NFC_REGISTERED_NAME":"Key Card \"{{name}}\" has been added.",
  "LOG_NFC_DEREGISTERED":"Se ha borrado la tarjeta llave {{nfcCardId}}.",
  "LOG_NFC_DEREGISTERED_NAME":"Se ha borrado la tarjeta PIN_UNLOCK_NO_PINTYPEllave \"{{name}}\".",
  "LOG_NFC_UNLOCK":"Se ha utilizado la tarjeta llave {{nfcCardId}} para desbloquear la cerradura.",
  "LOG_NFC_UNLOCK_NAME":"Se ha utilizado la tarjeta llave \"{{name}}\"  para desbloquear la cerradura.",
  "AUTO_RELOCK_AFTER_OPENING_AND_CLOSING_LOCK":"Lock has auto-relocked after closing.",
  "AUTO_RELOCK_WITHOUT_FIRST_OPENING_LOCK":"Lock has auto-relocked without opening.",
  "LOCK_VIA_KEYPAD_OR_BUTTON":"You have locked the lock via keypad or function button.",
  "RELOCK_ALARM_DISABLED":"Relock Reminder Alert has been disabled.",
  "RELOCK_ALARM_ENABLED":"Relock Reminder Alert has been set to {{seconds}} seconds.",
  "Attempted_BREAK_IN":"Intrusion detected on the lock. Please check immediately.",
  "DELETE_FINGERPRINT":"Fingerprint \"{{description}}\" has been deleted.",
  "ADD_FINGERPRINT":"Fingerprint \"{{description}}\" has been added.",
  "UNLOCK_VIA_FINGERPRINT":"Fingerprint \"{{description}}\" was used to unlock the lock.",
  "INVALID_FINGERPRINT":"An invalid Fingerprint was attemped.",
  "UNLOCK_VIA_BUTTON":"You have unlocked the lock via the function button.",
  "LINK_FOB":"Key Fob \"{{name}}\" has been added to the lock.",
  "UNLINK_FOB":"Lock has been unlinked from the Key Fob \"{{name}}\"",
  "BLOCK_FOB":"Key Fob \"{{name}}\" has been blocked from the lock.",
  "DELETE_FOB_FROM_LOCK":"Key Fob \"{{name}}\" has been deleted from the lock.",
  "UNLOCK_FOB":"Key Fob \"{{name}}\" was used to unlock the lock.",
  "LOCK_WITH_FOB":"Key Fob \"{{name}}\" was used to lock the lock.",
  "LOCK_VIA_KEY_OR_THUMBTURN":"You have Locked via physical key or thumb turn.",
  "UNLOCK_VIA_KEY_OR_THUMBTURN":"You have Unlocked via physical key or thumb turn.",
  "You have successfully changed your account details":"Ha cambiado correctamente los datos de tu cuenta ",
  "You have successfully changed your password":"Ha cambiado correctamente su contraseña ",
  "You have successfully changed your settings":"Ha cambiado correctamente la configuración ",
  "You have successfully claimed your bluetooth key":"Has reclamado correctamente tu llave bluetooth ",
  "This lock has been added to favourite list":"Este candado se ha agregado a la lista de candados favoritos",
  "This lock has been removed from favourite list":"Este candado se ha eliminado de la lista de candados favoritos",
  "You have successfully sync the lock":"Ha sincronizado correctamente la cerradura",
  "You have successfully disconnected from Airbnb account":"Se ha desconectado correctamente de la cuenta de Airbnb ",
  "Your action was successful":"Su acción se ha realizado correctamente ",
  "UNLOCK_BY_EKEY_TITLE":"Acceso del Bloqueo",
  "UNLOCK_BY_EKEY_MSG":"%1$@ ha desbloqueado %2$@ con una llave Bluetooth.",
  "EKEY_CLAIMED_TITLE":"Llave Bluetooth Aceptada",
  "EKEY_CLAIMED_MSG":"%1$@ ha aceptado su llave Bluetooth para %2$@",
  "WELCOME_EMAIL_PUSH_TITLE":"Correo electrónico de bienvenida",
  "WELCOME_EMAIL_PUSH_MSG":"%1$@ ha recibido un correo electrónico de bienvenida para tu listado %2$@.",
  "PIN_EMAIL_PUSH_TITLE":"Correo electrónico con el pin",
  "PIN_EMAIL_PUSH_MSG":"%1$@ ha recibido un correo electrínico con el pin para su listado %2$@.",
  "UNLOCK_BY_EKEY_TOAST":"{{val1}} ha desbloqueado {{val2}} con una llave Bluetooth.",
  "EKEY_CLAIMED_TOAST":"{{val1}} ha aceptado su llave Bluetooth para {{val2}}",
  "WELCOME_EMAIL_PUSH_TOAST":"{{val1}} ha recibido un correo electrónico de bienvenida para tu listado {{val2}}.",
  "PIN_EMAIL_PUSH_TOAST":"{{val1}} ha recibido un correo electrínico con el pin para su listado {{val2}}.",
  "Forgot Password Success Title":"Mensaje para restablecer contraseña enviado",
  "Forgot Password Success Message":"Un mensaje para reiniciar tu contraseñoa se ha enviado a tu dirección de email. Haz clic en el vínculo para restablecer tu contraseña.",
  "Register Success Title":"Verificación de Correo Electrónico",
  "Register Success Message":"Un correo electrónico de verificación se ha enviado a {{email}}. Verifique su cuenta e inicie sesión.",
  "I have agreed to":"I have agreed to ",
  "terms of Service":"Terms of Service",
  "and":"and ",
  "Privacy Policy":"Privacy Policy",
  "By clicking Sign In, you acknowledge you have agreed to":"By clicking Sign In, you acknowledge you have agreed to ",
  "Pin Copied":"PIN copied",
  "fingerprint":{
     "Fingerprint":"Fingerprint",
     "Unlocks with fingerprint":"Unlocks with fingerprint",
     "Step 1: Get ready to scan":"Step 1: Get ready to scan",
     "Ensure that your finger is clean and dry.":"Ensure that your finger is clean and dry.",
     "Step 3: Scan your fingerprint":"Step 3: Scan your fingerprint",
     "Scan required":"Scan required",
     "Ensure that you press your finger on the scanner firmly":"Ensure that you press your finger on the scanner firmly",
     "I'm Done":"I'm Done",
     "Step 2: Name your fingerprint":"Step 2: Name your fingerprint",
     "There will be 3 scans required to register your fingerprint.":"There will be 3 scans required to register your fingerprint.",
     "Always place your finger at the center of the scanner for optimal perfomance.":"Always place your finger at the center of the scanner for optimal perfomance.",
     "Please try again. Do place your finger at the center firmly.":"Please try again. Do place your finger at the center firmly.",
     "Delete Fingerprint Access":"Delete Fingerprint Access",
     "Edit Fingerprint":"Edit Fingerprint",
     "Add Fingerprint":"Add Fingerprint",
     "Fingerprint ID":"Fingerprint ID",
     "Fingerprint added":"Fingerprint added"
  },
  "fob":{
     "You do not have any paired fobs.":"You do not have any paired {{ecosystemType}}.",
     "Manage fobs":"Manage {{ecosystemType}}",
     "Add Fob":"Add {{ecosystemType}}",
     "step1":"Step 1 : Prepare your {{ecosystemType}} for pairing",
     "step2":"Step 2 : Select Key Fob ID",
     "Enter Fob name":"Enter {{ecosystemType}} name",
     "Fob paired":"Key Fob paired!",
     "Link Fob":"Link {{ecosystemType}}",
     "Would you like to link your Fob to a lock now":"Would you like to link your {{ecosystemType}} to a lock now?",
     "Link lock from Fob":"Link lock from {{ecosystemType}}",
     "step1 link fob":"Step 1 : Get your {{ecosystemType}} ready",
     "step2 link fob":"Step 2 : Select a lock to link",
     "step3 link fob":"Step 3 : Linking your {{ecosystemType}} to {{lockname}}",
     "Linking Fob":"Linking {{ecosystemType}}",
     "Fob Linked":"{{ecosystemType}} Linked",
     "Fob successfully linked with":"{{ecosystemType}} successfully linked with \"{{lockname}}\"",
     "Fob Settings":"{{ecosystemType}} Settings",
     "Are you sure you want to unlink from":"Are you sure you want to unlink {{lock}} from {{fobname}}?",
     "Get your Fob ready":"Get your {{ecosystemType}} ready",
     "Successfully Deleted":"\"{{fobname}}\" Successfully Deleted",
     "Delete Fob":"Delete {{ecosystemType}}",
     "Unpair Fob from phone":"Unpair Key Fob from your phone",
     "Edit Fob Name":"Edit {{ecosystemType}} Name",
     "Fob name":"{{ecosystemType}} name",
     "Are you sure you want to delete Fob_name for all your locks":"Are you sure you want to delete {{fobname}} access for all your locks?",
     "Pair your Fob":"Pair your {{ecosystemType}}",
     "I lost my fob":"I lost my {{ecosystemType}}",
     "Lost your Fob":"Lost your {{ecosystemType}}?",
     "What to do when you have lost your Fob":"What to do when you have lost your {{ecosystemType}}",
     "When you lost your fob, you can revoke access to immediately to secure your place.":"When you lost your Key Fob, you can revoke access to immediately to secure your place.",
     "Revoke Fob access":"Revoke {{ecosystemType}} access",
     "lostFobRevoke":"You will no longer be able to unlock your linked lock(s) using the revoked {{ecosystemType}}.",
     "Step 1: Revoke Fob access":"Step 1: Revoke {{ecosystemType}} access",
     "Step 2: Delete Fob permanently":"Step 2: Delete {{ecosystemType}} permanently",
     "Permanently delete Fob from your account.":"Permanently delete your {{ecosystemType}} from your account.",
     "Are you sure you want revoke fob access for Lock_Name?":"Are you sure you want revoke {{ecosystemType}} access for {{Lock_Name}}?",
     "Remove Lock_Name from your Fob":"Remove {{Lock_Name}} from your Key Fob",
     "Lock successfully removed from your Fob.":"Lock successfully removed from your {{ecosystemType}} .",
     "Delete your Fob":"Delete your {{ecosystemType}}",
     "Your linked access will be removed automatically after you sync these access":"Your linked access will be removed automatically after you sync these access :",
     "Please wait while we remove all your Fob data":"Please wait while we remove all your {{ecosystemType}}’s data.",
     "Fob sucessfully removed":"Key Fob sucessfully removed.",
     "Please wait while we removing your lock from fob":"Please wait while we removing your lock from Key Fob.",
     "fob not found":"Device not found.",
     "fob aleready paired":"This Key Fob has already been paired.",
     "Delete fob alert":"Please unlink your linked lock(s) before deleting your device.",
     "This lock(s) has been deleted":"This lock has been deleted, please unlink it from the {{ecosystemType}}",
     "Fob has been blacklisted from the lock.":"Key Fob \"{{fobs_name}}\" has been blacklisted from the lock.",
     "Make sure your Fob is discoverable":"Make sure your {{ecosystemType}} is discoverable",
     "To start using your Fob, ensure the blue light is no longer flashing by holding onto the settings button":"To start using your Key Fob, ensure the blue light is no longer flashing by holding onto the settings button."
  },
  "bridge":{
     "Manage Bridge":"Manage {{ecosystemType}}",
     "You do not have any paired Bridge":"You do not have any paired {{ecosystemType}}.",
     "Add Bridge":"Add {{ecosystemType}}",
     "Pair your Bridge":"Pair your {{ecosystemType}}",
     "Pairing Bridge":"Pairing Bridge",
     "Step 1 Bridge pairing":"Step 1: Prepare your {{ecosystemType}} for pairing",
     "Bridge pairing message":"Connect your Bridge to power using the provided USB-C cable. \n \nPress the multi-function button once to wake the Bridge up.",
     "Step 2 Bridge pairing":"Step 2: Select Bridge ID",
     "You are connected to wifi":"You are connected to \"{{wifi_ssid}}\"",
     "Your phone is not connected to Wi-Fi":"Your phone is not connected to Wi-Fi",
     "Connected to wifi message":"Please enter your Wi-Fi password. Make sure you use a 2.4Ghz network.",
     "Step 3 Bridge pairing":"Bridge Paired!",
     "Not connected to wifi message":"Please connect your phone to your Wi-Fi to continue pairing.",
     "Incorrect wifi password message":"Incorrect password for \"{{wifi_ssid}}\"",
     "Set-up manually":"Set-up manually",
     "Skip this step":"Skip this step",
     "Skip wifi configuration":"Skip Wi-Fi configuration?",
     "Skip wifi configuration message":"This is an essential step in the Bridge setup process.",
     "Go to settings":"Go to settings",
     "Security":"Security",
     "Private Address":"Private Address",
     "Security types":"Security types",
     "None":"None",
     "WPA Enterprise":"WPA Enterprise",
     "WPA2 Enterprise":"WPA2 Enterprise",
     "WPA3 Enterprise":"WPA3 Enterprise",
     "Enter Bridge name":"Enter {{ecosystemType}} name",
     "Bridge name placeholder":"e.g. Home Bridge",
     "Link bridge to lock message":"Would you like to link your {{ecosystemType}} to a lock now?",
     "Current linked lock":"You currently have \"{{linkedLock}}\" locks linked",
     "Join network":"Join network",
     "Diagnostic":"Diagnostic",
     "wifi connected":"You are connected to \"{{ssid}}\"",
     "configuring wifi":"Configuring WiFi",
     "Step 1 link lock bridge":"Step 1 : Select a lock to link",
     "Step 2 link lock bridge":"Step 2 : Linking your {{ecosystemType}} to {{LockName}}",
     "Bridge successfully linked":"{{ecosystemType}} successfully linked with \"{{lockname}}\"",
     "You now have locks linked":"You now have  {{numberlock}}/10 locks linked",
     "Diagnostics":"Diagnostics",
     "Check network status":"Check network status",
     "Remove Bridge name":"Remove {{bridgeName}}",
     "What to do when you have lost your Bridge":"What to do when you have lost your {{ecosystemType}}",
     "Remove Bridge from account":"Remove Bridge from account",
     "Allow Bridge to be paired to another account":"Allow Bridge to be paired to another account",
     "Bridge name":"{{ecosystemType}} name",
     "Delete Bridge":"Delete {{ecosystemType}}",
     "Bridge Settings":"{{ecosystemType}} Settings",
     "Delete bridge alert":"Are you sure you want to delete {{acc_name}} access for all your locks?",
     "I lost my bridge":"I lost my {{ecosystemType}}",
     "Unpair bridge from phone":"Unpair Bridge from your phone",
     "Edit Bridge Name":"Edit {{ecosystemType}} Name",
     "Bridge Wi-Fi Configuration":"Bridge Wi-Fi Configuration",
     "Configure Bridge Wi-Fi so you can start using your lock remotely":"Configure Bridge Wi-Fi so you can start using your lock remotely.",
     "Wifi Configuration message":"For some devices, we might ask you to enable location services to identify the SSID of the Wi-Fi that your phone’s connected to.",
     "Start Wi-Fi configuration":"Start Wi-Fi configuration"
  },
  "keypad":{
     "You do not have any paired Keypad.":"You do not have any paired {{ecosystemType}}.",
     "Manage Keypad":"Manage {{ecosystemType}}",
     "Add Keypad":"Add {{ecosystemType}}",
     "pairing step2":"Step 2 : Prepare your {{ecosystemType}} for pairing",
     "pairing step3":"Step 3 : Select Keypad ID",
     "Enter Keypad name":"Enter {{ecosystemType}} name",
     "Keypad paired":"Keypad paired!",
     "Link Keypad":"Link {{ecosystemType}}",
     "Would you like to link your Keypad to a lock now":"Would you like to link your {{ecosystemType}} to a lock now?",
     "Link lock from Keypad":"Link lock from {{ecosystemType}}",
     "step1 link keypad":"Step 1 : Get your {{ecosystemType}} ready",
     "step2 link keypad":"Step 2 : Select a lock to link",
     "step3 link keypad":"Step 3 : Linking your {{ecosystemType}} to {{lockname}}",
     "Linking Keypad":"Linking {{ecosystemType}}",
     "Keypad Linked":"{{ecosystemType}} Linked",
     "Keypad successfully linked with":"{{ecosystemType}} successfully linked with \"{{lockname}}\"",
     "Keypad Settings":"{{ecosystemType}} Settings",
     "Are you sure you want to unlink from":"Are you sure you want to unlink {{lock}} from {{keypadname}}?",
     "Get your Keypad ready":"Get your {{ecosystemType}} ready",
     "Successfully Deleted":"\"{{keypadname}}\" Successfully Deleted",
     "Delete Keypad":"Delete {{ecosystemType}}",
     "Unpair Keypad from phone":"Unpair Keypad from your phone",
     "Edit Keypad Name":"Edit {{ecosystemType}} Name",
     "Keypad name":"{{ecosystemType}} name",
     "Are you sure you want to delete Keypad_name for all your locks":"Are you sure you want to delete {{keypadname}} access for all your locks?",
     "Pair your Keypad":"Pair your {{ecosystemType}}",
     "I lost my keypad":"I lost my {{ecosystemType}}",
     "Lost your Keypad":"Lost your {{ecosystemType}}?",
     "What to do when you have lost your Keypad":"What to do when you have lost your {{ecosystemType}}",
     "When you lost your keypad, you can revoke access to immediately to secure your place.":"When you lost your Keypad, you can revoke access to immediately to secure your place.",
     "Revoke Keypad access":"Revoke {{ecosystemType}} access",
     "lostKeypadRevoke":"You will no longer be able to unlock your linked lock(s) using the revoked {{ecosystemType}}.",
     "Step 1: Revoke Keypad access":"Step 1: Revoke {{ecosystemType}} access",
     "Step 2: Delete Keypad permanently":"Step 2: Delete {{ecosystemType}} permanently",
     "Permanently delete Keypad from your account.":"Permanently delete your {{ecosystemType}} from your account.",
     "Are you sure you want revoke keypad access for Lock_Name?":"Are you sure you want revoke {{ecosystemType}} access for {{Lock_Name}}?",
     "Remove Lock_Name from your Keypad":"Remove {{Lock_Name}} from your Keypad",
     "Lock successfully removed from your Keypad.":"Lock successfully removed from your {{ecosystemType}}.",
     "Delete your Keypad":"Delete your {{ecosystemType}}",
     "Your linked access will be removed automatically after you sync these access":"Your linked access will be removed automatically after you sync these access :",
     "Please wait while we remove all your Keypad data":"Please wait while we remove all your {{ecosystemType}}’s data.",
     "Keypad sucessfully removed":"Keypad sucessfully removed.",
     "Please wait while we removing your lock from keypad":"Please wait while we removing your lock from Keypad.",
     "keypad not found":"Device not found.",
     "keypad aleready paired":"This Keypad has already been paired.",
     "Delete keypad alert":"Please unlink your linked lock(s) before deleting your device.",
     "This lock(s) has been deleted":"This lock has been deleted, please unlink it from the {{ecosystemType}}",
     "Keypad has been blacklisted from the lock.":"Keypad \"{{Keypad_name}}\" has been blacklisted from the lock.",
     "Make sure your Keypad is discoverable":"Make sure your {{ecosystemType}} is discoverable",
     "To start using your Keypad, ensure the blue light is no longer flashing by holding onto the settings button":"To start using your Keypad, ensure the blue light is no longer flashing by holding onto the settings button."
  },
  "accecories":{
     "Link now":"Link now",
     "Link later":"Link later",
     "Select lock":"Select lock",
     "Link more locks":"Link more locks",
     "Linked Lock(s)":"Linked Lock(s)",
     "Linked Locks":"Linked Locks",
     "Unlink Lock":"Unlink Lock?",
     "Unlink":"Unlink",
     "Unlink lock":"Unlink lock",
     "Unlinking":"unlinking \"{{name}}\"",
     "Successfully Unlinked":"\"{{lockname}}\" Successfully Unlinked",
     "Deleting":"Deleting \"{{name}}\"",
     "Linked to multiple locks":"Linked to multiple locks",
     "Linked to lockname":"Linked to \"{{lockname}}\"",
     "Not linked":"Not linked",
     "Open the back cover and hold setting button until blue light flashes":"Open the back cover and hold onto the settings button until the blue light flashes",
     "You have linked number locks":"You have linked ({{number}}\/5) locks",
     "You can link up to 5 locks":"You can link up to 5 locks",
     "Please make sure your lock(s) are nearby to revoke access.":"Please make sure your lock(s) are nearby to revoke access.",
     "Revoke access":"Revoke access",
     "I no longer have this lock":"I no longer have this lock",
     "Please confirm that you no longer have this lock.":"Please confirm that you no longer have this lock.",
     "Remove lock":"Remove lock",
     "Remove Lock_Name":"Remove {{Lock_Name}}",
     "This will permanently remove it from your account":"This will permanently remove it from your account",
     "Delete Permanently":"Delete Permanently",
     "Do you want to unlink lock":"Do you want to unlink lock?",
     "Do you want to unlink your lock":"Do you want to unlink your lock?",
     "Any access granted to linked devices will still persist. Would you like to unlink them now":"Any access granted to linked devices will still persist. Would you like to unlink them now?",
     "Later":"Later",
     "Linked Devices":"Linked Devices",
     "Unlink device":"Unlink device?",
     "lock aleready linked":"This lock already linked to this device."
  },
  "retrofit":{
     "Auto-relock calibration":"Auto-relock calibration",
     "Calibrating auto-relock":"Calibrating auto-relock",
     "Lock position":"Lock position",
     "Calibrate the lock’s magnet sensor to optimize auto-relock performance":"Calibrate the lock’s magnet sensor to optimize auto-relock performance.",
     "Ensure that the door is closed":"Ensure that the door is closed.",
     "Tap next and you should hear a chime":"Tap next and you should hear a chime.",
     "Choose your door lock position":"Choose your door lock position",
     "Calibration in progress":"Calibration in progress...",
     "Calibration complete":"Calibration complete",
     "Start calibration":"Start calibration",
     "Open your door slightly so it’s ajar":"Open your door slightly so it’s ajar.",
     "1 of 2":"1 of 2",
     "2 of 2":"2 of 2",
     "Left":"Left",
     "Right":"Right",
     "Lock rotation":"Lock rotation",
     "Single Lock":"Single Lock",
     "Double Lock":"Double Lock",
     "Auto Unlock": "Auto-Unlock",
    "Location radius": "Location radius",
    "Automatically unlock your lock when you return to your property": "Automatically unlock your lock when you return to your property.",
    "Auto-Unlock is already active for lock_name": "Auto-Unlock is already active for {{lock_name}}. Please disable Auto-Unlock for {{lock_name}} to proceed.",
    "Modify location radius depending on your property scale": "Modify location radius depending on your property scale.",
    "Adjust lock location": "Adjust lock location"
  },
  "Search lock...":"Search lock...",
  "Couldnt find lock":"Couldn't find \"{{lockname}}\"",
  "Try searching again using a different keyword.":"Try searching again using a different keyword.",
  "1.1.403":" No podemos iniciar sesión con el nombre de usuario\/contraseña. Vuelve a intentarlo.",
  "1.1.409":" No podemos iniciar sesión. Verifique su cuenta haciendo clic en el enlace de su correo electrónico e inténtelo de nuevo.",
  "1.1.410":" Tu cuenta ha sido bloqueada",
  "2.1.403":"El correo electrónico {{email}} ya ha sido registrado.",
  "2.1.409":"El correo electrónico {{email}} ya ha sido registrado.",
  "3.1.403":" No podemos cambiar sus datos de usuario debido a un error. Vuelve a intentarlo.",
  "4.1.403":" No podemos cambiar su contraseña debido a un error. Vuelve a intentarlo.",
  "5.1.403":" Hemos detectado un error al desconectar su cuenta de Airbnb. Desconecte todos sus listados enlazados con su cuenta Airbnb en la pestaña de reserva e inténtelo de nuevo.",
  "6.3.803":" No se puede reclamar la llave Bluetooth. Vuelve a intentarlo.",
  "6.3.804":"Invalid QR code",
  "7.1.400":"Imposible agregar una nueva propiedad. Inténtalo de nuevo, por favor.",
  "8.1.403":"{{listingName}} tiene un dispositivo conectado y no puede ser eliminado. Por favor, desasocia tu dispositivo de {{listingName}} antes de eliminar {{listingName}}.",
  "8.1.409":"{{listingName}} está conectado a {{provider}} y no puede ser eliminado. Por favor, vaya a las reservas y desconecte {{listingName}} antes de eliminar.",
  "9.1.404":" No podemos localizar su ubicación actual. Active Servicios de Ubicación para automatizar la configuración de su hogar y zona horaria. Alternativamente, puede seleccionar manualmente su ciudad.",
  "10.1.400":"No podemos generar acceso para su bloqueo. Inténtelo de nuevo.",
  "13.2.880":"Nuevo PIN ya está en uso. Intente un PIN diferente",
  "18.1.404":" No podemos eliminar este acceso. Vuelve a intentarlo.",
  "19.1.404":" No podemos revocar este acceso. Vuelve a intentarlo.",
  "20.1.404":" No podemos desconectar la propiedad igloohome del listado de Airbnb. Vuelve a intentarlo.",
  "21.1.404":" No podemos enviar correo electrónico de acceso a su huésped. Vuelva a intentarlo.",
  "22.1.404":" La llave bluetooth que intentas reclamar ha sido reclamada o ha caducado. Póngase en contacto con su anfitrión para obtener una nueva clave.",
  "22.1.409":" No se le permite reclamar la llave bluetooth.",
  "22.5.1":"Inicie sesión en su cuenta antes de reclamar la llave Bluetooth.",
  "22.5.800":"Inicie sesión en su cuenta antes de reclamar la llave Bluetooth.",
  "47.5.800":"Please login to your account before requesting for instant access.",
  "47.1.409":"You are not allowed to request instant access for your lock.",
  "23.1.404":"Llave bluetooth está expirado o revocado. Contacte su anfitrión.",
  "23.5.703":"Error al desbloquear ekey",
  "24.1.403":"Ha alcanzado el máximo de 5 cerradura ancladas. Desbloquea un cerradura y vuelve a intentarlo.",
  "31.1.404":"Bloqueo no encontrado.",
  "delete_card_error":"La tarjeta llave puede seguir apareciendo en la app. Inténtalo de nuevo, por favor.",
  "add_card_error":"La tarjeta llave puede no aparecer en la app. Inténtalo de nuevo, por favor.",
  "unlock_error":"No se puede conectar a la cerradura. Asegure que el teclado está activado y vuelve a intentarlo. Si Bluetooth está “On”, reinicie su Bluetooth.",
  "update mastercode error":"No se puede conectar a la cerradura. Asegure que el teclado está standby y vuelve a intentarlo. Si Bluetooth está “On”, reinicie su Bluetooth.",
  "delete lock error":"No se puede eliminar el bloqueo. Asegure que està dentro del alcance de Bluetooth del cerradura y vuelve a intentarlo.",
  "sync lock error":"No se puede sincronizar la cerradura. Asegure que està dentro del alcance de Bluetooth del cerradura y vuelve a intentarlo.",
  "sync lock bt in progress error":"No se puede sincronizar la cerradura. Vuelve a intentarlo.",
  "location_permission error":"Please ensure that the Bluetooth and location are turned on, Bluetooth privacy is enabled, then try again.",
  "use pin before":"Use el código PIN por una vez antes de continuar.",
  "update your application":"Actualiza tu app, por favor.",
  "edit pincode error":"No se puede conectar a la cerradura. Asegure que el teclado está standby y vuelve a intentarlo. Si Bluetooth está “On”, reinicie su Bluetooth.",
  "download":"Descargar",
  "network_error":"Compruebe la configuración de su red y vuelve a intentarlo.",
  "0.1.12":"Network Error",
  "invalid email":"Ingresa un email válido, por favor",
  "invalid password":"Ingresa una contraseña válida, por favor",
  "pin creation limit reached error":"PIN generation limit reached for this hour. Please wait till the next hour to generate more remotely. Alternatively, you may create PIN codes via Bluetooth.",
  "key card creation limit reached error":"Keycard creation limit reached. No further keycards can be added.",
  "legacy pin creation limit reached error":"PIN creation limit reached. Please delete all PINs to create more.",
  "Instant Access Request invalid. Lock is not paired to any account.":"Instant Access Request invalid. Lock is not paired to any account.",
  "0.0.0":"Error",
  "Note":"Note",
  "Full":"Full",
  "Okay":"Moderate",
  "Low":"Low",
  "Change your battery soon":"Change your battery soon",
  "You haven't add any listing yet.":"You haven't add any listing yet.",
  "You can send a test access message to your email.":"You can send a test access message to your email",
  "The actual access message will be sent to your guest via Airbnb platform before check-in time.":"The actual access message will be sent to your guest via Airbnb platform before check-in time.",
  "To customize the access message, please contact our support.":"To customize the access message, please contact our support.",
  "Add Listing":"Add Listing",
  "Test Access Message":"Test Access Message",
  "Send Access Message Now":"Send Access Message Now",
  "Send Access Message":"Send Access Message",
  "PIN Message Sent With Time":"message sent {{time_ago}}",
  "PIN Message Send Time Future":"message will be sent {{time_future}}",
  "Update PIN Send Time Message2":"Access message for {{guestName}} (containing access methods such as PIN codes and\/or bluetooth keys) will be sent {{sendAccessEmail}} hour(s) before check in time.",
  "Reservation Platform":"Reservation Platform",
  "Property Name":"Property Name",
  "Attention":"Attention",
  "You are making changes to the default listing settings.":"You are making changes to the default listing settings.",
  "Please note that this will not take effect on modified reservations.":"Please note that this will not take effect on modified reservations.",
  "Proceed":"Proceed",
  "The modifications will only affect this reservation. Default settings are unchanged.":"The modifications will only affect this reservation. Default settings are unchanged.",
  "Default Listing Settings":"Default Listing Settings",
  "Reservation Share Msg2":"Hi {{guestName}}, \n\nHere is your igloohome self check-in details at {{listingName}} from {{startDate}} to {{endDate}}.\n\n{{access_pin_list}}\n\n Your PIN is valid only from check-in to check-out time. Please use within 24 hours from your check-in time to activate the PIN.\n\nIf you experience any issues, please contact your host.\n\nEnjoy your stay!\nThe igloohome Team",
  "Reservation Share Msg Access detail":"{{lockName}}:\n{{pinCode}} \n",
  "All Airbnb listing has already been connected.":"All Airbnb listing has already been connected.",
  "PIN Message Send Time Now":"Sending access message now",
  "Are you sure you want to disconnect your Airbnb account? Please make sure all Airbnb listing(s) has already been disconnected.":"Are you sure you want to disconnect your Airbnb account? Please make sure all Airbnb listing(s) has already been disconnected.",
  "Access Message is being sent. Please check back for more details.":"Access Message is being sent. Please check back for more details.",
  "Message Sent":"Message Sent",
  "Template_content_required_error_message":"Please ensure you include these in your message:\n- Access detail\n- Start date\n- End date",
  "Discard_changes?":"Discard changes?",
  "Discard_template_changes_content":"Are you sure you want to discard your changes?\n\nAll changes will not be saved.",
  "Discard_button":"Discard",
  "Automated_Message_for_your_Self_Check-In":"Automated Message for your Self Check-In",
  "Note_Reservation_template":"*Note: This is a preview of your access message. The actual access message will be sent to your guest via Airbnb platform before check-in time.",
  "0.5.703":"Timeout Error",
  "0.2.6":"Unlocking too many times at once Error",
  "0.2.7":"Time Offsync error",
  "0.2.11":"Connect bt failed error",
  "0.2.12":"Unable to connect to lock coz its already connected error",
  "0.2.21":"Enable pin generation failed error",
  "0.2.41":"Retrieve Ekey Error",
  "0.2.61":"Unlock error",
  "0.2.63":"Phone disconnected while unlock error",
  "0.2.64":"Unlock AES key error",
  "0.2.71":"Set Keypad password error",
  "0.2.72":"Keypad Password Digits error",
  "0.2.100":"Network Error",
  "0.2.101":"Bind admin error",
  "0.2.121":"Add admin error",
  "0.2.122":"Add admin settings mode error",
  "0.2.131":"Upload Pincodes error",
  "0.2.141":"Get logs error",
  "0.2.151":"Reset lock error",
  "0.2.161":"NTP check error",
  "0.2.171":"Sync time error",
  "unable to connect":"Unable to connect to the device. Please try again.",
  "51.5.1003":"Please ensure that the lock is unlocked before you proceed.",
  "51.1.100":"Please check your network settings and try again.",
  "51.5.1301":"Unable to connect to the Lock. Please try again.",
  "51.5.703":"Unable to connect to the Lock. Please try again.",
  "51.5.1023":"This lock is not support firmware update.",
  "51.2.708":"Please ensure that the Bluetooth and location are turned on, Bluetooth privacy is enabled, then try again.",
  "51.5.1":"Please ensure that the Bluetooth and location are turned on, Bluetooth privacy is enabled, then try again.",
  "51.5.1303":"Please ensure that the Bluetooth and location are turned on, Bluetooth privacy is enabled, then try again.",
  "51.5.100":"Unable to connect to the Lock. Please try again.",
  "51.5.1002":"Please check your network settings and try again.",
  "51.5.1011":"DFU download error",
  "51.5.1012":"DFU download error",
  "51.5.1013":"DFU download error",
  "51.5.1014":"DFU download error",
  "51.5.1015":"DFU download error",
  "51.5.1016":"DFU download error",
  "51.5.1100":"DFU Error",
  "51.5.1021":"DFU package error",
  "51.5.1022":"DFU package initialitation error",
  "51.5.1024":"Please update your igloohome app to latest version",
  "51.5.1025":"Server bluetooth version error",
  "51.5.1026":"DFU configuration initiation error",
  "51.2.1002":"Unable to connect to the Lock. Please try again.",
  "51.2.1233":"Unable to connect to the Lock. Please try again.",
  "51.2.5206":"Please ensure that the Bluetooth and location are turned on, Bluetooth privacy is enabled, then try again.",
  "51.5.5206":"Please ensure that the Bluetooth and location are turned on, Bluetooth privacy is enabled, then try again.",
  "51.2.5196":"Unable to connect to the Lock. Please try again.",
  "51.4.1":"Please check your network settings and try again.",
  "51.2.12":"Unable to connect to the lock. Please try again.",
  "52.5.1":"Generic Error",
  "53.2.980":"Unable to delete access. Fingerprint UID could not be found. Please sync the lock and try again.",
  "52.2.960":"Fingerprint creation limit reached. Please remove another fingerprint access and try again",
  "52.2.970":"Reading error",
  "52.2.971":"Fingerprint scanning timeout. Please try again.",
  "52.2.972":"You have exceeded the number of attempts. Please make sure the scanner is clean and dry, then try again.",
  "51.1.801":"Please check your network settings and try again.",
  "38.2.860":"Please ensure that the Bluetooth and location are turned on, Bluetooth privacy is enabled, then try again.",
  "33.2.860":"Please ensure that the Bluetooth and location are turned on, Bluetooth privacy is enabled, then try again.",
  "54.2.708":"Please ensure that the Bluetooth and location are turned on, Bluetooth privacy is enabled, then try again.",
  "33.2.708":"Please ensure that the Bluetooth and location are turned on, Bluetooth privacy is enabled, then try again.",
  "airbnbError":"Cannot connect to airbnb",
  "Keycard missing uid":"Unable to delete access. Keycard UID could not be found. Please sync the lock and try again."
}